digraph "header.h"
{
  edge [fontname="Helvetica",fontsize="10",labelfontname="Helvetica",labelfontsize="10"];
  node [fontname="Helvetica",fontsize="10",shape=record];
  Node15 [label="header.h",height=0.2,width=0.4,color="black", fillcolor="grey75", style="filled", fontcolor="black"];
  Node15 -> Node16 [dir="back",color="midnightblue",fontsize="10",style="solid"];
  Node16 [label="contarPalabras.h",height=0.2,width=0.4,color="black", fillcolor="white", style="filled",URL="$contarPalabras_8h.html"];
  Node16 -> Node15 [dir="back",color="midnightblue",fontsize="10",style="solid"];
}
