\relax 
\providecommand\hyper@newdestlabel[2]{}
\providecommand\HyperFirstAtBeginDocument{\AtBeginDocument}
\HyperFirstAtBeginDocument{\ifx\hyper@anchor\@undefined
\global\let\oldcontentsline\contentsline
\gdef\contentsline#1#2#3#4{\oldcontentsline{#1}{#2}{#3}}
\global\let\oldnewlabel\newlabel
\gdef\newlabel#1#2{\newlabelxx{#1}#2}
\gdef\newlabelxx#1#2#3#4#5#6{\oldnewlabel{#1}{{#2}{#3}}}
\AtEndDocument{\ifx\hyper@anchor\@undefined
\let\contentsline\oldcontentsline
\let\newlabel\oldnewlabel
\fi}
\fi}
\global\let\hyper@last\relax 
\gdef\HyperFirstAtBeginDocument#1{#1}
\providecommand\HyField@AuxAddToFields[1]{}
\providecommand\HyField@AuxAddToCoFields[2]{}
\providecommand \oddpage@label [2]{}
\@writefile{toc}{\contentsline {chapter}{\numberline {1}Manejo de Archivos\discretionary {\unhbox \voidb@x \hbox {\relax \fontsize  {7}{8}\selectfont  $\leftarrow \joinrel  \rhook $}}{}{}: Compresion y descompresion en Python y C++}{1}{chapter.1}}
\@writefile{lof}{\addvspace {10\p@ }}
\@writefile{lot}{\addvspace {10\p@ }}
\newlabel{index}{{1}{1}{Manejo de Archivos\+: Compresion y descompresion en Python y C++}{chapter.1}{}}
\@writefile{toc}{\contentsline {section}{\numberline {1.1}Introduccion}{1}{section.1.1}}
\newlabel{index_intro_sec}{{1.1}{1}{Introduccion}{section.1.1}{}}
\@writefile{toc}{\contentsline {section}{\numberline {1.2}Compilacion}{1}{section.1.2}}
\newlabel{index_compile_sec}{{1.2}{1}{Compilacion}{section.1.2}{}}
\@writefile{toc}{\contentsline {chapter}{\numberline {2}Class Index}{3}{chapter.2}}
\@writefile{lof}{\addvspace {10\p@ }}
\@writefile{lot}{\addvspace {10\p@ }}
\@writefile{toc}{\contentsline {section}{\numberline {2.1}Class List}{3}{section.2.1}}
\@writefile{toc}{\contentsline {chapter}{\numberline {3}File Index}{5}{chapter.3}}
\@writefile{lof}{\addvspace {10\p@ }}
\@writefile{lot}{\addvspace {10\p@ }}
\@writefile{toc}{\contentsline {section}{\numberline {3.1}File List}{5}{section.3.1}}
\@writefile{toc}{\contentsline {chapter}{\numberline {4}Class Documentation}{7}{chapter.4}}
\@writefile{lof}{\addvspace {10\p@ }}
\@writefile{lot}{\addvspace {10\p@ }}
\@writefile{toc}{\contentsline {section}{\numberline {4.1}contar\discretionary {\unhbox \voidb@x \hbox {\relax \fontsize  {7}{8}\selectfont  $\leftarrow \joinrel  \rhook $}}{}{}Palabras Class Reference}{7}{section.4.1}}
\newlabel{classcontarPalabras}{{4.1}{7}{contar\+Palabras Class Reference}{section.4.1}{}}
\@writefile{toc}{\contentsline {subsection}{\numberline {4.1.1}Detailed Description}{7}{subsection.4.1.1}}
\gdef \LT@i {\LT@entry 
    {3}{15.30188pt}\LT@entry 
    {3}{141.63728pt}}
\@writefile{toc}{\contentsline {subsection}{\numberline {4.1.2}Constructor \& Destructor Documentation}{8}{subsection.4.1.2}}
\newlabel{classcontarPalabras_a9336736ea7630af1fd47aebc7abcf53e}{{4.1.2}{8}{Constructor \& Destructor Documentation}{subsection.4.1.2}{}}
\@writefile{toc}{\contentsline {subsubsection}{\numberline {4.1.2.1}contar\discretionary {\unhbox \voidb@x \hbox {\relax \fontsize  {7}{8}\selectfont  $\leftarrow \joinrel  \rhook $}}{}{}Palabras()\hspace  {0.1cm}{\relax \fontsize  {8}{9.5}\selectfont  \abovedisplayskip 6\p@ plus2\p@ minus4\p@ \abovedisplayshortskip \z@ plus\p@ \belowdisplayshortskip 3\p@ plus\p@ minus2\p@ \def \leftmargin \leftmargini \parsep 4\p@ plus2\p@ minus\p@ \topsep 8\p@ plus2\p@ minus4\p@ \itemsep 4\p@ plus2\p@ minus\p@ {\leftmargin \leftmargini \topsep 3\p@ plus\p@ minus\p@ \parsep 2\p@ plus\p@ minus\p@ \itemsep \parsep }\belowdisplayskip \abovedisplayskip \ttfamily  [1/2]}}{8}{subsubsection.4.1.2.1}}
\newlabel{classcontarPalabras_ae4dabe0480aa924275ae739af6d521c6}{{4.1.2.1}{8}{\texorpdfstring {contar\+Palabras()}{contarPalabras()}\hspace {0.1cm}{\footnotesize \ttfamily [1/2]}}{subsubsection.4.1.2.1}{}}
\@writefile{toc}{\contentsline {subsubsection}{\numberline {4.1.2.2}contar\discretionary {\unhbox \voidb@x \hbox {\relax \fontsize  {7}{8}\selectfont  $\leftarrow \joinrel  \rhook $}}{}{}Palabras()\hspace  {0.1cm}{\relax \fontsize  {8}{9.5}\selectfont  \abovedisplayskip 6\p@ plus2\p@ minus4\p@ \abovedisplayshortskip \z@ plus\p@ \belowdisplayshortskip 3\p@ plus\p@ minus2\p@ \def \leftmargin \leftmargini \parsep 4\p@ plus2\p@ minus\p@ \topsep 8\p@ plus2\p@ minus4\p@ \itemsep 4\p@ plus2\p@ minus\p@ {\leftmargin \leftmargini \topsep 3\p@ plus\p@ minus\p@ \parsep 2\p@ plus\p@ minus\p@ \itemsep \parsep }\belowdisplayskip \abovedisplayskip \ttfamily  [2/2]}}{8}{subsubsection.4.1.2.2}}
\newlabel{classcontarPalabras_a7dcceb57895958347427b81555b32008}{{4.1.2.2}{8}{\texorpdfstring {contar\+Palabras()}{contarPalabras()}\hspace {0.1cm}{\footnotesize \ttfamily [2/2]}}{subsubsection.4.1.2.2}{}}
\@writefile{toc}{\contentsline {subsubsection}{\numberline {4.1.2.3}$\sim $contar\discretionary {\unhbox \voidb@x \hbox {\relax \fontsize  {7}{8}\selectfont  $\leftarrow \joinrel  \rhook $}}{}{}Palabras()}{8}{subsubsection.4.1.2.3}}
\@writefile{toc}{\contentsline {subsection}{\numberline {4.1.3}Member Function Documentation}{8}{subsection.4.1.3}}
\newlabel{classcontarPalabras_a36ccfaa3624d2658018c637a06933d52}{{4.1.3}{8}{Member Function Documentation}{subsection.4.1.3}{}}
\@writefile{toc}{\contentsline {subsubsection}{\numberline {4.1.3.1}contar()}{8}{subsubsection.4.1.3.1}}
\newlabel{classcontarPalabras_ad315142b1754d6642bb40d11fd0871e7}{{4.1.3.1}{8}{\texorpdfstring {contar()}{contar()}}{table.4.1}{}}
\gdef \LT@ii {\LT@entry 
    {3}{15.30188pt}\LT@entry 
    {3}{141.63728pt}}
\@writefile{toc}{\contentsline {subsubsection}{\numberline {4.1.3.2}crear\discretionary {\unhbox \voidb@x \hbox {\relax \fontsize  {7}{8}\selectfont  $\leftarrow \joinrel  \rhook $}}{}{}Tabla()}{9}{subsubsection.4.1.3.2}}
\newlabel{classcontarPalabras_a05d0548fbe0cce6c17116eb08510755b}{{4.1.3.2}{9}{\texorpdfstring {crear\+Tabla()}{crearTabla()}}{subsubsection.4.1.3.2}{}}
\@writefile{toc}{\contentsline {subsubsection}{\numberline {4.1.3.3}get\discretionary {\unhbox \voidb@x \hbox {\relax \fontsize  {7}{8}\selectfont  $\leftarrow \joinrel  \rhook $}}{}{}Cantidad\discretionary {\unhbox \voidb@x \hbox {\relax \fontsize  {7}{8}\selectfont  $\leftarrow \joinrel  \rhook $}}{}{}Palabras()}{9}{subsubsection.4.1.3.3}}
\newlabel{classcontarPalabras_a1776f2e3b6ab1c39dd82c22b79453637}{{4.1.3.3}{9}{\texorpdfstring {get\+Cantidad\+Palabras()}{getCantidadPalabras()}}{subsubsection.4.1.3.3}{}}
\@writefile{toc}{\contentsline {subsubsection}{\numberline {4.1.3.4}get\discretionary {\unhbox \voidb@x \hbox {\relax \fontsize  {7}{8}\selectfont  $\leftarrow \joinrel  \rhook $}}{}{}Cantidad\discretionary {\unhbox \voidb@x \hbox {\relax \fontsize  {7}{8}\selectfont  $\leftarrow \joinrel  \rhook $}}{}{}Palabras\discretionary {\unhbox \voidb@x \hbox {\relax \fontsize  {7}{8}\selectfont  $\leftarrow \joinrel  \rhook $}}{}{}Umbral()}{9}{subsubsection.4.1.3.4}}
\newlabel{classcontarPalabras_aa9995a368297bfc850a2a0dc88da9eaf}{{4.1.3.4}{9}{\texorpdfstring {get\+Cantidad\+Palabras\+Umbral()}{getCantidadPalabrasUmbral()}}{subsubsection.4.1.3.4}{}}
\@writefile{toc}{\contentsline {subsubsection}{\numberline {4.1.3.5}get\discretionary {\unhbox \voidb@x \hbox {\relax \fontsize  {7}{8}\selectfont  $\leftarrow \joinrel  \rhook $}}{}{}Umbral()}{9}{subsubsection.4.1.3.5}}
\newlabel{classcontarPalabras_aaed21778ff561017fc0ea7e7560a614a}{{4.1.3.5}{9}{\texorpdfstring {get\+Umbral()}{getUmbral()}}{subsubsection.4.1.3.5}{}}
\@writefile{toc}{\contentsline {subsubsection}{\numberline {4.1.3.6}guardar\discretionary {\unhbox \voidb@x \hbox {\relax \fontsize  {7}{8}\selectfont  $\leftarrow \joinrel  \rhook $}}{}{}Palabras()}{9}{subsubsection.4.1.3.6}}
\newlabel{classcontarPalabras_a9cf7c768dde495053f875c7f03ba4340}{{4.1.3.6}{9}{\texorpdfstring {guardar\+Palabras()}{guardarPalabras()}}{table.4.2}{}}
\gdef \LT@iii {\LT@entry 
    {3}{40.2135pt}\LT@entry 
    {3}{207.89388pt}}
\@writefile{toc}{\contentsline {subsubsection}{\numberline {4.1.3.7}set\discretionary {\unhbox \voidb@x \hbox {\relax \fontsize  {7}{8}\selectfont  $\leftarrow \joinrel  \rhook $}}{}{}Umbral()}{10}{subsubsection.4.1.3.7}}
\newlabel{classcontarPalabras_a695dbcec7d2202cf937c5a1259faca18}{{4.1.3.7}{10}{\texorpdfstring {set\+Umbral()}{setUmbral()}}{table.4.3}{}}
\@writefile{toc}{\contentsline {subsubsection}{\numberline {4.1.3.8}sustituir()}{10}{subsubsection.4.1.3.8}}
\@writefile{toc}{\contentsline {chapter}{\numberline {5}File Documentation}{11}{chapter.5}}
\@writefile{lof}{\addvspace {10\p@ }}
\@writefile{lot}{\addvspace {10\p@ }}
\@writefile{toc}{\contentsline {section}{\numberline {5.1}contar\discretionary {\unhbox \voidb@x \hbox {\relax \fontsize  {7}{8}\selectfont  $\leftarrow \joinrel  \rhook $}}{}{}Palabras.\discretionary {\unhbox \voidb@x \hbox {\relax \fontsize  {7}{8}\selectfont  $\leftarrow \joinrel  \rhook $}}{}{}h File Reference}{11}{section.5.1}}
\newlabel{contarPalabras_8h}{{5.1}{11}{contar\+Palabras.\+h File Reference}{section.5.1}{}}
\@writefile{toc}{\contentsline {section}{\numberline {5.2}header.\discretionary {\unhbox \voidb@x \hbox {\relax \fontsize  {7}{8}\selectfont  $\leftarrow \joinrel  \rhook $}}{}{}h File Reference}{11}{section.5.2}}
\newlabel{header_8h}{{5.2}{11}{header.\+h File Reference}{section.5.2}{}}
\@writefile{toc}{\contentsline {chapter}{Index}{13}{section*.3}}
