\contentsline {chapter}{\numberline {1}Manejo de Archivos\discretionary {\unhbox \voidb@x \hbox {\relax \fontsize {7}{8}\selectfont $\leftarrow \joinrel \rhook $}}{}{}: Compresion y descompresion en Python y C++}{1}{chapter.1}
\contentsline {section}{\numberline {1.1}Introduccion}{1}{section.1.1}
\contentsline {section}{\numberline {1.2}Compilacion}{1}{section.1.2}
\contentsline {chapter}{\numberline {2}Class Index}{3}{chapter.2}
\contentsline {section}{\numberline {2.1}Class List}{3}{section.2.1}
\contentsline {chapter}{\numberline {3}File Index}{5}{chapter.3}
\contentsline {section}{\numberline {3.1}File List}{5}{section.3.1}
\contentsline {chapter}{\numberline {4}Class Documentation}{7}{chapter.4}
\contentsline {section}{\numberline {4.1}contar\discretionary {\unhbox \voidb@x \hbox {\relax \fontsize {7}{8}\selectfont $\leftarrow \joinrel \rhook $}}{}{}Palabras Class Reference}{7}{section.4.1}
\contentsline {subsection}{\numberline {4.1.1}Detailed Description}{7}{subsection.4.1.1}
\contentsline {subsection}{\numberline {4.1.2}Constructor \& Destructor Documentation}{8}{subsection.4.1.2}
\contentsline {subsubsection}{\numberline {4.1.2.1}contar\discretionary {\unhbox \voidb@x \hbox {\relax \fontsize {7}{8}\selectfont $\leftarrow \joinrel \rhook $}}{}{}Palabras()\hspace {0.1cm}{\relax \fontsize {8}{9.5}\selectfont \abovedisplayskip 6\p@ plus2\p@ minus4\p@ \abovedisplayshortskip \z@ plus\p@ \belowdisplayshortskip 3\p@ plus\p@ minus2\p@ \def \leftmargin \leftmargini \parsep 4\p@ plus2\p@ minus\p@ \topsep 8\p@ plus2\p@ minus4\p@ \itemsep 4\p@ plus2\p@ minus\p@ {\leftmargin \leftmargini \topsep 3\p@ plus\p@ minus\p@ \parsep 2\p@ plus\p@ minus\p@ \itemsep \parsep }\belowdisplayskip \abovedisplayskip \ttfamily [1/2]}}{8}{subsubsection.4.1.2.1}
\contentsline {subsubsection}{\numberline {4.1.2.2}contar\discretionary {\unhbox \voidb@x \hbox {\relax \fontsize {7}{8}\selectfont $\leftarrow \joinrel \rhook $}}{}{}Palabras()\hspace {0.1cm}{\relax \fontsize {8}{9.5}\selectfont \abovedisplayskip 6\p@ plus2\p@ minus4\p@ \abovedisplayshortskip \z@ plus\p@ \belowdisplayshortskip 3\p@ plus\p@ minus2\p@ \def \leftmargin \leftmargini \parsep 4\p@ plus2\p@ minus\p@ \topsep 8\p@ plus2\p@ minus4\p@ \itemsep 4\p@ plus2\p@ minus\p@ {\leftmargin \leftmargini \topsep 3\p@ plus\p@ minus\p@ \parsep 2\p@ plus\p@ minus\p@ \itemsep \parsep }\belowdisplayskip \abovedisplayskip \ttfamily [2/2]}}{8}{subsubsection.4.1.2.2}
\contentsline {subsubsection}{\numberline {4.1.2.3}$\sim $contar\discretionary {\unhbox \voidb@x \hbox {\relax \fontsize {7}{8}\selectfont $\leftarrow \joinrel \rhook $}}{}{}Palabras()}{8}{subsubsection.4.1.2.3}
\contentsline {subsection}{\numberline {4.1.3}Member Function Documentation}{8}{subsection.4.1.3}
\contentsline {subsubsection}{\numberline {4.1.3.1}contar()}{8}{subsubsection.4.1.3.1}
\contentsline {subsubsection}{\numberline {4.1.3.2}crear\discretionary {\unhbox \voidb@x \hbox {\relax \fontsize {7}{8}\selectfont $\leftarrow \joinrel \rhook $}}{}{}Tabla()}{9}{subsubsection.4.1.3.2}
\contentsline {subsubsection}{\numberline {4.1.3.3}get\discretionary {\unhbox \voidb@x \hbox {\relax \fontsize {7}{8}\selectfont $\leftarrow \joinrel \rhook $}}{}{}Cantidad\discretionary {\unhbox \voidb@x \hbox {\relax \fontsize {7}{8}\selectfont $\leftarrow \joinrel \rhook $}}{}{}Palabras()}{9}{subsubsection.4.1.3.3}
\contentsline {subsubsection}{\numberline {4.1.3.4}get\discretionary {\unhbox \voidb@x \hbox {\relax \fontsize {7}{8}\selectfont $\leftarrow \joinrel \rhook $}}{}{}Cantidad\discretionary {\unhbox \voidb@x \hbox {\relax \fontsize {7}{8}\selectfont $\leftarrow \joinrel \rhook $}}{}{}Palabras\discretionary {\unhbox \voidb@x \hbox {\relax \fontsize {7}{8}\selectfont $\leftarrow \joinrel \rhook $}}{}{}Umbral()}{9}{subsubsection.4.1.3.4}
\contentsline {subsubsection}{\numberline {4.1.3.5}get\discretionary {\unhbox \voidb@x \hbox {\relax \fontsize {7}{8}\selectfont $\leftarrow \joinrel \rhook $}}{}{}Umbral()}{9}{subsubsection.4.1.3.5}
\contentsline {subsubsection}{\numberline {4.1.3.6}guardar\discretionary {\unhbox \voidb@x \hbox {\relax \fontsize {7}{8}\selectfont $\leftarrow \joinrel \rhook $}}{}{}Palabras()}{9}{subsubsection.4.1.3.6}
\contentsline {subsubsection}{\numberline {4.1.3.7}set\discretionary {\unhbox \voidb@x \hbox {\relax \fontsize {7}{8}\selectfont $\leftarrow \joinrel \rhook $}}{}{}Umbral()}{10}{subsubsection.4.1.3.7}
\contentsline {subsubsection}{\numberline {4.1.3.8}sustituir()}{10}{subsubsection.4.1.3.8}
\contentsline {chapter}{\numberline {5}File Documentation}{11}{chapter.5}
\contentsline {section}{\numberline {5.1}contar\discretionary {\unhbox \voidb@x \hbox {\relax \fontsize {7}{8}\selectfont $\leftarrow \joinrel \rhook $}}{}{}Palabras.\discretionary {\unhbox \voidb@x \hbox {\relax \fontsize {7}{8}\selectfont $\leftarrow \joinrel \rhook $}}{}{}h File Reference}{11}{section.5.1}
\contentsline {section}{\numberline {5.2}header.\discretionary {\unhbox \voidb@x \hbox {\relax \fontsize {7}{8}\selectfont $\leftarrow \joinrel \rhook $}}{}{}h File Reference}{11}{section.5.2}
\contentsline {chapter}{Index}{13}{section*.3}
