\relax 
\providecommand\hyper@newdestlabel[2]{}
\providecommand\HyperFirstAtBeginDocument{\AtBeginDocument}
\HyperFirstAtBeginDocument{\ifx\hyper@anchor\@undefined
\global\let\oldcontentsline\contentsline
\gdef\contentsline#1#2#3#4{\oldcontentsline{#1}{#2}{#3}}
\global\let\oldnewlabel\newlabel
\gdef\newlabel#1#2{\newlabelxx{#1}#2}
\gdef\newlabelxx#1#2#3#4#5#6{\oldnewlabel{#1}{{#2}{#3}}}
\AtEndDocument{\ifx\hyper@anchor\@undefined
\let\contentsline\oldcontentsline
\let\newlabel\oldnewlabel
\fi}
\fi}
\global\let\hyper@last\relax 
\gdef\HyperFirstAtBeginDocument#1{#1}
\providecommand\HyField@AuxAddToFields[1]{}
\providecommand\HyField@AuxAddToCoFields[2]{}
\providecommand \oddpage@label [2]{}
\@writefile{toc}{\contentsline {chapter}{\numberline {1}\IeC {\'I}ndice de clases}{1}{chapter.1}}
\@writefile{lof}{\addvspace {10\p@ }}
\@writefile{lot}{\addvspace {10\p@ }}
\@writefile{toc}{\contentsline {section}{\numberline {1.1}Lista de clases}{1}{section.1.1}}
\@writefile{toc}{\contentsline {chapter}{\numberline {2}Indice de archivos}{3}{chapter.2}}
\@writefile{lof}{\addvspace {10\p@ }}
\@writefile{lot}{\addvspace {10\p@ }}
\@writefile{toc}{\contentsline {section}{\numberline {2.1}Lista de archivos}{3}{section.2.1}}
\@writefile{toc}{\contentsline {chapter}{\numberline {3}Documentaci\IeC {\'o}n de las clases}{5}{chapter.3}}
\@writefile{lof}{\addvspace {10\p@ }}
\@writefile{lot}{\addvspace {10\p@ }}
\@writefile{toc}{\contentsline {section}{\numberline {3.1}Referencia de la Clase Fraccion}{5}{section.3.1}}
\newlabel{classFraccion}{{3.1}{5}{Referencia de la Clase Fraccion}{section.3.1}{}}
\@writefile{toc}{\contentsline {subsection}{\numberline {3.1.1}Documentaci\IeC {\'o}n del constructor y destructor}{5}{subsection.3.1.1}}
\newlabel{classFraccion_a80b8bb475192ceb820428a57e911ceb5}{{3.1.1}{5}{Documentación del constructor y destructor}{subsection.3.1.1}{}}
\@writefile{toc}{\contentsline {subsubsection}{\numberline {3.1.1.1}Fraccion()\hspace  {0.1cm}{\relax \fontsize  {8}{9.5}\selectfont  \abovedisplayskip 6\p@ plus2\p@ minus4\p@ \abovedisplayshortskip \z@ plus\p@ \belowdisplayshortskip 3\p@ plus\p@ minus2\p@ \def \leftmargin \leftmargini \parsep 4\p@ plus2\p@ minus\p@ \topsep 8\p@ plus2\p@ minus4\p@ \itemsep 4\p@ plus2\p@ minus\p@ {\leftmargin \leftmargini \topsep 3\p@ plus\p@ minus\p@ \parsep 2\p@ plus\p@ minus\p@ \itemsep \parsep }\belowdisplayskip \abovedisplayskip \ttfamily  [1/2]}}{5}{subsubsection.3.1.1.1}}
\newlabel{classFraccion_ada568252dd7b11fcd7885ec3432ae429}{{3.1.1.1}{5}{\texorpdfstring {Fraccion()}{Fraccion()}\hspace {0.1cm}{\footnotesize \ttfamily [1/2]}}{subsubsection.3.1.1.1}{}}
\@writefile{toc}{\contentsline {subsubsection}{\numberline {3.1.1.2}Fraccion()\hspace  {0.1cm}{\relax \fontsize  {8}{9.5}\selectfont  \abovedisplayskip 6\p@ plus2\p@ minus4\p@ \abovedisplayshortskip \z@ plus\p@ \belowdisplayshortskip 3\p@ plus\p@ minus2\p@ \def \leftmargin \leftmargini \parsep 4\p@ plus2\p@ minus\p@ \topsep 8\p@ plus2\p@ minus4\p@ \itemsep 4\p@ plus2\p@ minus\p@ {\leftmargin \leftmargini \topsep 3\p@ plus\p@ minus\p@ \parsep 2\p@ plus\p@ minus\p@ \itemsep \parsep }\belowdisplayskip \abovedisplayskip \ttfamily  [2/2]}}{6}{subsubsection.3.1.1.2}}
\@writefile{toc}{\contentsline {subsection}{\numberline {3.1.2}Documentaci\IeC {\'o}n de las funciones miembro}{6}{subsection.3.1.2}}
\newlabel{classFraccion_ad947df0721f2f1502ef99cfac9993e2b}{{3.1.2}{6}{Documentación de las funciones miembro}{subsection.3.1.2}{}}
\@writefile{toc}{\contentsline {subsubsection}{\numberline {3.1.2.1}operator float()}{6}{subsubsection.3.1.2.1}}
\newlabel{classFraccion_a6f05a00fc1d573b95957ece1d35978e2}{{3.1.2.1}{6}{\texorpdfstring {operator float()}{operator float()}}{subsubsection.3.1.2.1}{}}
\@writefile{toc}{\contentsline {subsubsection}{\numberline {3.1.2.2}operator$\ast $()}{6}{subsubsection.3.1.2.2}}
\newlabel{classFraccion_ab6b2dd0b2464b92e45d101ed99f7c965}{{3.1.2.2}{6}{\texorpdfstring {operator$\ast $()}{operator*()}}{subsubsection.3.1.2.2}{}}
\@writefile{toc}{\contentsline {subsubsection}{\numberline {3.1.2.3}operator+()}{6}{subsubsection.3.1.2.3}}
\newlabel{classFraccion_ad1f90db6df1ba8493ee98911c2a04a8b}{{3.1.2.3}{6}{\texorpdfstring {operator+()}{operator+()}}{subsubsection.3.1.2.3}{}}
\@writefile{toc}{\contentsline {subsubsection}{\numberline {3.1.2.4}operator-\/()}{6}{subsubsection.3.1.2.4}}
\newlabel{classFraccion_a901ef7e569d380379926ace5dc3296d7}{{3.1.2.4}{6}{\texorpdfstring {operator-\/()}{operator-()}}{subsubsection.3.1.2.4}{}}
\@writefile{toc}{\contentsline {subsubsection}{\numberline {3.1.2.5}operator/()}{6}{subsubsection.3.1.2.5}}
\@writefile{toc}{\contentsline {subsection}{\numberline {3.1.3}Documentaci\IeC {\'o}n de las funciones relacionadas y clases amigas}{6}{subsection.3.1.3}}
\newlabel{classFraccion_ac0c66a21cb203a456a6ae7ae55cc85d1}{{3.1.3}{6}{Documentación de las funciones relacionadas y clases amigas}{subsection.3.1.3}{}}
\@writefile{toc}{\contentsline {subsubsection}{\numberline {3.1.3.1}operator$<$$<$}{7}{subsubsection.3.1.3.1}}
\newlabel{classFraccion_a80960de05aa544cef802eeaa448c15d6}{{3.1.3.1}{7}{\texorpdfstring {operator$<$$<$}{operator<<}}{subsubsection.3.1.3.1}{}}
\@writefile{toc}{\contentsline {subsubsection}{\numberline {3.1.3.2}operator$>$$>$}{7}{subsubsection.3.1.3.2}}
\@writefile{toc}{\contentsline {section}{\numberline {3.2}Referencia de la Clase Polinomio}{7}{section.3.2}}
\newlabel{classPolinomio}{{3.2}{7}{Referencia de la Clase Polinomio}{section.3.2}{}}
\@writefile{toc}{\contentsline {subsection}{\numberline {3.2.1}Documentaci\IeC {\'o}n del constructor y destructor}{7}{subsection.3.2.1}}
\newlabel{classPolinomio_ac910fd7c555f384a2b12a8f498acd2f4}{{3.2.1}{7}{Documentación del constructor y destructor}{subsection.3.2.1}{}}
\@writefile{toc}{\contentsline {subsubsection}{\numberline {3.2.1.1}Polinomio()\hspace  {0.1cm}{\relax \fontsize  {8}{9.5}\selectfont  \abovedisplayskip 6\p@ plus2\p@ minus4\p@ \abovedisplayshortskip \z@ plus\p@ \belowdisplayshortskip 3\p@ plus\p@ minus2\p@ \def \leftmargin \leftmargini \parsep 4\p@ plus2\p@ minus\p@ \topsep 8\p@ plus2\p@ minus4\p@ \itemsep 4\p@ plus2\p@ minus\p@ {\leftmargin \leftmargini \topsep 3\p@ plus\p@ minus\p@ \parsep 2\p@ plus\p@ minus\p@ \itemsep \parsep }\belowdisplayskip \abovedisplayskip \ttfamily  [1/2]}}{7}{subsubsection.3.2.1.1}}
\newlabel{classPolinomio_aeb3a93c8a0e3617edfa0beb709056668}{{3.2.1.1}{7}{\texorpdfstring {Polinomio()}{Polinomio()}\hspace {0.1cm}{\footnotesize \ttfamily [1/2]}}{subsubsection.3.2.1.1}{}}
\@writefile{toc}{\contentsline {subsubsection}{\numberline {3.2.1.2}Polinomio()\hspace  {0.1cm}{\relax \fontsize  {8}{9.5}\selectfont  \abovedisplayskip 6\p@ plus2\p@ minus4\p@ \abovedisplayshortskip \z@ plus\p@ \belowdisplayshortskip 3\p@ plus\p@ minus2\p@ \def \leftmargin \leftmargini \parsep 4\p@ plus2\p@ minus\p@ \topsep 8\p@ plus2\p@ minus4\p@ \itemsep 4\p@ plus2\p@ minus\p@ {\leftmargin \leftmargini \topsep 3\p@ plus\p@ minus\p@ \parsep 2\p@ plus\p@ minus\p@ \itemsep \parsep }\belowdisplayskip \abovedisplayskip \ttfamily  [2/2]}}{8}{subsubsection.3.2.1.2}}
\@writefile{toc}{\contentsline {subsection}{\numberline {3.2.2}Documentaci\IeC {\'o}n de las funciones miembro}{8}{subsection.3.2.2}}
\newlabel{classPolinomio_a8de5de3e1bc5394886f5e5460f348c2c}{{3.2.2}{8}{Documentación de las funciones miembro}{subsection.3.2.2}{}}
\@writefile{toc}{\contentsline {subsubsection}{\numberline {3.2.2.1}operator$\ast $()}{8}{subsubsection.3.2.2.1}}
\newlabel{classPolinomio_adb1eeb2c5e5fdb5842b109f3d3b05574}{{3.2.2.1}{8}{\texorpdfstring {operator$\ast $()}{operator*()}}{subsubsection.3.2.2.1}{}}
\@writefile{toc}{\contentsline {subsubsection}{\numberline {3.2.2.2}operator+()}{8}{subsubsection.3.2.2.2}}
\newlabel{classPolinomio_a4c57cbda8b003eb339ccee7290118beb}{{3.2.2.2}{8}{\texorpdfstring {operator+()}{operator+()}}{subsubsection.3.2.2.2}{}}
\@writefile{toc}{\contentsline {subsubsection}{\numberline {3.2.2.3}operator-\/()}{8}{subsubsection.3.2.2.3}}
\newlabel{classPolinomio_a9daa7a9d0ad9e88fb91831413755003b}{{3.2.2.3}{8}{\texorpdfstring {operator-\/()}{operator-()}}{subsubsection.3.2.2.3}{}}
\@writefile{toc}{\contentsline {subsubsection}{\numberline {3.2.2.4}operator/()}{8}{subsubsection.3.2.2.4}}
\@writefile{toc}{\contentsline {subsection}{\numberline {3.2.3}Documentaci\IeC {\'o}n de las funciones relacionadas y clases amigas}{8}{subsection.3.2.3}}
\newlabel{classPolinomio_af1cc0dbf6f17803a8274e75efb99e371}{{3.2.3}{8}{Documentación de las funciones relacionadas y clases amigas}{subsection.3.2.3}{}}
\@writefile{toc}{\contentsline {subsubsection}{\numberline {3.2.3.1}operator$<$$<$}{8}{subsubsection.3.2.3.1}}
\newlabel{classPolinomio_a9b042a6bc0e65d53f8b092f761281c9a}{{3.2.3.1}{8}{\texorpdfstring {operator$<$$<$}{operator<<}}{subsubsection.3.2.3.1}{}}
\@writefile{toc}{\contentsline {subsubsection}{\numberline {3.2.3.2}operator$>$$>$}{9}{subsubsection.3.2.3.2}}
\@writefile{toc}{\contentsline {chapter}{\numberline {4}Documentaci\IeC {\'o}n de archivos}{11}{chapter.4}}
\@writefile{lof}{\addvspace {10\p@ }}
\@writefile{lot}{\addvspace {10\p@ }}
\@writefile{toc}{\contentsline {section}{\numberline {4.1}Referencia del Archivo fraccion.\discretionary {\unhbox \voidb@x \hbox {\relax \fontsize  {7}{8}\selectfont  $\leftarrow \joinrel  \rhook $}}{}{}h}{11}{section.4.1}}
\newlabel{fraccion_8h}{{4.1}{11}{Referencia del Archivo fraccion.\+h}{section.4.1}{}}
\@writefile{toc}{\contentsline {section}{\numberline {4.2}Referencia del Archivo polinomio.\discretionary {\unhbox \voidb@x \hbox {\relax \fontsize  {7}{8}\selectfont  $\leftarrow \joinrel  \rhook $}}{}{}h}{11}{section.4.2}}
\newlabel{polinomio_8h}{{4.2}{11}{Referencia del Archivo polinomio.\+h}{section.4.2}{}}
