\relax 
\providecommand\hyper@newdestlabel[2]{}
\providecommand\HyperFirstAtBeginDocument{\AtBeginDocument}
\HyperFirstAtBeginDocument{\ifx\hyper@anchor\@undefined
\global\let\oldcontentsline\contentsline
\gdef\contentsline#1#2#3#4{\oldcontentsline{#1}{#2}{#3}}
\global\let\oldnewlabel\newlabel
\gdef\newlabel#1#2{\newlabelxx{#1}#2}
\gdef\newlabelxx#1#2#3#4#5#6{\oldnewlabel{#1}{{#2}{#3}}}
\AtEndDocument{\ifx\hyper@anchor\@undefined
\let\contentsline\oldcontentsline
\let\newlabel\oldnewlabel
\fi}
\fi}
\global\let\hyper@last\relax 
\gdef\HyperFirstAtBeginDocument#1{#1}
\providecommand\HyField@AuxAddToFields[1]{}
\providecommand\HyField@AuxAddToCoFields[2]{}
\providecommand \oddpage@label [2]{}
\@writefile{toc}{\contentsline {chapter}{\numberline {1}Laboratorio 7\discretionary {\unhbox \voidb@x \hbox {\relax \fontsize  {7}{8}\selectfont  $\leftarrow \joinrel  \rhook $}}{}{}: Colas y Pilas en C++}{1}{chapter.1}}
\@writefile{lof}{\addvspace {10\p@ }}
\@writefile{lot}{\addvspace {10\p@ }}
\newlabel{index}{{1}{1}{Laboratorio 7\+: Colas y Pilas en C++}{chapter.1}{}}
\@writefile{toc}{\contentsline {section}{\numberline {1.1}Introduccion}{1}{section.1.1}}
\newlabel{index_intro_sec}{{1.1}{1}{Introduccion}{section.1.1}{}}
\@writefile{toc}{\contentsline {section}{\numberline {1.2}Compilacion y ejecucion}{1}{section.1.2}}
\newlabel{index_compile_sec}{{1.2}{1}{Compilacion y ejecucion}{section.1.2}{}}
\@writefile{toc}{\contentsline {section}{\numberline {1.3}Documentacion}{1}{section.1.3}}
\newlabel{index_Documentation_sec}{{1.3}{1}{Documentacion}{section.1.3}{}}
\@writefile{toc}{\contentsline {section}{\numberline {1.4}Sobre el programa}{2}{section.1.4}}
\newlabel{index_about_sec}{{1.4}{2}{Sobre el programa}{section.1.4}{}}
\@writefile{toc}{\contentsline {section}{\numberline {1.5}Resumen Teorico}{2}{section.1.5}}
\newlabel{index_concepts_sec}{{1.5}{2}{Resumen Teorico}{section.1.5}{}}
\@writefile{toc}{\contentsline {subsection}{\numberline {1.5.1}de Datos}{2}{subsection.1.5.1}}
\newlabel{index_Estructuras}{{1.5.1}{2}{de Datos}{subsection.1.5.1}{}}
\@writefile{toc}{\contentsline {subsection}{\numberline {1.5.2}, Pilas, Colas y arboles}{2}{subsection.1.5.2}}
\newlabel{index_Listas}{{1.5.2}{2}{, Pilas, Colas y arboles}{subsection.1.5.2}{}}
\@writefile{toc}{\contentsline {chapter}{\numberline {2}Class Index}{3}{chapter.2}}
\@writefile{lof}{\addvspace {10\p@ }}
\@writefile{lot}{\addvspace {10\p@ }}
\@writefile{toc}{\contentsline {section}{\numberline {2.1}Class List}{3}{section.2.1}}
\@writefile{toc}{\contentsline {chapter}{\numberline {3}File Index}{5}{chapter.3}}
\@writefile{lof}{\addvspace {10\p@ }}
\@writefile{lot}{\addvspace {10\p@ }}
\@writefile{toc}{\contentsline {section}{\numberline {3.1}File List}{5}{section.3.1}}
\@writefile{toc}{\contentsline {chapter}{\numberline {4}Class Documentation}{7}{chapter.4}}
\@writefile{lof}{\addvspace {10\p@ }}
\@writefile{lot}{\addvspace {10\p@ }}
\@writefile{toc}{\contentsline {section}{\numberline {4.1}Cola Class Reference}{7}{section.4.1}}
\newlabel{classCola}{{4.1}{7}{Cola Class Reference}{section.4.1}{}}
\@writefile{toc}{\contentsline {subsection}{\numberline {4.1.1}Detailed Description}{8}{subsection.4.1.1}}
\@writefile{toc}{\contentsline {subsection}{\numberline {4.1.2}Constructor \& Destructor Documentation}{8}{subsection.4.1.2}}
\newlabel{classCola_ae19ba267b100731ff84e62c1c2639883}{{4.1.2}{8}{Constructor \& Destructor Documentation}{subsection.4.1.2}{}}
\@writefile{toc}{\contentsline {subsubsection}{\numberline {4.1.2.1}Cola()\hspace  {0.1cm}{\relax \fontsize  {8}{9.5}\selectfont  \abovedisplayskip 6\p@ plus2\p@ minus4\p@ \abovedisplayshortskip \z@ plus\p@ \belowdisplayshortskip 3\p@ plus\p@ minus2\p@ \def \leftmargin \leftmargini \parsep 4\p@ plus2\p@ minus\p@ \topsep 8\p@ plus2\p@ minus4\p@ \itemsep 4\p@ plus2\p@ minus\p@ {\leftmargin \leftmargini \topsep 3\p@ plus\p@ minus\p@ \parsep 2\p@ plus\p@ minus\p@ \itemsep \parsep }\belowdisplayskip \abovedisplayskip \ttfamily  [1/3]}}{8}{subsubsection.4.1.2.1}}
\newlabel{classCola_a63be636c5d5de8c2046664e4bf283f73}{{4.1.2.1}{8}{\texorpdfstring {Cola()}{Cola()}\hspace {0.1cm}{\footnotesize \ttfamily [1/3]}}{subsubsection.4.1.2.1}{}}
\@writefile{toc}{\contentsline {subsubsection}{\numberline {4.1.2.2}Cola()\hspace  {0.1cm}{\relax \fontsize  {8}{9.5}\selectfont  \abovedisplayskip 6\p@ plus2\p@ minus4\p@ \abovedisplayshortskip \z@ plus\p@ \belowdisplayshortskip 3\p@ plus\p@ minus2\p@ \def \leftmargin \leftmargini \parsep 4\p@ plus2\p@ minus\p@ \topsep 8\p@ plus2\p@ minus4\p@ \itemsep 4\p@ plus2\p@ minus\p@ {\leftmargin \leftmargini \topsep 3\p@ plus\p@ minus\p@ \parsep 2\p@ plus\p@ minus\p@ \itemsep \parsep }\belowdisplayskip \abovedisplayskip \ttfamily  [2/3]}}{8}{subsubsection.4.1.2.2}}
\newlabel{classCola_ae1a2e1182a148f5a4a7f44c7089edf6f}{{4.1.2.2}{8}{\texorpdfstring {Cola()}{Cola()}\hspace {0.1cm}{\footnotesize \ttfamily [2/3]}}{subsubsection.4.1.2.2}{}}
\@writefile{toc}{\contentsline {subsubsection}{\numberline {4.1.2.3}Cola()\hspace  {0.1cm}{\relax \fontsize  {8}{9.5}\selectfont  \abovedisplayskip 6\p@ plus2\p@ minus4\p@ \abovedisplayshortskip \z@ plus\p@ \belowdisplayshortskip 3\p@ plus\p@ minus2\p@ \def \leftmargin \leftmargini \parsep 4\p@ plus2\p@ minus\p@ \topsep 8\p@ plus2\p@ minus4\p@ \itemsep 4\p@ plus2\p@ minus\p@ {\leftmargin \leftmargini \topsep 3\p@ plus\p@ minus\p@ \parsep 2\p@ plus\p@ minus\p@ \itemsep \parsep }\belowdisplayskip \abovedisplayskip \ttfamily  [3/3]}}{8}{subsubsection.4.1.2.3}}
\newlabel{classCola_a7d33181b816219b95d0d939e510c0573}{{4.1.2.3}{8}{\texorpdfstring {Cola()}{Cola()}\hspace {0.1cm}{\footnotesize \ttfamily [3/3]}}{subsubsection.4.1.2.3}{}}
\@writefile{toc}{\contentsline {subsubsection}{\numberline {4.1.2.4}$\sim $\discretionary {\unhbox \voidb@x \hbox {\relax \fontsize  {7}{8}\selectfont  $\leftarrow \joinrel  \rhook $}}{}{}Cola()}{8}{subsubsection.4.1.2.4}}
\@writefile{toc}{\contentsline {subsection}{\numberline {4.1.3}Member Function Documentation}{9}{subsection.4.1.3}}
\newlabel{classCola_aed01aaef6c5045babae40549304d26d1}{{4.1.3}{9}{Member Function Documentation}{subsection.4.1.3}{}}
\@writefile{toc}{\contentsline {subsubsection}{\numberline {4.1.3.1}Crear\discretionary {\unhbox \voidb@x \hbox {\relax \fontsize  {7}{8}\selectfont  $\leftarrow \joinrel  \rhook $}}{}{}Nodo()}{9}{subsubsection.4.1.3.1}}
\newlabel{classCola_a98d473636375b490d98902baf0719316}{{4.1.3.1}{9}{\texorpdfstring {Crear\+Nodo()}{CrearNodo()}}{subsubsection.4.1.3.1}{}}
\@writefile{toc}{\contentsline {subsubsection}{\numberline {4.1.3.2}de\discretionary {\unhbox \voidb@x \hbox {\relax \fontsize  {7}{8}\selectfont  $\leftarrow \joinrel  \rhook $}}{}{}Queue()}{9}{subsubsection.4.1.3.2}}
\newlabel{classCola_a1128d762947523bbe46c5e938a967325}{{4.1.3.2}{9}{\texorpdfstring {de\+Queue()}{deQueue()}}{subsubsection.4.1.3.2}{}}
\@writefile{toc}{\contentsline {subsubsection}{\numberline {4.1.3.3}Destruir\discretionary {\unhbox \voidb@x \hbox {\relax \fontsize  {7}{8}\selectfont  $\leftarrow \joinrel  \rhook $}}{}{}Nodo()}{9}{subsubsection.4.1.3.3}}
\newlabel{classCola_a5613d8cde362eabb52b95d9a680bf7d5}{{4.1.3.3}{9}{\texorpdfstring {Destruir\+Nodo()}{DestruirNodo()}}{subsubsection.4.1.3.3}{}}
\@writefile{toc}{\contentsline {subsubsection}{\numberline {4.1.3.4}en\discretionary {\unhbox \voidb@x \hbox {\relax \fontsize  {7}{8}\selectfont  $\leftarrow \joinrel  \rhook $}}{}{}Queue()}{9}{subsubsection.4.1.3.4}}
\newlabel{classCola_a2d7a50612c231263ff4f42488442ce1f}{{4.1.3.4}{9}{\texorpdfstring {en\+Queue()}{enQueue()}}{subsubsection.4.1.3.4}{}}
\@writefile{toc}{\contentsline {subsubsection}{\numberline {4.1.3.5}get\discretionary {\unhbox \voidb@x \hbox {\relax \fontsize  {7}{8}\selectfont  $\leftarrow \joinrel  \rhook $}}{}{}Nombre()}{10}{subsubsection.4.1.3.5}}
\newlabel{classCola_ae5af8f4e9dc2cbf1a22939f68300527f}{{4.1.3.5}{10}{\texorpdfstring {get\+Nombre()}{getNombre()}}{subsubsection.4.1.3.5}{}}
\@writefile{toc}{\contentsline {subsubsection}{\numberline {4.1.3.6}get\discretionary {\unhbox \voidb@x \hbox {\relax \fontsize  {7}{8}\selectfont  $\leftarrow \joinrel  \rhook $}}{}{}Size()}{10}{subsubsection.4.1.3.6}}
\newlabel{classCola_abcae1ce4376baf11ff7e004a7a695705}{{4.1.3.6}{10}{\texorpdfstring {get\+Size()}{getSize()}}{subsubsection.4.1.3.6}{}}
\@writefile{toc}{\contentsline {subsubsection}{\numberline {4.1.3.7}Print\discretionary {\unhbox \voidb@x \hbox {\relax \fontsize  {7}{8}\selectfont  $\leftarrow \joinrel  \rhook $}}{}{}Queue()}{10}{subsubsection.4.1.3.7}}
\newlabel{classCola_aa507c0080907521ebe07f4eeb022cbd5}{{4.1.3.7}{10}{\texorpdfstring {Print\+Queue()}{PrintQueue()}}{subsubsection.4.1.3.7}{}}
\@writefile{toc}{\contentsline {subsubsection}{\numberline {4.1.3.8}Vacia()}{10}{subsubsection.4.1.3.8}}
\@writefile{toc}{\contentsline {section}{\numberline {4.2}Lista Struct Reference}{11}{section.4.2}}
\newlabel{structLista}{{4.2}{11}{Lista Struct Reference}{section.4.2}{}}
\@writefile{toc}{\contentsline {subsection}{\numberline {4.2.1}Detailed Description}{11}{subsection.4.2.1}}
\@writefile{toc}{\contentsline {subsection}{\numberline {4.2.2}Member Data Documentation}{11}{subsection.4.2.2}}
\newlabel{structLista_a8e93fa45beaa5d6b6c870512d445d41b}{{4.2.2}{11}{Member Data Documentation}{subsection.4.2.2}{}}
\@writefile{toc}{\contentsline {subsubsection}{\numberline {4.2.2.1}head}{11}{subsubsection.4.2.2.1}}
\newlabel{structLista_af5621d978514ee441f40bbefabc6330b}{{4.2.2.1}{11}{\texorpdfstring {head}{head}}{subsubsection.4.2.2.1}{}}
\@writefile{toc}{\contentsline {subsubsection}{\numberline {4.2.2.2}nombre\discretionary {\unhbox \voidb@x \hbox {\relax \fontsize  {7}{8}\selectfont  $\leftarrow \joinrel  \rhook $}}{}{}Lista}{11}{subsubsection.4.2.2.2}}
\newlabel{structLista_a0753cfe068be333f17bf1f27de4a11cb}{{4.2.2.2}{11}{\texorpdfstring {nombre\+Lista}{nombreLista}}{subsubsection.4.2.2.2}{}}
\@writefile{toc}{\contentsline {subsubsection}{\numberline {4.2.2.3}size}{12}{subsubsection.4.2.2.3}}
\@writefile{toc}{\contentsline {section}{\numberline {4.3}Nodo Struct Reference}{12}{section.4.3}}
\newlabel{structNodo}{{4.3}{12}{Nodo Struct Reference}{section.4.3}{}}
\@writefile{toc}{\contentsline {subsection}{\numberline {4.3.1}Detailed Description}{12}{subsection.4.3.1}}
\@writefile{toc}{\contentsline {subsection}{\numberline {4.3.2}Member Data Documentation}{12}{subsection.4.3.2}}
\newlabel{structNodo_a6a5aaa2664a2ea006b72da095f4fa2e8}{{4.3.2}{12}{Member Data Documentation}{subsection.4.3.2}{}}
\@writefile{toc}{\contentsline {subsubsection}{\numberline {4.3.2.1}Abajo}{12}{subsubsection.4.3.2.1}}
\newlabel{structNodo_ac433940fa79917d0f91d313840fa5d4d}{{4.3.2.1}{12}{\texorpdfstring {Abajo}{Abajo}}{subsubsection.4.3.2.1}{}}
\@writefile{toc}{\contentsline {subsubsection}{\numberline {4.3.2.2}data}{13}{subsubsection.4.3.2.2}}
\newlabel{structNodo_a08845f3149af3dda34de11f9a49181ad}{{4.3.2.2}{13}{\texorpdfstring {data}{data}}{subsubsection.4.3.2.2}{}}
\@writefile{toc}{\contentsline {subsubsection}{\numberline {4.3.2.3}dato}{13}{subsubsection.4.3.2.3}}
\newlabel{structNodo_a95d0647f3b261e8633fbcb626a0ee952}{{4.3.2.3}{13}{\texorpdfstring {dato}{dato}}{subsubsection.4.3.2.3}{}}
\@writefile{toc}{\contentsline {subsubsection}{\numberline {4.3.2.4}siguiente}{13}{subsubsection.4.3.2.4}}
\@writefile{toc}{\contentsline {section}{\numberline {4.4}Pila Class Reference}{13}{section.4.4}}
\newlabel{classPila}{{4.4}{13}{Pila Class Reference}{section.4.4}{}}
\@writefile{toc}{\contentsline {subsection}{\numberline {4.4.1}Detailed Description}{14}{subsection.4.4.1}}
\@writefile{toc}{\contentsline {subsection}{\numberline {4.4.2}Constructor \& Destructor Documentation}{14}{subsection.4.4.2}}
\newlabel{classPila_a4c65fb362f256b842e64228131f28e07}{{4.4.2}{14}{Constructor \& Destructor Documentation}{subsection.4.4.2}{}}
\@writefile{toc}{\contentsline {subsubsection}{\numberline {4.4.2.1}Pila()\hspace  {0.1cm}{\relax \fontsize  {8}{9.5}\selectfont  \abovedisplayskip 6\p@ plus2\p@ minus4\p@ \abovedisplayshortskip \z@ plus\p@ \belowdisplayshortskip 3\p@ plus\p@ minus2\p@ \def \leftmargin \leftmargini \parsep 4\p@ plus2\p@ minus\p@ \topsep 8\p@ plus2\p@ minus4\p@ \itemsep 4\p@ plus2\p@ minus\p@ {\leftmargin \leftmargini \topsep 3\p@ plus\p@ minus\p@ \parsep 2\p@ plus\p@ minus\p@ \itemsep \parsep }\belowdisplayskip \abovedisplayskip \ttfamily  [1/3]}}{14}{subsubsection.4.4.2.1}}
\newlabel{classPila_a5070b5db82d31c5e9b7c9fb463f83656}{{4.4.2.1}{14}{\texorpdfstring {Pila()}{Pila()}\hspace {0.1cm}{\footnotesize \ttfamily [1/3]}}{subsubsection.4.4.2.1}{}}
\@writefile{toc}{\contentsline {subsubsection}{\numberline {4.4.2.2}Pila()\hspace  {0.1cm}{\relax \fontsize  {8}{9.5}\selectfont  \abovedisplayskip 6\p@ plus2\p@ minus4\p@ \abovedisplayshortskip \z@ plus\p@ \belowdisplayshortskip 3\p@ plus\p@ minus2\p@ \def \leftmargin \leftmargini \parsep 4\p@ plus2\p@ minus\p@ \topsep 8\p@ plus2\p@ minus4\p@ \itemsep 4\p@ plus2\p@ minus\p@ {\leftmargin \leftmargini \topsep 3\p@ plus\p@ minus\p@ \parsep 2\p@ plus\p@ minus\p@ \itemsep \parsep }\belowdisplayskip \abovedisplayskip \ttfamily  [2/3]}}{14}{subsubsection.4.4.2.2}}
\newlabel{classPila_a9c622001602d76c4b6c8e20a635c5c75}{{4.4.2.2}{14}{\texorpdfstring {Pila()}{Pila()}\hspace {0.1cm}{\footnotesize \ttfamily [2/3]}}{subsubsection.4.4.2.2}{}}
\@writefile{toc}{\contentsline {subsubsection}{\numberline {4.4.2.3}Pila()\hspace  {0.1cm}{\relax \fontsize  {8}{9.5}\selectfont  \abovedisplayskip 6\p@ plus2\p@ minus4\p@ \abovedisplayshortskip \z@ plus\p@ \belowdisplayshortskip 3\p@ plus\p@ minus2\p@ \def \leftmargin \leftmargini \parsep 4\p@ plus2\p@ minus\p@ \topsep 8\p@ plus2\p@ minus4\p@ \itemsep 4\p@ plus2\p@ minus\p@ {\leftmargin \leftmargini \topsep 3\p@ plus\p@ minus\p@ \parsep 2\p@ plus\p@ minus\p@ \itemsep \parsep }\belowdisplayskip \abovedisplayskip \ttfamily  [3/3]}}{14}{subsubsection.4.4.2.3}}
\newlabel{classPila_ac697d531e81671d15483276e8fe61335}{{4.4.2.3}{14}{\texorpdfstring {Pila()}{Pila()}\hspace {0.1cm}{\footnotesize \ttfamily [3/3]}}{subsubsection.4.4.2.3}{}}
\@writefile{toc}{\contentsline {subsubsection}{\numberline {4.4.2.4}$\sim $\discretionary {\unhbox \voidb@x \hbox {\relax \fontsize  {7}{8}\selectfont  $\leftarrow \joinrel  \rhook $}}{}{}Pila()}{14}{subsubsection.4.4.2.4}}
\@writefile{toc}{\contentsline {subsection}{\numberline {4.4.3}Member Function Documentation}{15}{subsection.4.4.3}}
\newlabel{classPila_ab11c71dbe4d4328c2d44356ef132df0f}{{4.4.3}{15}{Member Function Documentation}{subsection.4.4.3}{}}
\@writefile{toc}{\contentsline {subsubsection}{\numberline {4.4.3.1}Crear\discretionary {\unhbox \voidb@x \hbox {\relax \fontsize  {7}{8}\selectfont  $\leftarrow \joinrel  \rhook $}}{}{}Nodo()}{15}{subsubsection.4.4.3.1}}
\newlabel{classPila_a31ec970723ddf16e5c0466443db20b35}{{4.4.3.1}{15}{\texorpdfstring {Crear\+Nodo()}{CrearNodo()}}{subsubsection.4.4.3.1}{}}
\@writefile{toc}{\contentsline {subsubsection}{\numberline {4.4.3.2}Destruir\discretionary {\unhbox \voidb@x \hbox {\relax \fontsize  {7}{8}\selectfont  $\leftarrow \joinrel  \rhook $}}{}{}Nodo()}{15}{subsubsection.4.4.3.2}}
\newlabel{classPila_a6b3a0b2e2b50e39eb9c2b578d6b03302}{{4.4.3.2}{15}{\texorpdfstring {Destruir\+Nodo()}{DestruirNodo()}}{subsubsection.4.4.3.2}{}}
\@writefile{toc}{\contentsline {subsubsection}{\numberline {4.4.3.3}get\discretionary {\unhbox \voidb@x \hbox {\relax \fontsize  {7}{8}\selectfont  $\leftarrow \joinrel  \rhook $}}{}{}Nombre()}{15}{subsubsection.4.4.3.3}}
\newlabel{classPila_a73bfc7d6fcd81a0064902fc9b66b6fd5}{{4.4.3.3}{15}{\texorpdfstring {get\+Nombre()}{getNombre()}}{subsubsection.4.4.3.3}{}}
\@writefile{toc}{\contentsline {subsubsection}{\numberline {4.4.3.4}get\discretionary {\unhbox \voidb@x \hbox {\relax \fontsize  {7}{8}\selectfont  $\leftarrow \joinrel  \rhook $}}{}{}Size()}{15}{subsubsection.4.4.3.4}}
\newlabel{classPila_acdb235fe592c4fa27877705e857b5eea}{{4.4.3.4}{15}{\texorpdfstring {get\+Size()}{getSize()}}{subsubsection.4.4.3.4}{}}
\@writefile{toc}{\contentsline {subsubsection}{\numberline {4.4.3.5}Pop()}{16}{subsubsection.4.4.3.5}}
\newlabel{classPila_aecc3fa39316defba4bf0ab07b83df841}{{4.4.3.5}{16}{\texorpdfstring {Pop()}{Pop()}}{subsubsection.4.4.3.5}{}}
\@writefile{toc}{\contentsline {subsubsection}{\numberline {4.4.3.6}Push()}{16}{subsubsection.4.4.3.6}}
\newlabel{classPila_af4b4053f6e1312bb809f26b9018d5b0c}{{4.4.3.6}{16}{\texorpdfstring {Push()}{Push()}}{subsubsection.4.4.3.6}{}}
\@writefile{toc}{\contentsline {subsubsection}{\numberline {4.4.3.7}Vacia()}{16}{subsubsection.4.4.3.7}}
\@writefile{toc}{\contentsline {chapter}{\numberline {5}File Documentation}{17}{chapter.5}}
\@writefile{lof}{\addvspace {10\p@ }}
\@writefile{lot}{\addvspace {10\p@ }}
\@writefile{toc}{\contentsline {section}{\numberline {5.1}Cola.\discretionary {\unhbox \voidb@x \hbox {\relax \fontsize  {7}{8}\selectfont  $\leftarrow \joinrel  \rhook $}}{}{}h File Reference}{17}{section.5.1}}
\newlabel{Cola_8h}{{5.1}{17}{Cola.\+h File Reference}{section.5.1}{}}
\@writefile{toc}{\contentsline {section}{\numberline {5.2}Funciones.\discretionary {\unhbox \voidb@x \hbox {\relax \fontsize  {7}{8}\selectfont  $\leftarrow \joinrel  \rhook $}}{}{}h File Reference}{17}{section.5.2}}
\newlabel{Funciones_8h}{{5.2}{17}{Funciones.\+h File Reference}{section.5.2}{}}
\@writefile{toc}{\contentsline {subsection}{\numberline {5.2.1}Function Documentation}{17}{subsection.5.2.1}}
\newlabel{Funciones_8h_a615fdd5e1aed079bab37a9cdca723ea2}{{5.2.1}{17}{Function Documentation}{subsection.5.2.1}{}}
\@writefile{toc}{\contentsline {subsubsection}{\numberline {5.2.1.1}Balanceados()}{17}{subsubsection.5.2.1.1}}
\newlabel{Funciones_8h_a07c337a8aafb9e0f8ff79df203d3bae6}{{5.2.1.1}{17}{\texorpdfstring {Balanceados()}{Balanceados()}}{subsubsection.5.2.1.1}{}}
\@writefile{toc}{\contentsline {subsubsection}{\numberline {5.2.1.2}Palindromos()}{18}{subsubsection.5.2.1.2}}
\@writefile{toc}{\contentsline {section}{\numberline {5.3}header.\discretionary {\unhbox \voidb@x \hbox {\relax \fontsize  {7}{8}\selectfont  $\leftarrow \joinrel  \rhook $}}{}{}h File Reference}{18}{section.5.3}}
\newlabel{header_8h}{{5.3}{18}{header.\+h File Reference}{section.5.3}{}}
\@writefile{toc}{\contentsline {section}{\numberline {5.4}Lista.\discretionary {\unhbox \voidb@x \hbox {\relax \fontsize  {7}{8}\selectfont  $\leftarrow \joinrel  \rhook $}}{}{}h File Reference}{18}{section.5.4}}
\newlabel{Lista_8h}{{5.4}{18}{Lista.\+h File Reference}{section.5.4}{}}
\@writefile{toc}{\contentsline {subsection}{\numberline {5.4.1}Typedef Documentation}{18}{subsection.5.4.1}}
\newlabel{Lista_8h_ada0706819137f80a15a77db933b7c018}{{5.4.1}{18}{Typedef Documentation}{subsection.5.4.1}{}}
\@writefile{toc}{\contentsline {subsubsection}{\numberline {5.4.1.1}Lista}{19}{subsubsection.5.4.1.1}}
\@writefile{toc}{\contentsline {section}{\numberline {5.5}Nodo.\discretionary {\unhbox \voidb@x \hbox {\relax \fontsize  {7}{8}\selectfont  $\leftarrow \joinrel  \rhook $}}{}{}h File Reference}{19}{section.5.5}}
\newlabel{Nodo_8h}{{5.5}{19}{Nodo.\+h File Reference}{section.5.5}{}}
\@writefile{toc}{\contentsline {subsection}{\numberline {5.5.1}Typedef Documentation}{19}{subsection.5.5.1}}
\newlabel{Nodo_8h_a5555b050ef641dd3a1fbb54bf5d31ea1}{{5.5.1}{19}{Typedef Documentation}{subsection.5.5.1}{}}
\@writefile{toc}{\contentsline {subsubsection}{\numberline {5.5.1.1}nodo}{19}{subsubsection.5.5.1.1}}
\@writefile{toc}{\contentsline {section}{\numberline {5.6}Pila.\discretionary {\unhbox \voidb@x \hbox {\relax \fontsize  {7}{8}\selectfont  $\leftarrow \joinrel  \rhook $}}{}{}h File Reference}{19}{section.5.6}}
\newlabel{Pila_8h}{{5.6}{19}{Pila.\+h File Reference}{section.5.6}{}}
