digraph "carta.h"
{
  edge [fontname="Helvetica",fontsize="10",labelfontname="Helvetica",labelfontsize="10"];
  node [fontname="Helvetica",fontsize="10",shape=record];
  Node7 [label="carta.h",height=0.2,width=0.4,color="black", fillcolor="grey75", style="filled", fontcolor="black"];
  Node7 -> Node8 [dir="back",color="midnightblue",fontsize="10",style="solid"];
  Node8 [label="jugador.h",height=0.2,width=0.4,color="black", fillcolor="white", style="filled",URL="$jugador_8h.html"];
  Node8 -> Node9 [dir="back",color="midnightblue",fontsize="10",style="solid"];
  Node9 [label="tablero.h",height=0.2,width=0.4,color="black", fillcolor="white", style="filled",URL="$tablero_8h.html"];
  Node7 -> Node9 [dir="back",color="midnightblue",fontsize="10",style="solid"];
}
