\relax 
\providecommand\hyper@newdestlabel[2]{}
\catcode `"\active 
\catcode `<\active 
\catcode `>\active 
\@nameuse{es@quoting}
\providecommand\HyperFirstAtBeginDocument{\AtBeginDocument}
\HyperFirstAtBeginDocument{\ifx\hyper@anchor\@undefined
\global\let\oldcontentsline\contentsline
\gdef\contentsline#1#2#3#4{\oldcontentsline{#1}{#2}{#3}}
\global\let\oldnewlabel\newlabel
\gdef\newlabel#1#2{\newlabelxx{#1}#2}
\gdef\newlabelxx#1#2#3#4#5#6{\oldnewlabel{#1}{{#2}{#3}}}
\AtEndDocument{\ifx\hyper@anchor\@undefined
\let\contentsline\oldcontentsline
\let\newlabel\oldnewlabel
\fi}
\fi}
\global\let\hyper@last\relax 
\gdef\HyperFirstAtBeginDocument#1{#1}
\providecommand\HyField@AuxAddToFields[1]{}
\providecommand\HyField@AuxAddToCoFields[2]{}
\providecommand \oddpage@label [2]{}
\select@language{spanish}
\@writefile{toc}{\select@language{spanish}}
\@writefile{lof}{\select@language{spanish}}
\@writefile{lot}{\select@language{spanish}}
\@writefile{toc}{\contentsline {chapter}{\numberline {1}Implementacion del juego Monopoly en consola con el uso de clanes y ninjas de naruto.}{1}{chapter.1}}
\@writefile{lof}{\addvspace {10\p@ }}
\@writefile{lot}{\addvspace {10\p@ }}
\newlabel{index}{{1}{1}{Implementacion del juego Monopoly en consola con el uso de clanes y ninjas de naruto}{chapter.1}{}}
\@writefile{toc}{\contentsline {chapter}{\numberline {2}\IeC {\'I}ndice de clases}{3}{chapter.2}}
\@writefile{lof}{\addvspace {10\p@ }}
\@writefile{lot}{\addvspace {10\p@ }}
\@writefile{toc}{\contentsline {section}{\numberline {2.1}Lista de clases}{3}{section.2.1}}
\@writefile{toc}{\contentsline {chapter}{\numberline {3}Indice de archivos}{5}{chapter.3}}
\@writefile{lof}{\addvspace {10\p@ }}
\@writefile{lot}{\addvspace {10\p@ }}
\@writefile{toc}{\contentsline {section}{\numberline {3.1}Lista de archivos}{5}{section.3.1}}
\@writefile{toc}{\contentsline {chapter}{\numberline {4}Documentaci\IeC {\'o}n de las clases}{7}{chapter.4}}
\@writefile{lof}{\addvspace {10\p@ }}
\@writefile{lot}{\addvspace {10\p@ }}
\@writefile{toc}{\contentsline {section}{\numberline {4.1}Referencia de la Clase carta}{7}{section.4.1}}
\newlabel{classcarta}{{4.1}{7}{Referencia de la Clase carta}{section.4.1}{}}
\@writefile{toc}{\contentsline {subsection}{\numberline {4.1.1}Descripci\IeC {\'o}n detallada}{7}{subsection.4.1.1}}
\gdef \LT@i {\LT@entry 
    {3}{43.30945pt}\LT@entry 
    {3}{107.339pt}}
\gdef \LT@ii {\LT@entry 
    {3}{56.55731pt}\LT@entry 
    {3}{225.67732pt}}
\@writefile{toc}{\contentsline {subsection}{\numberline {4.1.2}Documentaci\IeC {\'o}n del constructor y destructor}{8}{subsection.4.1.2}}
\newlabel{classcarta_a521288ff360098414d5375772a8421e8}{{4.1.2}{8}{Documentación del constructor y destructor}{subsection.4.1.2}{}}
\@writefile{toc}{\contentsline {subsubsection}{\numberline {4.1.2.1}carta()\hspace  {0.1cm}{\relax \fontsize  {8}{9.5}\selectfont  \abovedisplayskip 6\p@ plus2\p@ minus4\p@ \abovedisplayshortskip \z@ plus\p@ \belowdisplayshortskip 3\p@ plus\p@ minus2\p@ \def \leftmargin \leftmargini \parsep 4\p@ plus2\p@ minus\p@ \topsep 8\p@ plus2\p@ minus4\p@ \itemsep 4\p@ plus2\p@ minus\p@ {\leftmargin \leftmargini \topsep 3\p@ plus\p@ minus\p@ \parsep 2\p@ plus\p@ minus\p@ \itemsep \parsep }\belowdisplayskip \abovedisplayskip \ttfamily  [1/3]}}{8}{subsubsection.4.1.2.1}}
\newlabel{classcarta_a695b1b977a96713a04c9dbe06ddb2122}{{4.1.2.1}{8}{\texorpdfstring {carta()}{carta()}\hspace {0.1cm}{\footnotesize \ttfamily [1/3]}}{subsubsection.4.1.2.1}{}}
\@writefile{toc}{\contentsline {subsubsection}{\numberline {4.1.2.2}carta()\hspace  {0.1cm}{\relax \fontsize  {8}{9.5}\selectfont  \abovedisplayskip 6\p@ plus2\p@ minus4\p@ \abovedisplayshortskip \z@ plus\p@ \belowdisplayshortskip 3\p@ plus\p@ minus2\p@ \def \leftmargin \leftmargini \parsep 4\p@ plus2\p@ minus\p@ \topsep 8\p@ plus2\p@ minus4\p@ \itemsep 4\p@ plus2\p@ minus\p@ {\leftmargin \leftmargini \topsep 3\p@ plus\p@ minus\p@ \parsep 2\p@ plus\p@ minus\p@ \itemsep \parsep }\belowdisplayskip \abovedisplayskip \ttfamily  [2/3]}}{8}{subsubsection.4.1.2.2}}
\newlabel{classcarta_a60eaf9f2738695c4f962a5a46b346779}{{4.1.2.2}{8}{\texorpdfstring {carta()}{carta()}\hspace {0.1cm}{\footnotesize \ttfamily [2/3]}}{table.4.1}{}}
\@writefile{toc}{\contentsline {subsubsection}{\numberline {4.1.2.3}carta()\hspace  {0.1cm}{\relax \fontsize  {8}{9.5}\selectfont  \abovedisplayskip 6\p@ plus2\p@ minus4\p@ \abovedisplayshortskip \z@ plus\p@ \belowdisplayshortskip 3\p@ plus\p@ minus2\p@ \def \leftmargin \leftmargini \parsep 4\p@ plus2\p@ minus\p@ \topsep 8\p@ plus2\p@ minus4\p@ \itemsep 4\p@ plus2\p@ minus\p@ {\leftmargin \leftmargini \topsep 3\p@ plus\p@ minus\p@ \parsep 2\p@ plus\p@ minus\p@ \itemsep \parsep }\belowdisplayskip \abovedisplayskip \ttfamily  [3/3]}}{8}{subsubsection.4.1.2.3}}
\gdef \LT@iii {\LT@entry 
    {3}{52.72333pt}\LT@entry 
    {3}{161.37398pt}}
\newlabel{classcarta_a28f490840d89f6415783b8be6b9b9ae7}{{4.1.2.3}{9}{\texorpdfstring {carta()}{carta()}\hspace {0.1cm}{\footnotesize \ttfamily [3/3]}}{table.4.2}{}}
\@writefile{toc}{\contentsline {subsubsection}{\numberline {4.1.2.4}$\sim $carta()}{9}{subsubsection.4.1.2.4}}
\@writefile{toc}{\contentsline {subsection}{\numberline {4.1.3}Documentaci\IeC {\'o}n de las funciones miembro}{9}{subsection.4.1.3}}
\newlabel{classcarta_a9e12f918a46bab2fe736d82763f58860}{{4.1.3}{9}{Documentación de las funciones miembro}{subsection.4.1.3}{}}
\@writefile{toc}{\contentsline {subsubsection}{\numberline {4.1.3.1}get\discretionary {\unhbox \voidb@x \hbox {\relax \fontsize  {7}{8}\selectfont  $\leftarrow \joinrel  \rhook $}}{}{}Alquiler()}{9}{subsubsection.4.1.3.1}}
\newlabel{classcarta_a45d6a156f9939c43aca47162804f803f}{{4.1.3.1}{9}{\texorpdfstring {get\+Alquiler()}{getAlquiler()}}{subsubsection.4.1.3.1}{}}
\@writefile{toc}{\contentsline {subsubsection}{\numberline {4.1.3.2}get\discretionary {\unhbox \voidb@x \hbox {\relax \fontsize  {7}{8}\selectfont  $\leftarrow \joinrel  \rhook $}}{}{}Color()}{9}{subsubsection.4.1.3.2}}
\newlabel{classcarta_a4c187cf925496f2335347c2a38dbf574}{{4.1.3.2}{9}{\texorpdfstring {get\+Color()}{getColor()}}{subsubsection.4.1.3.2}{}}
\@writefile{toc}{\contentsline {subsubsection}{\numberline {4.1.3.3}get\discretionary {\unhbox \voidb@x \hbox {\relax \fontsize  {7}{8}\selectfont  $\leftarrow \joinrel  \rhook $}}{}{}Comprado()}{9}{subsubsection.4.1.3.3}}
\gdef \LT@iv {\LT@entry 
    {3}{37.30656pt}\LT@entry 
    {3}{101.71407pt}}
\newlabel{classcarta_a0143bd61935957264c93b924d4ddfd89}{{4.1.3.3}{10}{\texorpdfstring {get\+Comprado()}{getComprado()}}{table.4.3}{}}
\@writefile{toc}{\contentsline {subsubsection}{\numberline {4.1.3.4}get\discretionary {\unhbox \voidb@x \hbox {\relax \fontsize  {7}{8}\selectfont  $\leftarrow \joinrel  \rhook $}}{}{}Nombre()}{10}{subsubsection.4.1.3.4}}
\newlabel{classcarta_aa713f22a2a4ca70739f9617797af9abc}{{4.1.3.4}{10}{\texorpdfstring {get\+Nombre()}{getNombre()}}{subsubsection.4.1.3.4}{}}
\@writefile{toc}{\contentsline {subsubsection}{\numberline {4.1.3.5}get\discretionary {\unhbox \voidb@x \hbox {\relax \fontsize  {7}{8}\selectfont  $\leftarrow \joinrel  \rhook $}}{}{}Pos\discretionary {\unhbox \voidb@x \hbox {\relax \fontsize  {7}{8}\selectfont  $\leftarrow \joinrel  \rhook $}}{}{}Tablero()}{10}{subsubsection.4.1.3.5}}
\newlabel{classcarta_a85a5e2a1e5b5bb26118d53e845416c8c}{{4.1.3.5}{10}{\texorpdfstring {get\+Pos\+Tablero()}{getPosTablero()}}{subsubsection.4.1.3.5}{}}
\@writefile{toc}{\contentsline {subsubsection}{\numberline {4.1.3.6}get\discretionary {\unhbox \voidb@x \hbox {\relax \fontsize  {7}{8}\selectfont  $\leftarrow \joinrel  \rhook $}}{}{}Precio()}{10}{subsubsection.4.1.3.6}}
\newlabel{classcarta_acc8b0e82f734b66529144b92e7fe43c2}{{4.1.3.6}{10}{\texorpdfstring {get\+Precio()}{getPrecio()}}{table.4.4}{}}
\@writefile{toc}{\contentsline {subsubsection}{\numberline {4.1.3.7}get\discretionary {\unhbox \voidb@x \hbox {\relax \fontsize  {7}{8}\selectfont  $\leftarrow \joinrel  \rhook $}}{}{}Propietario()}{10}{subsubsection.4.1.3.7}}
\newlabel{classcarta_a214bd108420bf0d724b40ffc8218cbf4}{{4.1.3.7}{10}{\texorpdfstring {get\+Propietario()}{getPropietario()}}{subsubsection.4.1.3.7}{}}
\gdef \LT@v {\LT@entry 
    {3}{52.72333pt}\LT@entry 
    {3}{151.28517pt}}
\gdef \LT@vi {\LT@entry 
    {3}{52.72333pt}\LT@entry 
    {3}{115.95181pt}}
\gdef \LT@vii {\LT@entry 
    {3}{55.45pt}\LT@entry 
    {3}{107.45593pt}}
\@writefile{toc}{\contentsline {subsubsection}{\numberline {4.1.3.8}get\discretionary {\unhbox \voidb@x \hbox {\relax \fontsize  {7}{8}\selectfont  $\leftarrow \joinrel  \rhook $}}{}{}Tipo()}{11}{subsubsection.4.1.3.8}}
\newlabel{classcarta_a6cf6b183d4800fd3aa4df47d16d7a2af}{{4.1.3.8}{11}{\texorpdfstring {get\+Tipo()}{getTipo()}}{subsubsection.4.1.3.8}{}}
\@writefile{toc}{\contentsline {subsubsection}{\numberline {4.1.3.9}hipotecar()}{11}{subsubsection.4.1.3.9}}
\newlabel{classcarta_a220a2e22b5020bcbfdc3ebf62b500c8f}{{4.1.3.9}{11}{\texorpdfstring {hipotecar()}{hipotecar()}}{table.4.5}{}}
\@writefile{toc}{\contentsline {subsubsection}{\numberline {4.1.3.10}set\discretionary {\unhbox \voidb@x \hbox {\relax \fontsize  {7}{8}\selectfont  $\leftarrow \joinrel  \rhook $}}{}{}Comprado()}{11}{subsubsection.4.1.3.10}}
\newlabel{classcarta_af4d91713ba5382345943cba62403ed71}{{4.1.3.10}{11}{\texorpdfstring {set\+Comprado()}{setComprado()}}{table.4.6}{}}
\@writefile{toc}{\contentsline {subsubsection}{\numberline {4.1.3.11}set\discretionary {\unhbox \voidb@x \hbox {\relax \fontsize  {7}{8}\selectfont  $\leftarrow \joinrel  \rhook $}}{}{}Propietario()}{11}{subsubsection.4.1.3.11}}
\@writefile{toc}{\contentsline {section}{\numberline {4.2}Referencia de la Clase jugador}{12}{section.4.2}}
\newlabel{classjugador}{{4.2}{12}{Referencia de la Clase jugador}{section.4.2}{}}
\@writefile{toc}{\contentsline {subsection}{\numberline {4.2.1}Descripci\IeC {\'o}n detallada}{12}{subsection.4.2.1}}
\@writefile{toc}{\contentsline {subsection}{\numberline {4.2.2}Documentaci\IeC {\'o}n del constructor y destructor}{12}{subsection.4.2.2}}
\newlabel{classjugador_abc105dac7c7123bde3eddfd14aca46b6}{{4.2.2}{12}{Documentación del constructor y destructor}{subsection.4.2.2}{}}
\gdef \LT@viii {\LT@entry 
    {3}{73.81891pt}\LT@entry 
    {3}{171.59764pt}}
\gdef \LT@ix {\LT@entry 
    {3}{30.3047pt}\LT@entry 
    {3}{122.67459pt}}
\@writefile{toc}{\contentsline {subsubsection}{\numberline {4.2.2.1}jugador()\hspace  {0.1cm}{\relax \fontsize  {8}{9.5}\selectfont  \abovedisplayskip 6\p@ plus2\p@ minus4\p@ \abovedisplayshortskip \z@ plus\p@ \belowdisplayshortskip 3\p@ plus\p@ minus2\p@ \def \leftmargin \leftmargini \parsep 4\p@ plus2\p@ minus\p@ \topsep 8\p@ plus2\p@ minus4\p@ \itemsep 4\p@ plus2\p@ minus\p@ {\leftmargin \leftmargini \topsep 3\p@ plus\p@ minus\p@ \parsep 2\p@ plus\p@ minus\p@ \itemsep \parsep }\belowdisplayskip \abovedisplayskip \ttfamily  [1/2]}}{13}{subsubsection.4.2.2.1}}
\newlabel{classjugador_a68bbfd1c3cc7fb8b80a9fda837a69a96}{{4.2.2.1}{13}{\texorpdfstring {jugador()}{jugador()}\hspace {0.1cm}{\footnotesize \ttfamily [1/2]}}{subsubsection.4.2.2.1}{}}
\@writefile{toc}{\contentsline {subsubsection}{\numberline {4.2.2.2}jugador()\hspace  {0.1cm}{\relax \fontsize  {8}{9.5}\selectfont  \abovedisplayskip 6\p@ plus2\p@ minus4\p@ \abovedisplayshortskip \z@ plus\p@ \belowdisplayshortskip 3\p@ plus\p@ minus2\p@ \def \leftmargin \leftmargini \parsep 4\p@ plus2\p@ minus\p@ \topsep 8\p@ plus2\p@ minus4\p@ \itemsep 4\p@ plus2\p@ minus\p@ {\leftmargin \leftmargini \topsep 3\p@ plus\p@ minus\p@ \parsep 2\p@ plus\p@ minus\p@ \itemsep \parsep }\belowdisplayskip \abovedisplayskip \ttfamily  [2/2]}}{13}{subsubsection.4.2.2.2}}
\newlabel{classjugador_a63b1018f6a9809afeaacb0ad4d94f70a}{{4.2.2.2}{13}{\texorpdfstring {jugador()}{jugador()}\hspace {0.1cm}{\footnotesize \ttfamily [2/2]}}{table.4.8}{}}
\@writefile{toc}{\contentsline {subsubsection}{\numberline {4.2.2.3}$\sim $jugador()}{13}{subsubsection.4.2.2.3}}
\@writefile{toc}{\contentsline {subsection}{\numberline {4.2.3}Documentaci\IeC {\'o}n de las funciones miembro}{13}{subsection.4.2.3}}
\newlabel{classjugador_a03bed3f39f6a1f691cd166dcb98354fc}{{4.2.3}{13}{Documentación de las funciones miembro}{subsection.4.2.3}{}}
\@writefile{toc}{\contentsline {subsubsection}{\numberline {4.2.3.1}buscar\discretionary {\unhbox \voidb@x \hbox {\relax \fontsize  {7}{8}\selectfont  $\leftarrow \joinrel  \rhook $}}{}{}Carta()}{13}{subsubsection.4.2.3.1}}
\newlabel{classjugador_afa5a78cd48353f239719d1bd2926fa5d}{{4.2.3.1}{14}{\texorpdfstring {buscar\+Carta()}{buscarCarta()}}{table.4.9}{}}
\@writefile{toc}{\contentsline {subsubsection}{\numberline {4.2.3.2}get\discretionary {\unhbox \voidb@x \hbox {\relax \fontsize  {7}{8}\selectfont  $\leftarrow \joinrel  \rhook $}}{}{}Carcel()}{14}{subsubsection.4.2.3.2}}
\newlabel{classjugador_a26bd9687e4796bf804ced3b2b8dc84df}{{4.2.3.2}{14}{\texorpdfstring {get\+Carcel()}{getCarcel()}}{subsubsection.4.2.3.2}{}}
\@writefile{toc}{\contentsline {subsubsection}{\numberline {4.2.3.3}get\discretionary {\unhbox \voidb@x \hbox {\relax \fontsize  {7}{8}\selectfont  $\leftarrow \joinrel  \rhook $}}{}{}Contador\discretionary {\unhbox \voidb@x \hbox {\relax \fontsize  {7}{8}\selectfont  $\leftarrow \joinrel  \rhook $}}{}{}Carcel()}{14}{subsubsection.4.2.3.3}}
\newlabel{classjugador_ab61ee44ba284d48f3b68e44003bceb99}{{4.2.3.3}{14}{\texorpdfstring {get\+Contador\+Carcel()}{getContadorCarcel()}}{subsubsection.4.2.3.3}{}}
\@writefile{toc}{\contentsline {subsubsection}{\numberline {4.2.3.4}get\discretionary {\unhbox \voidb@x \hbox {\relax \fontsize  {7}{8}\selectfont  $\leftarrow \joinrel  \rhook $}}{}{}Informacion()}{14}{subsubsection.4.2.3.4}}
\newlabel{classjugador_ad62838418936ca2030b478a883cc6e80}{{4.2.3.4}{14}{\texorpdfstring {get\+Informacion()}{getInformacion()}}{subsubsection.4.2.3.4}{}}
\@writefile{toc}{\contentsline {subsubsection}{\numberline {4.2.3.5}get\discretionary {\unhbox \voidb@x \hbox {\relax \fontsize  {7}{8}\selectfont  $\leftarrow \joinrel  \rhook $}}{}{}Nombre()}{14}{subsubsection.4.2.3.5}}
\newlabel{classjugador_a9c45e01eb3a716b8afc8a9a71cde47b4}{{4.2.3.5}{14}{\texorpdfstring {get\+Nombre()}{getNombre()}}{subsubsection.4.2.3.5}{}}
\gdef \LT@x {\LT@entry 
    {3}{36.80263pt}\LT@entry 
    {3}{140.44937pt}}
\@writefile{toc}{\contentsline {subsubsection}{\numberline {4.2.3.6}get\discretionary {\unhbox \voidb@x \hbox {\relax \fontsize  {7}{8}\selectfont  $\leftarrow \joinrel  \rhook $}}{}{}Pos\discretionary {\unhbox \voidb@x \hbox {\relax \fontsize  {7}{8}\selectfont  $\leftarrow \joinrel  \rhook $}}{}{}Tablero()}{15}{subsubsection.4.2.3.6}}
\newlabel{classjugador_ab37941002596235e80fe0283e4fa6389}{{4.2.3.6}{15}{\texorpdfstring {get\+Pos\+Tablero()}{getPosTablero()}}{subsubsection.4.2.3.6}{}}
\@writefile{toc}{\contentsline {subsubsection}{\numberline {4.2.3.7}get\discretionary {\unhbox \voidb@x \hbox {\relax \fontsize  {7}{8}\selectfont  $\leftarrow \joinrel  \rhook $}}{}{}Propiedades()}{15}{subsubsection.4.2.3.7}}
\newlabel{classjugador_ac3e8e8ffaf99e87cde1d1459156fb940}{{4.2.3.7}{15}{\texorpdfstring {get\+Propiedades()}{getPropiedades()}}{subsubsection.4.2.3.7}{}}
\@writefile{toc}{\contentsline {subsubsection}{\numberline {4.2.3.8}get\discretionary {\unhbox \voidb@x \hbox {\relax \fontsize  {7}{8}\selectfont  $\leftarrow \joinrel  \rhook $}}{}{}Saldo()}{15}{subsubsection.4.2.3.8}}
\newlabel{classjugador_a9552a7f34b6b26cead7914b31e77a8d2}{{4.2.3.8}{15}{\texorpdfstring {get\+Saldo()}{getSaldo()}}{subsubsection.4.2.3.8}{}}
\@writefile{toc}{\contentsline {subsubsection}{\numberline {4.2.3.9}set\discretionary {\unhbox \voidb@x \hbox {\relax \fontsize  {7}{8}\selectfont  $\leftarrow \joinrel  \rhook $}}{}{}Carcel()}{15}{subsubsection.4.2.3.9}}
\newlabel{classjugador_a099a5d287b83d5a00f92fa1fed01c0af}{{4.2.3.9}{15}{\texorpdfstring {set\+Carcel()}{setCarcel()}}{table.4.10}{}}
\gdef \LT@xi {\LT@entry 
    {3}{25.3008pt}\LT@entry 
    {3}{99.3018pt}}
\gdef \LT@xii {\LT@entry 
    {3}{73.81891pt}\LT@entry 
    {3}{177.46565pt}}
\gdef \LT@xiii {\LT@entry 
    {3}{43.30945pt}\LT@entry 
    {3}{95.43225pt}}
\gdef \LT@xiv {\LT@entry 
    {3}{56.55731pt}\LT@entry 
    {3}{158.96196pt}}
\@writefile{toc}{\contentsline {subsubsection}{\numberline {4.2.3.10}set\discretionary {\unhbox \voidb@x \hbox {\relax \fontsize  {7}{8}\selectfont  $\leftarrow \joinrel  \rhook $}}{}{}Cartas()}{16}{subsubsection.4.2.3.10}}
\newlabel{classjugador_a6e7d02b0f84920fd68a087faff6b8d27}{{4.2.3.10}{16}{\texorpdfstring {set\+Cartas()}{setCartas()}}{table.4.11}{}}
\@writefile{toc}{\contentsline {subsubsection}{\numberline {4.2.3.11}set\discretionary {\unhbox \voidb@x \hbox {\relax \fontsize  {7}{8}\selectfont  $\leftarrow \joinrel  \rhook $}}{}{}Contador\discretionary {\unhbox \voidb@x \hbox {\relax \fontsize  {7}{8}\selectfont  $\leftarrow \joinrel  \rhook $}}{}{}Carcel()}{16}{subsubsection.4.2.3.11}}
\newlabel{classjugador_a3dffe407f56c869a3fb33a28f5da89b3}{{4.2.3.11}{16}{\texorpdfstring {set\+Contador\+Carcel()}{setContadorCarcel()}}{table.4.12}{}}
\@writefile{toc}{\contentsline {subsubsection}{\numberline {4.2.3.12}set\discretionary {\unhbox \voidb@x \hbox {\relax \fontsize  {7}{8}\selectfont  $\leftarrow \joinrel  \rhook $}}{}{}Nombre()}{16}{subsubsection.4.2.3.12}}
\newlabel{classjugador_a47eec9b1f2f204b52d380919dce05f4f}{{4.2.3.12}{16}{\texorpdfstring {set\+Nombre()}{setNombre()}}{table.4.13}{}}
\@writefile{toc}{\contentsline {subsubsection}{\numberline {4.2.3.13}set\discretionary {\unhbox \voidb@x \hbox {\relax \fontsize  {7}{8}\selectfont  $\leftarrow \joinrel  \rhook $}}{}{}Pos\discretionary {\unhbox \voidb@x \hbox {\relax \fontsize  {7}{8}\selectfont  $\leftarrow \joinrel  \rhook $}}{}{}Tablero()}{16}{subsubsection.4.2.3.13}}
\gdef \LT@xv {\LT@entry 
    {3}{62.3261pt}\LT@entry 
    {3}{150.87114pt}}
\gdef \LT@xvi {\LT@entry 
    {3}{34.30963pt}\LT@entry 
    {3}{124.9515pt}}
\newlabel{classjugador_a0f51eabb70b47afe2e27f60be14797ec}{{4.2.3.13}{17}{\texorpdfstring {set\+Pos\+Tablero()}{setPosTablero()}}{table.4.14}{}}
\@writefile{toc}{\contentsline {subsubsection}{\numberline {4.2.3.14}set\discretionary {\unhbox \voidb@x \hbox {\relax \fontsize  {7}{8}\selectfont  $\leftarrow \joinrel  \rhook $}}{}{}Propiedad()}{17}{subsubsection.4.2.3.14}}
\newlabel{classjugador_a2c5e9904a5faac39b5412d235f39802e}{{4.2.3.14}{17}{\texorpdfstring {set\+Propiedad()}{setPropiedad()}}{table.4.15}{}}
\@writefile{toc}{\contentsline {subsubsection}{\numberline {4.2.3.15}set\discretionary {\unhbox \voidb@x \hbox {\relax \fontsize  {7}{8}\selectfont  $\leftarrow \joinrel  \rhook $}}{}{}Saldo()}{17}{subsubsection.4.2.3.15}}
\@writefile{toc}{\contentsline {section}{\numberline {4.3}Referencia de la Clase Tablero}{17}{section.4.3}}
\newlabel{classTablero}{{4.3}{17}{Referencia de la Clase Tablero}{section.4.3}{}}
\gdef \LT@xvii {\LT@entry 
    {3}{47.22438pt}\LT@entry 
    {3}{167.6469pt}}
\@writefile{toc}{\contentsline {subsection}{\numberline {4.3.1}Descripci\IeC {\'o}n detallada}{18}{subsection.4.3.1}}
\@writefile{toc}{\contentsline {subsection}{\numberline {4.3.2}Documentaci\IeC {\'o}n del constructor y destructor}{18}{subsection.4.3.2}}
\newlabel{classTablero_ab4912f28f1db392e1dd44ddc98bd4f59}{{4.3.2}{18}{Documentación del constructor y destructor}{subsection.4.3.2}{}}
\@writefile{toc}{\contentsline {subsubsection}{\numberline {4.3.2.1}Tablero()\hspace  {0.1cm}{\relax \fontsize  {8}{9.5}\selectfont  \abovedisplayskip 6\p@ plus2\p@ minus4\p@ \abovedisplayshortskip \z@ plus\p@ \belowdisplayshortskip 3\p@ plus\p@ minus2\p@ \def \leftmargin \leftmargini \parsep 4\p@ plus2\p@ minus\p@ \topsep 8\p@ plus2\p@ minus4\p@ \itemsep 4\p@ plus2\p@ minus\p@ {\leftmargin \leftmargini \topsep 3\p@ plus\p@ minus\p@ \parsep 2\p@ plus\p@ minus\p@ \itemsep \parsep }\belowdisplayskip \abovedisplayskip \ttfamily  [1/2]}}{18}{subsubsection.4.3.2.1}}
\newlabel{classTablero_a432bfd99824abeee2d3efad233d06588}{{4.3.2.1}{18}{\texorpdfstring {Tablero()}{Tablero()}\hspace {0.1cm}{\footnotesize \ttfamily [1/2]}}{subsubsection.4.3.2.1}{}}
\@writefile{toc}{\contentsline {subsubsection}{\numberline {4.3.2.2}Tablero()\hspace  {0.1cm}{\relax \fontsize  {8}{9.5}\selectfont  \abovedisplayskip 6\p@ plus2\p@ minus4\p@ \abovedisplayshortskip \z@ plus\p@ \belowdisplayshortskip 3\p@ plus\p@ minus2\p@ \def \leftmargin \leftmargini \parsep 4\p@ plus2\p@ minus\p@ \topsep 8\p@ plus2\p@ minus4\p@ \itemsep 4\p@ plus2\p@ minus\p@ {\leftmargin \leftmargini \topsep 3\p@ plus\p@ minus\p@ \parsep 2\p@ plus\p@ minus\p@ \itemsep \parsep }\belowdisplayskip \abovedisplayskip \ttfamily  [2/2]}}{18}{subsubsection.4.3.2.2}}
\newlabel{classTablero_a7d4a64967ce0bbe2cce49ec846834c84}{{4.3.2.2}{18}{\texorpdfstring {Tablero()}{Tablero()}\hspace {0.1cm}{\footnotesize \ttfamily [2/2]}}{table.4.17}{}}
\gdef \LT@xviii {\LT@entry 
    {3}{30.2147pt}\LT@entry 
    {3}{193.80019pt}}
\@writefile{toc}{\contentsline {subsubsection}{\numberline {4.3.2.3}$\sim $\discretionary {\unhbox \voidb@x \hbox {\relax \fontsize  {7}{8}\selectfont  $\leftarrow \joinrel  \rhook $}}{}{}Tablero()}{19}{subsubsection.4.3.2.3}}
\@writefile{toc}{\contentsline {subsection}{\numberline {4.3.3}Documentaci\IeC {\'o}n de las funciones miembro}{19}{subsection.4.3.3}}
\newlabel{classTablero_aa2673732ec75375d4623411e9da59d74}{{4.3.3}{19}{Documentación de las funciones miembro}{subsection.4.3.3}{}}
\@writefile{toc}{\contentsline {subsubsection}{\numberline {4.3.3.1}Compra()}{19}{subsubsection.4.3.3.1}}
\newlabel{classTablero_a2040d8548e20236f5ab4c48955bf9e80}{{4.3.3.1}{19}{\texorpdfstring {Compra()}{Compra()}}{table.4.18}{}}
\@writefile{toc}{\contentsline {subsubsection}{\numberline {4.3.3.2}get\discretionary {\unhbox \voidb@x \hbox {\relax \fontsize  {7}{8}\selectfont  $\leftarrow \joinrel  \rhook $}}{}{}Casilla()}{19}{subsubsection.4.3.3.2}}
\newlabel{classTablero_a5ffcd7d2a02c56871b47bc5b51a07b8d}{{4.3.3.2}{19}{\texorpdfstring {get\+Casilla()}{getCasilla()}}{subsubsection.4.3.3.2}{}}
\@writefile{toc}{\contentsline {subsubsection}{\numberline {4.3.3.3}get\discretionary {\unhbox \voidb@x \hbox {\relax \fontsize  {7}{8}\selectfont  $\leftarrow \joinrel  \rhook $}}{}{}Jugadores\discretionary {\unhbox \voidb@x \hbox {\relax \fontsize  {7}{8}\selectfont  $\leftarrow \joinrel  \rhook $}}{}{}Guar()}{19}{subsubsection.4.3.3.3}}
\newlabel{classTablero_af00dba420620dca036095c67344d3811}{{4.3.3.3}{19}{\texorpdfstring {get\+Jugadores\+Guar()}{getJugadoresGuar()}}{subsubsection.4.3.3.3}{}}
\gdef \LT@xix {\LT@entry 
    {3}{44.80347pt}\LT@entry 
    {3}{134.31136pt}}
\@writefile{toc}{\contentsline {subsubsection}{\numberline {4.3.3.4}get\discretionary {\unhbox \voidb@x \hbox {\relax \fontsize  {7}{8}\selectfont  $\leftarrow \joinrel  \rhook $}}{}{}Juga\discretionary {\unhbox \voidb@x \hbox {\relax \fontsize  {7}{8}\selectfont  $\leftarrow \joinrel  \rhook $}}{}{}Siguiente()}{20}{subsubsection.4.3.3.4}}
\newlabel{classTablero_a65ee2b4d426b872bdbe7929b1768850c}{{4.3.3.4}{20}{\texorpdfstring {get\+Juga\+Siguiente()}{getJugaSiguiente()}}{subsubsection.4.3.3.4}{}}
\@writefile{toc}{\contentsline {subsubsection}{\numberline {4.3.3.5}get\discretionary {\unhbox \voidb@x \hbox {\relax \fontsize  {7}{8}\selectfont  $\leftarrow \joinrel  \rhook $}}{}{}Salir()}{20}{subsubsection.4.3.3.5}}
\newlabel{classTablero_a089ccd57c56e77f6e6ae1fd2c55bec00}{{4.3.3.5}{20}{\texorpdfstring {get\+Salir()}{getSalir()}}{subsubsection.4.3.3.5}{}}
\@writefile{toc}{\contentsline {subsubsection}{\numberline {4.3.3.6}mover\discretionary {\unhbox \voidb@x \hbox {\relax \fontsize  {7}{8}\selectfont  $\leftarrow \joinrel  \rhook $}}{}{}Jugador()}{20}{subsubsection.4.3.3.6}}
\newlabel{classTablero_aff818e07ad652c4c7025521ccebbe535}{{4.3.3.6}{20}{\texorpdfstring {mover\+Jugador()}{moverJugador()}}{subsubsection.4.3.3.6}{}}
\@writefile{toc}{\contentsline {subsubsection}{\numberline {4.3.3.7}paga\discretionary {\unhbox \voidb@x \hbox {\relax \fontsize  {7}{8}\selectfont  $\leftarrow \joinrel  \rhook $}}{}{}Alquiler()}{20}{subsubsection.4.3.3.7}}
\newlabel{classTablero_aee69eb5544e1a7a98a5f3541813e35e7}{{4.3.3.7}{20}{\texorpdfstring {paga\+Alquiler()}{pagaAlquiler()}}{table.4.19}{}}
\@writefile{toc}{\contentsline {subsubsection}{\numberline {4.3.3.8}play()}{20}{subsubsection.4.3.3.8}}
\gdef \LT@xx {\LT@entry 
    {3}{22.30386pt}\LT@entry 
    {3}{208.64073pt}}
\gdef \LT@xxi {\LT@entry 
    {3}{33.1665pt}\LT@entry 
    {3}{123.62854pt}}
\gdef \LT@xxii {\LT@entry 
    {3}{42.8144pt}\LT@entry 
    {3}{100.3009pt}}
\newlabel{classTablero_a3f44082f9ccad3d929173d0c5aa5ab4e}{{4.3.3.8}{22}{\texorpdfstring {play()}{play()}}{table.4.20}{}}
\@writefile{toc}{\contentsline {subsubsection}{\numberline {4.3.3.9}set\discretionary {\unhbox \voidb@x \hbox {\relax \fontsize  {7}{8}\selectfont  $\leftarrow \joinrel  \rhook $}}{}{}Casilla()}{22}{subsubsection.4.3.3.9}}
\newlabel{classTablero_ac0f8c79edb4873b24bbed6fdd5e8ad6e}{{4.3.3.9}{22}{\texorpdfstring {set\+Casilla()}{setCasilla()}}{table.4.21}{}}
\@writefile{toc}{\contentsline {subsubsection}{\numberline {4.3.3.10}set\discretionary {\unhbox \voidb@x \hbox {\relax \fontsize  {7}{8}\selectfont  $\leftarrow \joinrel  \rhook $}}{}{}Jugador()}{22}{subsubsection.4.3.3.10}}
\newlabel{classTablero_ab70f77e4e4cd1f071239b963d2fe868f}{{4.3.3.10}{22}{\texorpdfstring {set\+Jugador()}{setJugador()}}{table.4.22}{}}
\@writefile{toc}{\contentsline {subsubsection}{\numberline {4.3.3.11}set\discretionary {\unhbox \voidb@x \hbox {\relax \fontsize  {7}{8}\selectfont  $\leftarrow \joinrel  \rhook $}}{}{}Juga\discretionary {\unhbox \voidb@x \hbox {\relax \fontsize  {7}{8}\selectfont  $\leftarrow \joinrel  \rhook $}}{}{}Siguiente()}{22}{subsubsection.4.3.3.11}}
\newlabel{classTablero_a6ca76109dddd1cd8463db48aa8a0a22b}{{4.3.3.11}{22}{\texorpdfstring {set\+Juga\+Siguiente()}{setJugaSiguiente()}}{subsubsection.4.3.3.11}{}}
\@writefile{toc}{\contentsline {subsubsection}{\numberline {4.3.3.12}set\discretionary {\unhbox \voidb@x \hbox {\relax \fontsize  {7}{8}\selectfont  $\leftarrow \joinrel  \rhook $}}{}{}Salir()}{22}{subsubsection.4.3.3.12}}
\gdef \LT@xxiii {\LT@entry 
    {3}{32.07765pt}\LT@entry 
    {3}{214.67961pt}}
\@writefile{toc}{\contentsline {chapter}{\numberline {5}Documentaci\IeC {\'o}n de archivos}{25}{chapter.5}}
\@writefile{lof}{\addvspace {10\p@ }}
\@writefile{lot}{\addvspace {10\p@ }}
\@writefile{toc}{\contentsline {section}{\numberline {5.1}Referencia del Archivo carta.\discretionary {\unhbox \voidb@x \hbox {\relax \fontsize  {7}{8}\selectfont  $\leftarrow \joinrel  \rhook $}}{}{}h}{25}{section.5.1}}
\newlabel{carta_8h}{{5.1}{25}{Referencia del Archivo carta.\+h}{section.5.1}{}}
\@writefile{toc}{\contentsline {section}{\numberline {5.2}Referencia del Archivo header.\discretionary {\unhbox \voidb@x \hbox {\relax \fontsize  {7}{8}\selectfont  $\leftarrow \joinrel  \rhook $}}{}{}h}{25}{section.5.2}}
\newlabel{header_8h}{{5.2}{25}{Referencia del Archivo header.\+h}{section.5.2}{}}
\@writefile{toc}{\contentsline {section}{\numberline {5.3}Referencia del Archivo jugador.\discretionary {\unhbox \voidb@x \hbox {\relax \fontsize  {7}{8}\selectfont  $\leftarrow \joinrel  \rhook $}}{}{}h}{25}{section.5.3}}
\newlabel{jugador_8h}{{5.3}{25}{Referencia del Archivo jugador.\+h}{section.5.3}{}}
\@writefile{toc}{\contentsline {section}{\numberline {5.4}Referencia del Archivo tablero.\discretionary {\unhbox \voidb@x \hbox {\relax \fontsize  {7}{8}\selectfont  $\leftarrow \joinrel  \rhook $}}{}{}h}{25}{section.5.4}}
\newlabel{tablero_8h}{{5.4}{25}{Referencia del Archivo tablero.\+h}{section.5.4}{}}
\@writefile{toc}{\contentsline {chapter}{\IeC {\'I}ndice}{27}{section*.7}}
