\select@language {spanish}
\contentsline {chapter}{\numberline {1}Implementacion del juego Monopoly en consola con el uso de clanes y ninjas de naruto.}{1}{chapter.1}
\contentsline {chapter}{\numberline {2}\IeC {\'I}ndice de clases}{3}{chapter.2}
\contentsline {section}{\numberline {2.1}Lista de clases}{3}{section.2.1}
\contentsline {chapter}{\numberline {3}Indice de archivos}{5}{chapter.3}
\contentsline {section}{\numberline {3.1}Lista de archivos}{5}{section.3.1}
\contentsline {chapter}{\numberline {4}Documentaci\IeC {\'o}n de las clases}{7}{chapter.4}
\contentsline {section}{\numberline {4.1}Referencia de la Clase carta}{7}{section.4.1}
\contentsline {subsection}{\numberline {4.1.1}Descripci\IeC {\'o}n detallada}{7}{subsection.4.1.1}
\contentsline {subsection}{\numberline {4.1.2}Documentaci\IeC {\'o}n del constructor y destructor}{8}{subsection.4.1.2}
\contentsline {subsubsection}{\numberline {4.1.2.1}carta()\hspace {0.1cm}{\relax \fontsize {8}{9.5}\selectfont \abovedisplayskip 6\p@ plus2\p@ minus4\p@ \abovedisplayshortskip \z@ plus\p@ \belowdisplayshortskip 3\p@ plus\p@ minus2\p@ \def \leftmargin \leftmargini \parsep 4\p@ plus2\p@ minus\p@ \topsep 8\p@ plus2\p@ minus4\p@ \itemsep 4\p@ plus2\p@ minus\p@ {\leftmargin \leftmargini \topsep 3\p@ plus\p@ minus\p@ \parsep 2\p@ plus\p@ minus\p@ \itemsep \parsep }\belowdisplayskip \abovedisplayskip \ttfamily [1/3]}}{8}{subsubsection.4.1.2.1}
\contentsline {subsubsection}{\numberline {4.1.2.2}carta()\hspace {0.1cm}{\relax \fontsize {8}{9.5}\selectfont \abovedisplayskip 6\p@ plus2\p@ minus4\p@ \abovedisplayshortskip \z@ plus\p@ \belowdisplayshortskip 3\p@ plus\p@ minus2\p@ \def \leftmargin \leftmargini \parsep 4\p@ plus2\p@ minus\p@ \topsep 8\p@ plus2\p@ minus4\p@ \itemsep 4\p@ plus2\p@ minus\p@ {\leftmargin \leftmargini \topsep 3\p@ plus\p@ minus\p@ \parsep 2\p@ plus\p@ minus\p@ \itemsep \parsep }\belowdisplayskip \abovedisplayskip \ttfamily [2/3]}}{8}{subsubsection.4.1.2.2}
\contentsline {subsubsection}{\numberline {4.1.2.3}carta()\hspace {0.1cm}{\relax \fontsize {8}{9.5}\selectfont \abovedisplayskip 6\p@ plus2\p@ minus4\p@ \abovedisplayshortskip \z@ plus\p@ \belowdisplayshortskip 3\p@ plus\p@ minus2\p@ \def \leftmargin \leftmargini \parsep 4\p@ plus2\p@ minus\p@ \topsep 8\p@ plus2\p@ minus4\p@ \itemsep 4\p@ plus2\p@ minus\p@ {\leftmargin \leftmargini \topsep 3\p@ plus\p@ minus\p@ \parsep 2\p@ plus\p@ minus\p@ \itemsep \parsep }\belowdisplayskip \abovedisplayskip \ttfamily [3/3]}}{8}{subsubsection.4.1.2.3}
\contentsline {subsubsection}{\numberline {4.1.2.4}$\sim $carta()}{9}{subsubsection.4.1.2.4}
\contentsline {subsection}{\numberline {4.1.3}Documentaci\IeC {\'o}n de las funciones miembro}{9}{subsection.4.1.3}
\contentsline {subsubsection}{\numberline {4.1.3.1}get\discretionary {\unhbox \voidb@x \hbox {\relax \fontsize {7}{8}\selectfont $\leftarrow \joinrel \rhook $}}{}{}Alquiler()}{9}{subsubsection.4.1.3.1}
\contentsline {subsubsection}{\numberline {4.1.3.2}get\discretionary {\unhbox \voidb@x \hbox {\relax \fontsize {7}{8}\selectfont $\leftarrow \joinrel \rhook $}}{}{}Color()}{9}{subsubsection.4.1.3.2}
\contentsline {subsubsection}{\numberline {4.1.3.3}get\discretionary {\unhbox \voidb@x \hbox {\relax \fontsize {7}{8}\selectfont $\leftarrow \joinrel \rhook $}}{}{}Comprado()}{9}{subsubsection.4.1.3.3}
\contentsline {subsubsection}{\numberline {4.1.3.4}get\discretionary {\unhbox \voidb@x \hbox {\relax \fontsize {7}{8}\selectfont $\leftarrow \joinrel \rhook $}}{}{}Nombre()}{10}{subsubsection.4.1.3.4}
\contentsline {subsubsection}{\numberline {4.1.3.5}get\discretionary {\unhbox \voidb@x \hbox {\relax \fontsize {7}{8}\selectfont $\leftarrow \joinrel \rhook $}}{}{}Pos\discretionary {\unhbox \voidb@x \hbox {\relax \fontsize {7}{8}\selectfont $\leftarrow \joinrel \rhook $}}{}{}Tablero()}{10}{subsubsection.4.1.3.5}
\contentsline {subsubsection}{\numberline {4.1.3.6}get\discretionary {\unhbox \voidb@x \hbox {\relax \fontsize {7}{8}\selectfont $\leftarrow \joinrel \rhook $}}{}{}Precio()}{10}{subsubsection.4.1.3.6}
\contentsline {subsubsection}{\numberline {4.1.3.7}get\discretionary {\unhbox \voidb@x \hbox {\relax \fontsize {7}{8}\selectfont $\leftarrow \joinrel \rhook $}}{}{}Propietario()}{10}{subsubsection.4.1.3.7}
\contentsline {subsubsection}{\numberline {4.1.3.8}get\discretionary {\unhbox \voidb@x \hbox {\relax \fontsize {7}{8}\selectfont $\leftarrow \joinrel \rhook $}}{}{}Tipo()}{11}{subsubsection.4.1.3.8}
\contentsline {subsubsection}{\numberline {4.1.3.9}hipotecar()}{11}{subsubsection.4.1.3.9}
\contentsline {subsubsection}{\numberline {4.1.3.10}set\discretionary {\unhbox \voidb@x \hbox {\relax \fontsize {7}{8}\selectfont $\leftarrow \joinrel \rhook $}}{}{}Comprado()}{11}{subsubsection.4.1.3.10}
\contentsline {subsubsection}{\numberline {4.1.3.11}set\discretionary {\unhbox \voidb@x \hbox {\relax \fontsize {7}{8}\selectfont $\leftarrow \joinrel \rhook $}}{}{}Propietario()}{11}{subsubsection.4.1.3.11}
\contentsline {section}{\numberline {4.2}Referencia de la Clase jugador}{12}{section.4.2}
\contentsline {subsection}{\numberline {4.2.1}Descripci\IeC {\'o}n detallada}{12}{subsection.4.2.1}
\contentsline {subsection}{\numberline {4.2.2}Documentaci\IeC {\'o}n del constructor y destructor}{12}{subsection.4.2.2}
\contentsline {subsubsection}{\numberline {4.2.2.1}jugador()\hspace {0.1cm}{\relax \fontsize {8}{9.5}\selectfont \abovedisplayskip 6\p@ plus2\p@ minus4\p@ \abovedisplayshortskip \z@ plus\p@ \belowdisplayshortskip 3\p@ plus\p@ minus2\p@ \def \leftmargin \leftmargini \parsep 4\p@ plus2\p@ minus\p@ \topsep 8\p@ plus2\p@ minus4\p@ \itemsep 4\p@ plus2\p@ minus\p@ {\leftmargin \leftmargini \topsep 3\p@ plus\p@ minus\p@ \parsep 2\p@ plus\p@ minus\p@ \itemsep \parsep }\belowdisplayskip \abovedisplayskip \ttfamily [1/2]}}{13}{subsubsection.4.2.2.1}
\contentsline {subsubsection}{\numberline {4.2.2.2}jugador()\hspace {0.1cm}{\relax \fontsize {8}{9.5}\selectfont \abovedisplayskip 6\p@ plus2\p@ minus4\p@ \abovedisplayshortskip \z@ plus\p@ \belowdisplayshortskip 3\p@ plus\p@ minus2\p@ \def \leftmargin \leftmargini \parsep 4\p@ plus2\p@ minus\p@ \topsep 8\p@ plus2\p@ minus4\p@ \itemsep 4\p@ plus2\p@ minus\p@ {\leftmargin \leftmargini \topsep 3\p@ plus\p@ minus\p@ \parsep 2\p@ plus\p@ minus\p@ \itemsep \parsep }\belowdisplayskip \abovedisplayskip \ttfamily [2/2]}}{13}{subsubsection.4.2.2.2}
\contentsline {subsubsection}{\numberline {4.2.2.3}$\sim $jugador()}{13}{subsubsection.4.2.2.3}
\contentsline {subsection}{\numberline {4.2.3}Documentaci\IeC {\'o}n de las funciones miembro}{13}{subsection.4.2.3}
\contentsline {subsubsection}{\numberline {4.2.3.1}buscar\discretionary {\unhbox \voidb@x \hbox {\relax \fontsize {7}{8}\selectfont $\leftarrow \joinrel \rhook $}}{}{}Carta()}{13}{subsubsection.4.2.3.1}
\contentsline {subsubsection}{\numberline {4.2.3.2}get\discretionary {\unhbox \voidb@x \hbox {\relax \fontsize {7}{8}\selectfont $\leftarrow \joinrel \rhook $}}{}{}Carcel()}{14}{subsubsection.4.2.3.2}
\contentsline {subsubsection}{\numberline {4.2.3.3}get\discretionary {\unhbox \voidb@x \hbox {\relax \fontsize {7}{8}\selectfont $\leftarrow \joinrel \rhook $}}{}{}Contador\discretionary {\unhbox \voidb@x \hbox {\relax \fontsize {7}{8}\selectfont $\leftarrow \joinrel \rhook $}}{}{}Carcel()}{14}{subsubsection.4.2.3.3}
\contentsline {subsubsection}{\numberline {4.2.3.4}get\discretionary {\unhbox \voidb@x \hbox {\relax \fontsize {7}{8}\selectfont $\leftarrow \joinrel \rhook $}}{}{}Informacion()}{14}{subsubsection.4.2.3.4}
\contentsline {subsubsection}{\numberline {4.2.3.5}get\discretionary {\unhbox \voidb@x \hbox {\relax \fontsize {7}{8}\selectfont $\leftarrow \joinrel \rhook $}}{}{}Nombre()}{14}{subsubsection.4.2.3.5}
\contentsline {subsubsection}{\numberline {4.2.3.6}get\discretionary {\unhbox \voidb@x \hbox {\relax \fontsize {7}{8}\selectfont $\leftarrow \joinrel \rhook $}}{}{}Pos\discretionary {\unhbox \voidb@x \hbox {\relax \fontsize {7}{8}\selectfont $\leftarrow \joinrel \rhook $}}{}{}Tablero()}{15}{subsubsection.4.2.3.6}
\contentsline {subsubsection}{\numberline {4.2.3.7}get\discretionary {\unhbox \voidb@x \hbox {\relax \fontsize {7}{8}\selectfont $\leftarrow \joinrel \rhook $}}{}{}Propiedades()}{15}{subsubsection.4.2.3.7}
\contentsline {subsubsection}{\numberline {4.2.3.8}get\discretionary {\unhbox \voidb@x \hbox {\relax \fontsize {7}{8}\selectfont $\leftarrow \joinrel \rhook $}}{}{}Saldo()}{15}{subsubsection.4.2.3.8}
\contentsline {subsubsection}{\numberline {4.2.3.9}set\discretionary {\unhbox \voidb@x \hbox {\relax \fontsize {7}{8}\selectfont $\leftarrow \joinrel \rhook $}}{}{}Carcel()}{15}{subsubsection.4.2.3.9}
\contentsline {subsubsection}{\numberline {4.2.3.10}set\discretionary {\unhbox \voidb@x \hbox {\relax \fontsize {7}{8}\selectfont $\leftarrow \joinrel \rhook $}}{}{}Cartas()}{16}{subsubsection.4.2.3.10}
\contentsline {subsubsection}{\numberline {4.2.3.11}set\discretionary {\unhbox \voidb@x \hbox {\relax \fontsize {7}{8}\selectfont $\leftarrow \joinrel \rhook $}}{}{}Contador\discretionary {\unhbox \voidb@x \hbox {\relax \fontsize {7}{8}\selectfont $\leftarrow \joinrel \rhook $}}{}{}Carcel()}{16}{subsubsection.4.2.3.11}
\contentsline {subsubsection}{\numberline {4.2.3.12}set\discretionary {\unhbox \voidb@x \hbox {\relax \fontsize {7}{8}\selectfont $\leftarrow \joinrel \rhook $}}{}{}Nombre()}{16}{subsubsection.4.2.3.12}
\contentsline {subsubsection}{\numberline {4.2.3.13}set\discretionary {\unhbox \voidb@x \hbox {\relax \fontsize {7}{8}\selectfont $\leftarrow \joinrel \rhook $}}{}{}Pos\discretionary {\unhbox \voidb@x \hbox {\relax \fontsize {7}{8}\selectfont $\leftarrow \joinrel \rhook $}}{}{}Tablero()}{16}{subsubsection.4.2.3.13}
\contentsline {subsubsection}{\numberline {4.2.3.14}set\discretionary {\unhbox \voidb@x \hbox {\relax \fontsize {7}{8}\selectfont $\leftarrow \joinrel \rhook $}}{}{}Propiedad()}{17}{subsubsection.4.2.3.14}
\contentsline {subsubsection}{\numberline {4.2.3.15}set\discretionary {\unhbox \voidb@x \hbox {\relax \fontsize {7}{8}\selectfont $\leftarrow \joinrel \rhook $}}{}{}Saldo()}{17}{subsubsection.4.2.3.15}
\contentsline {section}{\numberline {4.3}Referencia de la Clase Tablero}{17}{section.4.3}
\contentsline {subsection}{\numberline {4.3.1}Descripci\IeC {\'o}n detallada}{18}{subsection.4.3.1}
\contentsline {subsection}{\numberline {4.3.2}Documentaci\IeC {\'o}n del constructor y destructor}{18}{subsection.4.3.2}
\contentsline {subsubsection}{\numberline {4.3.2.1}Tablero()\hspace {0.1cm}{\relax \fontsize {8}{9.5}\selectfont \abovedisplayskip 6\p@ plus2\p@ minus4\p@ \abovedisplayshortskip \z@ plus\p@ \belowdisplayshortskip 3\p@ plus\p@ minus2\p@ \def \leftmargin \leftmargini \parsep 4\p@ plus2\p@ minus\p@ \topsep 8\p@ plus2\p@ minus4\p@ \itemsep 4\p@ plus2\p@ minus\p@ {\leftmargin \leftmargini \topsep 3\p@ plus\p@ minus\p@ \parsep 2\p@ plus\p@ minus\p@ \itemsep \parsep }\belowdisplayskip \abovedisplayskip \ttfamily [1/2]}}{18}{subsubsection.4.3.2.1}
\contentsline {subsubsection}{\numberline {4.3.2.2}Tablero()\hspace {0.1cm}{\relax \fontsize {8}{9.5}\selectfont \abovedisplayskip 6\p@ plus2\p@ minus4\p@ \abovedisplayshortskip \z@ plus\p@ \belowdisplayshortskip 3\p@ plus\p@ minus2\p@ \def \leftmargin \leftmargini \parsep 4\p@ plus2\p@ minus\p@ \topsep 8\p@ plus2\p@ minus4\p@ \itemsep 4\p@ plus2\p@ minus\p@ {\leftmargin \leftmargini \topsep 3\p@ plus\p@ minus\p@ \parsep 2\p@ plus\p@ minus\p@ \itemsep \parsep }\belowdisplayskip \abovedisplayskip \ttfamily [2/2]}}{18}{subsubsection.4.3.2.2}
\contentsline {subsubsection}{\numberline {4.3.2.3}$\sim $\discretionary {\unhbox \voidb@x \hbox {\relax \fontsize {7}{8}\selectfont $\leftarrow \joinrel \rhook $}}{}{}Tablero()}{19}{subsubsection.4.3.2.3}
\contentsline {subsection}{\numberline {4.3.3}Documentaci\IeC {\'o}n de las funciones miembro}{19}{subsection.4.3.3}
\contentsline {subsubsection}{\numberline {4.3.3.1}Compra()}{19}{subsubsection.4.3.3.1}
\contentsline {subsubsection}{\numberline {4.3.3.2}get\discretionary {\unhbox \voidb@x \hbox {\relax \fontsize {7}{8}\selectfont $\leftarrow \joinrel \rhook $}}{}{}Casilla()}{19}{subsubsection.4.3.3.2}
\contentsline {subsubsection}{\numberline {4.3.3.3}get\discretionary {\unhbox \voidb@x \hbox {\relax \fontsize {7}{8}\selectfont $\leftarrow \joinrel \rhook $}}{}{}Jugadores\discretionary {\unhbox \voidb@x \hbox {\relax \fontsize {7}{8}\selectfont $\leftarrow \joinrel \rhook $}}{}{}Guar()}{19}{subsubsection.4.3.3.3}
\contentsline {subsubsection}{\numberline {4.3.3.4}get\discretionary {\unhbox \voidb@x \hbox {\relax \fontsize {7}{8}\selectfont $\leftarrow \joinrel \rhook $}}{}{}Juga\discretionary {\unhbox \voidb@x \hbox {\relax \fontsize {7}{8}\selectfont $\leftarrow \joinrel \rhook $}}{}{}Siguiente()}{20}{subsubsection.4.3.3.4}
\contentsline {subsubsection}{\numberline {4.3.3.5}get\discretionary {\unhbox \voidb@x \hbox {\relax \fontsize {7}{8}\selectfont $\leftarrow \joinrel \rhook $}}{}{}Salir()}{20}{subsubsection.4.3.3.5}
\contentsline {subsubsection}{\numberline {4.3.3.6}mover\discretionary {\unhbox \voidb@x \hbox {\relax \fontsize {7}{8}\selectfont $\leftarrow \joinrel \rhook $}}{}{}Jugador()}{20}{subsubsection.4.3.3.6}
\contentsline {subsubsection}{\numberline {4.3.3.7}paga\discretionary {\unhbox \voidb@x \hbox {\relax \fontsize {7}{8}\selectfont $\leftarrow \joinrel \rhook $}}{}{}Alquiler()}{20}{subsubsection.4.3.3.7}
\contentsline {subsubsection}{\numberline {4.3.3.8}play()}{20}{subsubsection.4.3.3.8}
\contentsline {subsubsection}{\numberline {4.3.3.9}set\discretionary {\unhbox \voidb@x \hbox {\relax \fontsize {7}{8}\selectfont $\leftarrow \joinrel \rhook $}}{}{}Casilla()}{22}{subsubsection.4.3.3.9}
\contentsline {subsubsection}{\numberline {4.3.3.10}set\discretionary {\unhbox \voidb@x \hbox {\relax \fontsize {7}{8}\selectfont $\leftarrow \joinrel \rhook $}}{}{}Jugador()}{22}{subsubsection.4.3.3.10}
\contentsline {subsubsection}{\numberline {4.3.3.11}set\discretionary {\unhbox \voidb@x \hbox {\relax \fontsize {7}{8}\selectfont $\leftarrow \joinrel \rhook $}}{}{}Juga\discretionary {\unhbox \voidb@x \hbox {\relax \fontsize {7}{8}\selectfont $\leftarrow \joinrel \rhook $}}{}{}Siguiente()}{22}{subsubsection.4.3.3.11}
\contentsline {subsubsection}{\numberline {4.3.3.12}set\discretionary {\unhbox \voidb@x \hbox {\relax \fontsize {7}{8}\selectfont $\leftarrow \joinrel \rhook $}}{}{}Salir()}{22}{subsubsection.4.3.3.12}
\contentsline {chapter}{\numberline {5}Documentaci\IeC {\'o}n de archivos}{25}{chapter.5}
\contentsline {section}{\numberline {5.1}Referencia del Archivo carta.\discretionary {\unhbox \voidb@x \hbox {\relax \fontsize {7}{8}\selectfont $\leftarrow \joinrel \rhook $}}{}{}h}{25}{section.5.1}
\contentsline {section}{\numberline {5.2}Referencia del Archivo header.\discretionary {\unhbox \voidb@x \hbox {\relax \fontsize {7}{8}\selectfont $\leftarrow \joinrel \rhook $}}{}{}h}{25}{section.5.2}
\contentsline {section}{\numberline {5.3}Referencia del Archivo jugador.\discretionary {\unhbox \voidb@x \hbox {\relax \fontsize {7}{8}\selectfont $\leftarrow \joinrel \rhook $}}{}{}h}{25}{section.5.3}
\contentsline {section}{\numberline {5.4}Referencia del Archivo tablero.\discretionary {\unhbox \voidb@x \hbox {\relax \fontsize {7}{8}\selectfont $\leftarrow \joinrel \rhook $}}{}{}h}{25}{section.5.4}
\contentsline {chapter}{\IeC {\'I}ndice}{27}{section*.7}
