digraph "Nodo.h"
{
  edge [fontname="Helvetica",fontsize="10",labelfontname="Helvetica",labelfontsize="10"];
  node [fontname="Helvetica",fontsize="10",shape=record];
  Node6 [label="Nodo.h",height=0.2,width=0.4,color="black", fillcolor="grey75", style="filled", fontcolor="black"];
  Node6 -> Node7 [dir="back",color="midnightblue",fontsize="10",style="solid",fontname="Helvetica"];
  Node7 [label="Cola.h",height=0.2,width=0.4,color="black", fillcolor="white", style="filled",URL="$Cola_8h.html"];
  Node6 -> Node8 [dir="back",color="midnightblue",fontsize="10",style="solid",fontname="Helvetica"];
  Node8 [label="Lista.h",height=0.2,width=0.4,color="black", fillcolor="white", style="filled",URL="$Lista_8h.html"];
  Node6 -> Node9 [dir="back",color="midnightblue",fontsize="10",style="solid",fontname="Helvetica"];
  Node9 [label="Pila.h",height=0.2,width=0.4,color="black", fillcolor="white", style="filled",URL="$Pila_8h.html"];
}
