digraph "Moltress"
{
  edge [fontname="Helvetica",fontsize="10",labelfontname="Helvetica",labelfontsize="10"];
  node [fontname="Helvetica",fontsize="10",shape=record];
  Node4 [label="Moltress",height=0.2,width=0.4,color="black", fillcolor="grey75", style="filled", fontcolor="black"];
  Node5 -> Node4 [dir="back",color="midnightblue",fontsize="10",style="solid"];
  Node5 [label="Fire",height=0.2,width=0.4,color="black", fillcolor="white", style="filled",URL="$classFire.html",tooltip="Implementacion/definicion de la clase tipo de pokemon Fire, hereda virtual de la clase Pokemon hereda..."];
  Node6 -> Node5 [dir="back",color="midnightblue",fontsize="10",style="solid"];
  Node6 [label="Pokemon",height=0.2,width=0.4,color="black", fillcolor="white", style="filled",URL="$classPokemon.html",tooltip="Implementacion/definicion de la clase abstracta base Pokemon que se encarga de crear los elementos ge..."];
  Node7 -> Node4 [dir="back",color="midnightblue",fontsize="10",style="solid"];
  Node7 [label="Flying",height=0.2,width=0.4,color="black", fillcolor="white", style="filled",URL="$classFlying.html",tooltip="Implementacion/definicion de la clase tipo de pokemon Flying, hereda virtual de la clase Pokemon here..."];
  Node6 -> Node7 [dir="back",color="midnightblue",fontsize="10",style="solid"];
}
