digraph "Fire"
{
  edge [fontname="Helvetica",fontsize="10",labelfontname="Helvetica",labelfontsize="10"];
  node [fontname="Helvetica",fontsize="10",shape=record];
  Node0 [label="Fire",height=0.2,width=0.4,color="black", fillcolor="grey75", style="filled", fontcolor="black"];
  Node1 -> Node0 [dir="back",color="midnightblue",fontsize="10",style="solid"];
  Node1 [label="Pokemon",height=0.2,width=0.4,color="black", fillcolor="white", style="filled",URL="$classPokemon.html",tooltip="Implementacion/definicion de la clase abstracta base Pokemon que se encarga de crear los elementos ge..."];
  Node0 -> Node2 [dir="back",color="midnightblue",fontsize="10",style="solid"];
  Node2 [label="Moltress",height=0.2,width=0.4,color="black", fillcolor="white", style="filled",URL="$classMoltress.html",tooltip="Implementacion/definicion de la clase Moltress, hereda virtual de la clase Pokemon y Flying..."];
}
