\contentsline {chapter}{\numberline {1}Herencia y Polimorfismo\discretionary {\unhbox \voidb@x \hbox {\relax \fontsize {7}{8}\selectfont $\leftarrow \joinrel \rhook $}}{}{}: implementaci\IeC {\'o}n con Zapdos Moltress y Arcticuno en C++}{1}{chapter.1}
\contentsline {section}{\numberline {1.1}Introduccion}{1}{section.1.1}
\contentsline {section}{\numberline {1.2}Compilacion}{1}{section.1.2}
\contentsline {section}{\numberline {1.3}Documentacion}{1}{section.1.3}
\contentsline {section}{\numberline {1.4}Resumen Te\IeC {\'o}rico}{2}{section.1.4}
\contentsline {subsection}{\numberline {1.4.1}Herencia}{2}{subsection.1.4.1}
\contentsline {subsection}{\numberline {1.4.2}Polimorfismo}{2}{subsection.1.4.2}
\contentsline {chapter}{\numberline {2}Hierarchical Index}{3}{chapter.2}
\contentsline {section}{\numberline {2.1}Class Hierarchy}{3}{section.2.1}
\contentsline {chapter}{\numberline {3}Class Index}{5}{chapter.3}
\contentsline {section}{\numberline {3.1}Class List}{5}{section.3.1}
\contentsline {chapter}{\numberline {4}File Index}{7}{chapter.4}
\contentsline {section}{\numberline {4.1}File List}{7}{section.4.1}
\contentsline {chapter}{\numberline {5}Class Documentation}{9}{chapter.5}
\contentsline {section}{\numberline {5.1}Arcticuno Class Reference}{9}{section.5.1}
\contentsline {subsection}{\numberline {5.1.1}Detailed Description}{9}{subsection.5.1.1}
\contentsline {subsection}{\numberline {5.1.2}Constructor \& Destructor Documentation}{10}{subsection.5.1.2}
\contentsline {subsubsection}{\numberline {5.1.2.1}Arcticuno()}{10}{subsubsection.5.1.2.1}
\contentsline {subsubsection}{\numberline {5.1.2.2}$\sim $\discretionary {\unhbox \voidb@x \hbox {\relax \fontsize {7}{8}\selectfont $\leftarrow \joinrel \rhook $}}{}{}Arcticuno()}{10}{subsubsection.5.1.2.2}
\contentsline {subsection}{\numberline {5.1.3}Member Function Documentation}{10}{subsection.5.1.3}
\contentsline {subsubsection}{\numberline {5.1.3.1}A\discretionary {\unhbox \voidb@x \hbox {\relax \fontsize {7}{8}\selectfont $\leftarrow \joinrel \rhook $}}{}{}T\discretionary {\unhbox \voidb@x \hbox {\relax \fontsize {7}{8}\selectfont $\leftarrow \joinrel \rhook $}}{}{}K1()}{10}{subsubsection.5.1.3.1}
\contentsline {subsubsection}{\numberline {5.1.3.2}A\discretionary {\unhbox \voidb@x \hbox {\relax \fontsize {7}{8}\selectfont $\leftarrow \joinrel \rhook $}}{}{}T\discretionary {\unhbox \voidb@x \hbox {\relax \fontsize {7}{8}\selectfont $\leftarrow \joinrel \rhook $}}{}{}K2()}{10}{subsubsection.5.1.3.2}
\contentsline {subsubsection}{\numberline {5.1.3.3}A\discretionary {\unhbox \voidb@x \hbox {\relax \fontsize {7}{8}\selectfont $\leftarrow \joinrel \rhook $}}{}{}T\discretionary {\unhbox \voidb@x \hbox {\relax \fontsize {7}{8}\selectfont $\leftarrow \joinrel \rhook $}}{}{}K3()}{11}{subsubsection.5.1.3.3}
\contentsline {subsubsection}{\numberline {5.1.3.4}A\discretionary {\unhbox \voidb@x \hbox {\relax \fontsize {7}{8}\selectfont $\leftarrow \joinrel \rhook $}}{}{}T\discretionary {\unhbox \voidb@x \hbox {\relax \fontsize {7}{8}\selectfont $\leftarrow \joinrel \rhook $}}{}{}K4()}{11}{subsubsection.5.1.3.4}
\contentsline {subsubsection}{\numberline {5.1.3.5}print()}{11}{subsubsection.5.1.3.5}
\contentsline {section}{\numberline {5.2}Electric Class Reference}{11}{section.5.2}
\contentsline {subsection}{\numberline {5.2.1}Detailed Description}{12}{subsection.5.2.1}
\contentsline {subsection}{\numberline {5.2.2}Constructor \& Destructor Documentation}{12}{subsection.5.2.2}
\contentsline {subsubsection}{\numberline {5.2.2.1}Electric()}{12}{subsubsection.5.2.2.1}
\contentsline {subsubsection}{\numberline {5.2.2.2}$\sim $\discretionary {\unhbox \voidb@x \hbox {\relax \fontsize {7}{8}\selectfont $\leftarrow \joinrel \rhook $}}{}{}Electric()}{12}{subsubsection.5.2.2.2}
\contentsline {subsection}{\numberline {5.2.3}Member Function Documentation}{12}{subsection.5.2.3}
\contentsline {subsubsection}{\numberline {5.2.3.1}is\discretionary {\unhbox \voidb@x \hbox {\relax \fontsize {7}{8}\selectfont $\leftarrow \joinrel \rhook $}}{}{}Strong\discretionary {\unhbox \voidb@x \hbox {\relax \fontsize {7}{8}\selectfont $\leftarrow \joinrel \rhook $}}{}{}V\discretionary {\unhbox \voidb@x \hbox {\relax \fontsize {7}{8}\selectfont $\leftarrow \joinrel \rhook $}}{}{}S()}{12}{subsubsection.5.2.3.1}
\contentsline {subsubsection}{\numberline {5.2.3.2}is\discretionary {\unhbox \voidb@x \hbox {\relax \fontsize {7}{8}\selectfont $\leftarrow \joinrel \rhook $}}{}{}Weak\discretionary {\unhbox \voidb@x \hbox {\relax \fontsize {7}{8}\selectfont $\leftarrow \joinrel \rhook $}}{}{}V\discretionary {\unhbox \voidb@x \hbox {\relax \fontsize {7}{8}\selectfont $\leftarrow \joinrel \rhook $}}{}{}S()}{13}{subsubsection.5.2.3.2}
\contentsline {subsubsection}{\numberline {5.2.3.3}strong\discretionary {\unhbox \voidb@x \hbox {\relax \fontsize {7}{8}\selectfont $\leftarrow \joinrel \rhook $}}{}{}Vs()}{13}{subsubsection.5.2.3.3}
\contentsline {subsubsection}{\numberline {5.2.3.4}Type()}{13}{subsubsection.5.2.3.4}
\contentsline {subsubsection}{\numberline {5.2.3.5}weak\discretionary {\unhbox \voidb@x \hbox {\relax \fontsize {7}{8}\selectfont $\leftarrow \joinrel \rhook $}}{}{}Vs()}{14}{subsubsection.5.2.3.5}
\contentsline {section}{\numberline {5.3}Fire Class Reference}{14}{section.5.3}
\contentsline {subsection}{\numberline {5.3.1}Detailed Description}{14}{subsection.5.3.1}
\contentsline {subsection}{\numberline {5.3.2}Constructor \& Destructor Documentation}{15}{subsection.5.3.2}
\contentsline {subsubsection}{\numberline {5.3.2.1}Fire()}{15}{subsubsection.5.3.2.1}
\contentsline {subsubsection}{\numberline {5.3.2.2}$\sim $\discretionary {\unhbox \voidb@x \hbox {\relax \fontsize {7}{8}\selectfont $\leftarrow \joinrel \rhook $}}{}{}Fire()}{15}{subsubsection.5.3.2.2}
\contentsline {subsection}{\numberline {5.3.3}Member Function Documentation}{15}{subsection.5.3.3}
\contentsline {subsubsection}{\numberline {5.3.3.1}is\discretionary {\unhbox \voidb@x \hbox {\relax \fontsize {7}{8}\selectfont $\leftarrow \joinrel \rhook $}}{}{}Strong\discretionary {\unhbox \voidb@x \hbox {\relax \fontsize {7}{8}\selectfont $\leftarrow \joinrel \rhook $}}{}{}V\discretionary {\unhbox \voidb@x \hbox {\relax \fontsize {7}{8}\selectfont $\leftarrow \joinrel \rhook $}}{}{}S()}{15}{subsubsection.5.3.3.1}
\contentsline {subsubsection}{\numberline {5.3.3.2}is\discretionary {\unhbox \voidb@x \hbox {\relax \fontsize {7}{8}\selectfont $\leftarrow \joinrel \rhook $}}{}{}Weak\discretionary {\unhbox \voidb@x \hbox {\relax \fontsize {7}{8}\selectfont $\leftarrow \joinrel \rhook $}}{}{}V\discretionary {\unhbox \voidb@x \hbox {\relax \fontsize {7}{8}\selectfont $\leftarrow \joinrel \rhook $}}{}{}S()}{15}{subsubsection.5.3.3.2}
\contentsline {subsubsection}{\numberline {5.3.3.3}strong\discretionary {\unhbox \voidb@x \hbox {\relax \fontsize {7}{8}\selectfont $\leftarrow \joinrel \rhook $}}{}{}Vs()}{16}{subsubsection.5.3.3.3}
\contentsline {subsubsection}{\numberline {5.3.3.4}Type()}{16}{subsubsection.5.3.3.4}
\contentsline {subsubsection}{\numberline {5.3.3.5}weak\discretionary {\unhbox \voidb@x \hbox {\relax \fontsize {7}{8}\selectfont $\leftarrow \joinrel \rhook $}}{}{}Vs()}{16}{subsubsection.5.3.3.5}
\contentsline {section}{\numberline {5.4}Flying Class Reference}{17}{section.5.4}
\contentsline {subsection}{\numberline {5.4.1}Detailed Description}{17}{subsection.5.4.1}
\contentsline {subsection}{\numberline {5.4.2}Constructor \& Destructor Documentation}{17}{subsection.5.4.2}
\contentsline {subsubsection}{\numberline {5.4.2.1}Flying()}{17}{subsubsection.5.4.2.1}
\contentsline {subsubsection}{\numberline {5.4.2.2}$\sim $\discretionary {\unhbox \voidb@x \hbox {\relax \fontsize {7}{8}\selectfont $\leftarrow \joinrel \rhook $}}{}{}Flying()}{17}{subsubsection.5.4.2.2}
\contentsline {section}{\numberline {5.5}Moltress Class Reference}{18}{section.5.5}
\contentsline {subsection}{\numberline {5.5.1}Detailed Description}{18}{subsection.5.5.1}
\contentsline {subsection}{\numberline {5.5.2}Constructor \& Destructor Documentation}{18}{subsection.5.5.2}
\contentsline {subsubsection}{\numberline {5.5.2.1}Moltress()}{19}{subsubsection.5.5.2.1}
\contentsline {subsubsection}{\numberline {5.5.2.2}$\sim $\discretionary {\unhbox \voidb@x \hbox {\relax \fontsize {7}{8}\selectfont $\leftarrow \joinrel \rhook $}}{}{}Moltress()}{19}{subsubsection.5.5.2.2}
\contentsline {subsection}{\numberline {5.5.3}Member Function Documentation}{19}{subsection.5.5.3}
\contentsline {subsubsection}{\numberline {5.5.3.1}A\discretionary {\unhbox \voidb@x \hbox {\relax \fontsize {7}{8}\selectfont $\leftarrow \joinrel \rhook $}}{}{}T\discretionary {\unhbox \voidb@x \hbox {\relax \fontsize {7}{8}\selectfont $\leftarrow \joinrel \rhook $}}{}{}K1()}{19}{subsubsection.5.5.3.1}
\contentsline {subsubsection}{\numberline {5.5.3.2}A\discretionary {\unhbox \voidb@x \hbox {\relax \fontsize {7}{8}\selectfont $\leftarrow \joinrel \rhook $}}{}{}T\discretionary {\unhbox \voidb@x \hbox {\relax \fontsize {7}{8}\selectfont $\leftarrow \joinrel \rhook $}}{}{}K2()}{19}{subsubsection.5.5.3.2}
\contentsline {subsubsection}{\numberline {5.5.3.3}A\discretionary {\unhbox \voidb@x \hbox {\relax \fontsize {7}{8}\selectfont $\leftarrow \joinrel \rhook $}}{}{}T\discretionary {\unhbox \voidb@x \hbox {\relax \fontsize {7}{8}\selectfont $\leftarrow \joinrel \rhook $}}{}{}K3()}{20}{subsubsection.5.5.3.3}
\contentsline {subsubsection}{\numberline {5.5.3.4}A\discretionary {\unhbox \voidb@x \hbox {\relax \fontsize {7}{8}\selectfont $\leftarrow \joinrel \rhook $}}{}{}T\discretionary {\unhbox \voidb@x \hbox {\relax \fontsize {7}{8}\selectfont $\leftarrow \joinrel \rhook $}}{}{}K4()}{20}{subsubsection.5.5.3.4}
\contentsline {subsubsection}{\numberline {5.5.3.5}print()}{20}{subsubsection.5.5.3.5}
\contentsline {section}{\numberline {5.6}Pokemon Class Reference}{20}{section.5.6}
\contentsline {subsection}{\numberline {5.6.1}Detailed Description}{22}{subsection.5.6.1}
\contentsline {subsection}{\numberline {5.6.2}Member Function Documentation}{22}{subsection.5.6.2}
\contentsline {subsubsection}{\numberline {5.6.2.1}A\discretionary {\unhbox \voidb@x \hbox {\relax \fontsize {7}{8}\selectfont $\leftarrow \joinrel \rhook $}}{}{}T\discretionary {\unhbox \voidb@x \hbox {\relax \fontsize {7}{8}\selectfont $\leftarrow \joinrel \rhook $}}{}{}K1()}{22}{subsubsection.5.6.2.1}
\contentsline {subsubsection}{\numberline {5.6.2.2}A\discretionary {\unhbox \voidb@x \hbox {\relax \fontsize {7}{8}\selectfont $\leftarrow \joinrel \rhook $}}{}{}T\discretionary {\unhbox \voidb@x \hbox {\relax \fontsize {7}{8}\selectfont $\leftarrow \joinrel \rhook $}}{}{}K2()}{22}{subsubsection.5.6.2.2}
\contentsline {subsubsection}{\numberline {5.6.2.3}A\discretionary {\unhbox \voidb@x \hbox {\relax \fontsize {7}{8}\selectfont $\leftarrow \joinrel \rhook $}}{}{}T\discretionary {\unhbox \voidb@x \hbox {\relax \fontsize {7}{8}\selectfont $\leftarrow \joinrel \rhook $}}{}{}K3()}{22}{subsubsection.5.6.2.3}
\contentsline {subsubsection}{\numberline {5.6.2.4}A\discretionary {\unhbox \voidb@x \hbox {\relax \fontsize {7}{8}\selectfont $\leftarrow \joinrel \rhook $}}{}{}T\discretionary {\unhbox \voidb@x \hbox {\relax \fontsize {7}{8}\selectfont $\leftarrow \joinrel \rhook $}}{}{}K4()}{23}{subsubsection.5.6.2.4}
\contentsline {subsubsection}{\numberline {5.6.2.5}get\discretionary {\unhbox \voidb@x \hbox {\relax \fontsize {7}{8}\selectfont $\leftarrow \joinrel \rhook $}}{}{}A\discretionary {\unhbox \voidb@x \hbox {\relax \fontsize {7}{8}\selectfont $\leftarrow \joinrel \rhook $}}{}{}T\discretionary {\unhbox \voidb@x \hbox {\relax \fontsize {7}{8}\selectfont $\leftarrow \joinrel \rhook $}}{}{}K()}{23}{subsubsection.5.6.2.5}
\contentsline {subsubsection}{\numberline {5.6.2.6}get\discretionary {\unhbox \voidb@x \hbox {\relax \fontsize {7}{8}\selectfont $\leftarrow \joinrel \rhook $}}{}{}C\discretionary {\unhbox \voidb@x \hbox {\relax \fontsize {7}{8}\selectfont $\leftarrow \joinrel \rhook $}}{}{}A\discretionary {\unhbox \voidb@x \hbox {\relax \fontsize {7}{8}\selectfont $\leftarrow \joinrel \rhook $}}{}{}L\discretionary {\unhbox \voidb@x \hbox {\relax \fontsize {7}{8}\selectfont $\leftarrow \joinrel \rhook $}}{}{}L()}{23}{subsubsection.5.6.2.6}
\contentsline {subsubsection}{\numberline {5.6.2.7}get\discretionary {\unhbox \voidb@x \hbox {\relax \fontsize {7}{8}\selectfont $\leftarrow \joinrel \rhook $}}{}{}D\discretionary {\unhbox \voidb@x \hbox {\relax \fontsize {7}{8}\selectfont $\leftarrow \joinrel \rhook $}}{}{}E\discretionary {\unhbox \voidb@x \hbox {\relax \fontsize {7}{8}\selectfont $\leftarrow \joinrel \rhook $}}{}{}F()}{23}{subsubsection.5.6.2.7}
\contentsline {subsubsection}{\numberline {5.6.2.8}get\discretionary {\unhbox \voidb@x \hbox {\relax \fontsize {7}{8}\selectfont $\leftarrow \joinrel \rhook $}}{}{}E\discretionary {\unhbox \voidb@x \hbox {\relax \fontsize {7}{8}\selectfont $\leftarrow \joinrel \rhook $}}{}{}X\discretionary {\unhbox \voidb@x \hbox {\relax \fontsize {7}{8}\selectfont $\leftarrow \joinrel \rhook $}}{}{}P()}{24}{subsubsection.5.6.2.8}
\contentsline {subsubsection}{\numberline {5.6.2.9}get\discretionary {\unhbox \voidb@x \hbox {\relax \fontsize {7}{8}\selectfont $\leftarrow \joinrel \rhook $}}{}{}H\discretionary {\unhbox \voidb@x \hbox {\relax \fontsize {7}{8}\selectfont $\leftarrow \joinrel \rhook $}}{}{}P()}{24}{subsubsection.5.6.2.9}
\contentsline {subsubsection}{\numberline {5.6.2.10}get\discretionary {\unhbox \voidb@x \hbox {\relax \fontsize {7}{8}\selectfont $\leftarrow \joinrel \rhook $}}{}{}N\discretionary {\unhbox \voidb@x \hbox {\relax \fontsize {7}{8}\selectfont $\leftarrow \joinrel \rhook $}}{}{}A\discretionary {\unhbox \voidb@x \hbox {\relax \fontsize {7}{8}\selectfont $\leftarrow \joinrel \rhook $}}{}{}M\discretionary {\unhbox \voidb@x \hbox {\relax \fontsize {7}{8}\selectfont $\leftarrow \joinrel \rhook $}}{}{}E()}{24}{subsubsection.5.6.2.10}
\contentsline {subsubsection}{\numberline {5.6.2.11}gets\discretionary {\unhbox \voidb@x \hbox {\relax \fontsize {7}{8}\selectfont $\leftarrow \joinrel \rhook $}}{}{}A\discretionary {\unhbox \voidb@x \hbox {\relax \fontsize {7}{8}\selectfont $\leftarrow \joinrel \rhook $}}{}{}T\discretionary {\unhbox \voidb@x \hbox {\relax \fontsize {7}{8}\selectfont $\leftarrow \joinrel \rhook $}}{}{}K()}{24}{subsubsection.5.6.2.11}
\contentsline {subsubsection}{\numberline {5.6.2.12}gets\discretionary {\unhbox \voidb@x \hbox {\relax \fontsize {7}{8}\selectfont $\leftarrow \joinrel \rhook $}}{}{}D\discretionary {\unhbox \voidb@x \hbox {\relax \fontsize {7}{8}\selectfont $\leftarrow \joinrel \rhook $}}{}{}E\discretionary {\unhbox \voidb@x \hbox {\relax \fontsize {7}{8}\selectfont $\leftarrow \joinrel \rhook $}}{}{}F()}{25}{subsubsection.5.6.2.12}
\contentsline {subsubsection}{\numberline {5.6.2.13}get\discretionary {\unhbox \voidb@x \hbox {\relax \fontsize {7}{8}\selectfont $\leftarrow \joinrel \rhook $}}{}{}S\discretionary {\unhbox \voidb@x \hbox {\relax \fontsize {7}{8}\selectfont $\leftarrow \joinrel \rhook $}}{}{}P\discretionary {\unhbox \voidb@x \hbox {\relax \fontsize {7}{8}\selectfont $\leftarrow \joinrel \rhook $}}{}{}D()}{25}{subsubsection.5.6.2.13}
\contentsline {subsubsection}{\numberline {5.6.2.14}get\discretionary {\unhbox \voidb@x \hbox {\relax \fontsize {7}{8}\selectfont $\leftarrow \joinrel \rhook $}}{}{}Type()}{25}{subsubsection.5.6.2.14}
\contentsline {subsubsection}{\numberline {5.6.2.15}print\discretionary {\unhbox \voidb@x \hbox {\relax \fontsize {7}{8}\selectfont $\leftarrow \joinrel \rhook $}}{}{}Info()}{25}{subsubsection.5.6.2.15}
\contentsline {subsubsection}{\numberline {5.6.2.16}set\discretionary {\unhbox \voidb@x \hbox {\relax \fontsize {7}{8}\selectfont $\leftarrow \joinrel \rhook $}}{}{}A\discretionary {\unhbox \voidb@x \hbox {\relax \fontsize {7}{8}\selectfont $\leftarrow \joinrel \rhook $}}{}{}T\discretionary {\unhbox \voidb@x \hbox {\relax \fontsize {7}{8}\selectfont $\leftarrow \joinrel \rhook $}}{}{}K()}{25}{subsubsection.5.6.2.16}
\contentsline {subsubsection}{\numberline {5.6.2.17}set\discretionary {\unhbox \voidb@x \hbox {\relax \fontsize {7}{8}\selectfont $\leftarrow \joinrel \rhook $}}{}{}C\discretionary {\unhbox \voidb@x \hbox {\relax \fontsize {7}{8}\selectfont $\leftarrow \joinrel \rhook $}}{}{}A\discretionary {\unhbox \voidb@x \hbox {\relax \fontsize {7}{8}\selectfont $\leftarrow \joinrel \rhook $}}{}{}L\discretionary {\unhbox \voidb@x \hbox {\relax \fontsize {7}{8}\selectfont $\leftarrow \joinrel \rhook $}}{}{}L()}{26}{subsubsection.5.6.2.17}
\contentsline {subsubsection}{\numberline {5.6.2.18}set\discretionary {\unhbox \voidb@x \hbox {\relax \fontsize {7}{8}\selectfont $\leftarrow \joinrel \rhook $}}{}{}D\discretionary {\unhbox \voidb@x \hbox {\relax \fontsize {7}{8}\selectfont $\leftarrow \joinrel \rhook $}}{}{}E\discretionary {\unhbox \voidb@x \hbox {\relax \fontsize {7}{8}\selectfont $\leftarrow \joinrel \rhook $}}{}{}F()}{26}{subsubsection.5.6.2.18}
\contentsline {subsubsection}{\numberline {5.6.2.19}set\discretionary {\unhbox \voidb@x \hbox {\relax \fontsize {7}{8}\selectfont $\leftarrow \joinrel \rhook $}}{}{}E\discretionary {\unhbox \voidb@x \hbox {\relax \fontsize {7}{8}\selectfont $\leftarrow \joinrel \rhook $}}{}{}X\discretionary {\unhbox \voidb@x \hbox {\relax \fontsize {7}{8}\selectfont $\leftarrow \joinrel \rhook $}}{}{}P()}{26}{subsubsection.5.6.2.19}
\contentsline {subsubsection}{\numberline {5.6.2.20}set\discretionary {\unhbox \voidb@x \hbox {\relax \fontsize {7}{8}\selectfont $\leftarrow \joinrel \rhook $}}{}{}H\discretionary {\unhbox \voidb@x \hbox {\relax \fontsize {7}{8}\selectfont $\leftarrow \joinrel \rhook $}}{}{}P()}{27}{subsubsection.5.6.2.20}
\contentsline {subsubsection}{\numberline {5.6.2.21}set\discretionary {\unhbox \voidb@x \hbox {\relax \fontsize {7}{8}\selectfont $\leftarrow \joinrel \rhook $}}{}{}Level()}{27}{subsubsection.5.6.2.21}
\contentsline {subsubsection}{\numberline {5.6.2.22}set\discretionary {\unhbox \voidb@x \hbox {\relax \fontsize {7}{8}\selectfont $\leftarrow \joinrel \rhook $}}{}{}N\discretionary {\unhbox \voidb@x \hbox {\relax \fontsize {7}{8}\selectfont $\leftarrow \joinrel \rhook $}}{}{}A\discretionary {\unhbox \voidb@x \hbox {\relax \fontsize {7}{8}\selectfont $\leftarrow \joinrel \rhook $}}{}{}M\discretionary {\unhbox \voidb@x \hbox {\relax \fontsize {7}{8}\selectfont $\leftarrow \joinrel \rhook $}}{}{}E()}{27}{subsubsection.5.6.2.22}
\contentsline {subsubsection}{\numberline {5.6.2.23}sets\discretionary {\unhbox \voidb@x \hbox {\relax \fontsize {7}{8}\selectfont $\leftarrow \joinrel \rhook $}}{}{}A\discretionary {\unhbox \voidb@x \hbox {\relax \fontsize {7}{8}\selectfont $\leftarrow \joinrel \rhook $}}{}{}T\discretionary {\unhbox \voidb@x \hbox {\relax \fontsize {7}{8}\selectfont $\leftarrow \joinrel \rhook $}}{}{}K()}{28}{subsubsection.5.6.2.23}
\contentsline {subsubsection}{\numberline {5.6.2.24}sets\discretionary {\unhbox \voidb@x \hbox {\relax \fontsize {7}{8}\selectfont $\leftarrow \joinrel \rhook $}}{}{}D\discretionary {\unhbox \voidb@x \hbox {\relax \fontsize {7}{8}\selectfont $\leftarrow \joinrel \rhook $}}{}{}E\discretionary {\unhbox \voidb@x \hbox {\relax \fontsize {7}{8}\selectfont $\leftarrow \joinrel \rhook $}}{}{}F()}{28}{subsubsection.5.6.2.24}
\contentsline {subsubsection}{\numberline {5.6.2.25}set\discretionary {\unhbox \voidb@x \hbox {\relax \fontsize {7}{8}\selectfont $\leftarrow \joinrel \rhook $}}{}{}S\discretionary {\unhbox \voidb@x \hbox {\relax \fontsize {7}{8}\selectfont $\leftarrow \joinrel \rhook $}}{}{}P\discretionary {\unhbox \voidb@x \hbox {\relax \fontsize {7}{8}\selectfont $\leftarrow \joinrel \rhook $}}{}{}D()}{28}{subsubsection.5.6.2.25}
\contentsline {subsubsection}{\numberline {5.6.2.26}set\discretionary {\unhbox \voidb@x \hbox {\relax \fontsize {7}{8}\selectfont $\leftarrow \joinrel \rhook $}}{}{}Type()}{28}{subsubsection.5.6.2.26}
\contentsline {section}{\numberline {5.7}Water Class Reference}{29}{section.5.7}
\contentsline {subsection}{\numberline {5.7.1}Detailed Description}{29}{subsection.5.7.1}
\contentsline {subsection}{\numberline {5.7.2}Constructor \& Destructor Documentation}{30}{subsection.5.7.2}
\contentsline {subsubsection}{\numberline {5.7.2.1}Water()}{30}{subsubsection.5.7.2.1}
\contentsline {subsubsection}{\numberline {5.7.2.2}$\sim $\discretionary {\unhbox \voidb@x \hbox {\relax \fontsize {7}{8}\selectfont $\leftarrow \joinrel \rhook $}}{}{}Water()}{30}{subsubsection.5.7.2.2}
\contentsline {subsection}{\numberline {5.7.3}Member Function Documentation}{30}{subsection.5.7.3}
\contentsline {subsubsection}{\numberline {5.7.3.1}is\discretionary {\unhbox \voidb@x \hbox {\relax \fontsize {7}{8}\selectfont $\leftarrow \joinrel \rhook $}}{}{}Strong\discretionary {\unhbox \voidb@x \hbox {\relax \fontsize {7}{8}\selectfont $\leftarrow \joinrel \rhook $}}{}{}V\discretionary {\unhbox \voidb@x \hbox {\relax \fontsize {7}{8}\selectfont $\leftarrow \joinrel \rhook $}}{}{}S()}{30}{subsubsection.5.7.3.1}
\contentsline {subsubsection}{\numberline {5.7.3.2}is\discretionary {\unhbox \voidb@x \hbox {\relax \fontsize {7}{8}\selectfont $\leftarrow \joinrel \rhook $}}{}{}Weak\discretionary {\unhbox \voidb@x \hbox {\relax \fontsize {7}{8}\selectfont $\leftarrow \joinrel \rhook $}}{}{}V\discretionary {\unhbox \voidb@x \hbox {\relax \fontsize {7}{8}\selectfont $\leftarrow \joinrel \rhook $}}{}{}S()}{30}{subsubsection.5.7.3.2}
\contentsline {subsubsection}{\numberline {5.7.3.3}strong\discretionary {\unhbox \voidb@x \hbox {\relax \fontsize {7}{8}\selectfont $\leftarrow \joinrel \rhook $}}{}{}Vs()}{31}{subsubsection.5.7.3.3}
\contentsline {subsubsection}{\numberline {5.7.3.4}Type()}{31}{subsubsection.5.7.3.4}
\contentsline {subsubsection}{\numberline {5.7.3.5}weak\discretionary {\unhbox \voidb@x \hbox {\relax \fontsize {7}{8}\selectfont $\leftarrow \joinrel \rhook $}}{}{}Vs()}{31}{subsubsection.5.7.3.5}
\contentsline {section}{\numberline {5.8}Zapdos Class Reference}{32}{section.5.8}
\contentsline {subsection}{\numberline {5.8.1}Detailed Description}{32}{subsection.5.8.1}
\contentsline {subsection}{\numberline {5.8.2}Constructor \& Destructor Documentation}{32}{subsection.5.8.2}
\contentsline {subsubsection}{\numberline {5.8.2.1}Zapdos()}{33}{subsubsection.5.8.2.1}
\contentsline {subsubsection}{\numberline {5.8.2.2}$\sim $\discretionary {\unhbox \voidb@x \hbox {\relax \fontsize {7}{8}\selectfont $\leftarrow \joinrel \rhook $}}{}{}Zapdos()}{33}{subsubsection.5.8.2.2}
\contentsline {subsection}{\numberline {5.8.3}Member Function Documentation}{33}{subsection.5.8.3}
\contentsline {subsubsection}{\numberline {5.8.3.1}A\discretionary {\unhbox \voidb@x \hbox {\relax \fontsize {7}{8}\selectfont $\leftarrow \joinrel \rhook $}}{}{}T\discretionary {\unhbox \voidb@x \hbox {\relax \fontsize {7}{8}\selectfont $\leftarrow \joinrel \rhook $}}{}{}K1()}{33}{subsubsection.5.8.3.1}
\contentsline {subsubsection}{\numberline {5.8.3.2}A\discretionary {\unhbox \voidb@x \hbox {\relax \fontsize {7}{8}\selectfont $\leftarrow \joinrel \rhook $}}{}{}T\discretionary {\unhbox \voidb@x \hbox {\relax \fontsize {7}{8}\selectfont $\leftarrow \joinrel \rhook $}}{}{}K2()}{33}{subsubsection.5.8.3.2}
\contentsline {subsubsection}{\numberline {5.8.3.3}A\discretionary {\unhbox \voidb@x \hbox {\relax \fontsize {7}{8}\selectfont $\leftarrow \joinrel \rhook $}}{}{}T\discretionary {\unhbox \voidb@x \hbox {\relax \fontsize {7}{8}\selectfont $\leftarrow \joinrel \rhook $}}{}{}K3()}{34}{subsubsection.5.8.3.3}
\contentsline {subsubsection}{\numberline {5.8.3.4}A\discretionary {\unhbox \voidb@x \hbox {\relax \fontsize {7}{8}\selectfont $\leftarrow \joinrel \rhook $}}{}{}T\discretionary {\unhbox \voidb@x \hbox {\relax \fontsize {7}{8}\selectfont $\leftarrow \joinrel \rhook $}}{}{}K4()}{34}{subsubsection.5.8.3.4}
\contentsline {subsubsection}{\numberline {5.8.3.5}print()}{34}{subsubsection.5.8.3.5}
\contentsline {chapter}{\numberline {6}File Documentation}{35}{chapter.6}
\contentsline {section}{\numberline {6.1}Arcticuno.\discretionary {\unhbox \voidb@x \hbox {\relax \fontsize {7}{8}\selectfont $\leftarrow \joinrel \rhook $}}{}{}h File Reference}{35}{section.6.1}
\contentsline {section}{\numberline {6.2}Electric.\discretionary {\unhbox \voidb@x \hbox {\relax \fontsize {7}{8}\selectfont $\leftarrow \joinrel \rhook $}}{}{}h File Reference}{35}{section.6.2}
\contentsline {section}{\numberline {6.3}Fire.\discretionary {\unhbox \voidb@x \hbox {\relax \fontsize {7}{8}\selectfont $\leftarrow \joinrel \rhook $}}{}{}h File Reference}{35}{section.6.3}
\contentsline {section}{\numberline {6.4}Flying.\discretionary {\unhbox \voidb@x \hbox {\relax \fontsize {7}{8}\selectfont $\leftarrow \joinrel \rhook $}}{}{}h File Reference}{36}{section.6.4}
\contentsline {section}{\numberline {6.5}header.\discretionary {\unhbox \voidb@x \hbox {\relax \fontsize {7}{8}\selectfont $\leftarrow \joinrel \rhook $}}{}{}h File Reference}{36}{section.6.5}
\contentsline {section}{\numberline {6.6}Moltress.\discretionary {\unhbox \voidb@x \hbox {\relax \fontsize {7}{8}\selectfont $\leftarrow \joinrel \rhook $}}{}{}h File Reference}{36}{section.6.6}
\contentsline {section}{\numberline {6.7}Pokemon.\discretionary {\unhbox \voidb@x \hbox {\relax \fontsize {7}{8}\selectfont $\leftarrow \joinrel \rhook $}}{}{}h File Reference}{36}{section.6.7}
\contentsline {section}{\numberline {6.8}Water.\discretionary {\unhbox \voidb@x \hbox {\relax \fontsize {7}{8}\selectfont $\leftarrow \joinrel \rhook $}}{}{}h File Reference}{37}{section.6.8}
\contentsline {section}{\numberline {6.9}Zapdos.\discretionary {\unhbox \voidb@x \hbox {\relax \fontsize {7}{8}\selectfont $\leftarrow \joinrel \rhook $}}{}{}h File Reference}{37}{section.6.9}
\contentsline {chapter}{Index}{39}{section*.23}
