\relax 
\providecommand\hyper@newdestlabel[2]{}
\providecommand\HyperFirstAtBeginDocument{\AtBeginDocument}
\HyperFirstAtBeginDocument{\ifx\hyper@anchor\@undefined
\global\let\oldcontentsline\contentsline
\gdef\contentsline#1#2#3#4{\oldcontentsline{#1}{#2}{#3}}
\global\let\oldnewlabel\newlabel
\gdef\newlabel#1#2{\newlabelxx{#1}#2}
\gdef\newlabelxx#1#2#3#4#5#6{\oldnewlabel{#1}{{#2}{#3}}}
\AtEndDocument{\ifx\hyper@anchor\@undefined
\let\contentsline\oldcontentsline
\let\newlabel\oldnewlabel
\fi}
\fi}
\global\let\hyper@last\relax 
\gdef\HyperFirstAtBeginDocument#1{#1}
\providecommand\HyField@AuxAddToFields[1]{}
\providecommand\HyField@AuxAddToCoFields[2]{}
\providecommand \oddpage@label [2]{}
\@writefile{toc}{\contentsline {chapter}{\numberline {1}Herencia y Polimorfismo\discretionary {\unhbox \voidb@x \hbox {\relax \fontsize  {7}{8}\selectfont  $\leftarrow \joinrel  \rhook $}}{}{}: implementaci\IeC {\'o}n con Zapdos Moltress y Arcticuno en C++}{1}{chapter.1}}
\@writefile{lof}{\addvspace {10\p@ }}
\@writefile{lot}{\addvspace {10\p@ }}
\newlabel{index}{{1}{1}{Herencia y Polimorfismo\+: implementación con Zapdos Moltress y Arcticuno en C++}{chapter.1}{}}
\@writefile{toc}{\contentsline {section}{\numberline {1.1}Introduccion}{1}{section.1.1}}
\newlabel{index_intro_sec}{{1.1}{1}{Introduccion}{section.1.1}{}}
\@writefile{toc}{\contentsline {section}{\numberline {1.2}Compilacion}{1}{section.1.2}}
\newlabel{index_compile_sec}{{1.2}{1}{Compilacion}{section.1.2}{}}
\@writefile{toc}{\contentsline {section}{\numberline {1.3}Documentacion}{1}{section.1.3}}
\newlabel{index_Documentation_sec}{{1.3}{1}{Documentacion}{section.1.3}{}}
\@writefile{toc}{\contentsline {section}{\numberline {1.4}Resumen Te\IeC {\'o}rico}{2}{section.1.4}}
\newlabel{index_concepts_sec}{{1.4}{2}{Resumen Teórico}{section.1.4}{}}
\@writefile{toc}{\contentsline {subsection}{\numberline {1.4.1}Herencia}{2}{subsection.1.4.1}}
\newlabel{index_Herencia}{{1.4.1}{2}{Herencia}{subsection.1.4.1}{}}
\@writefile{toc}{\contentsline {subsection}{\numberline {1.4.2}Polimorfismo}{2}{subsection.1.4.2}}
\newlabel{index_Polimorfismo}{{1.4.2}{2}{Polimorfismo}{subsection.1.4.2}{}}
\@writefile{toc}{\contentsline {chapter}{\numberline {2}Hierarchical Index}{3}{chapter.2}}
\@writefile{lof}{\addvspace {10\p@ }}
\@writefile{lot}{\addvspace {10\p@ }}
\@writefile{toc}{\contentsline {section}{\numberline {2.1}Class Hierarchy}{3}{section.2.1}}
\@writefile{toc}{\contentsline {chapter}{\numberline {3}Class Index}{5}{chapter.3}}
\@writefile{lof}{\addvspace {10\p@ }}
\@writefile{lot}{\addvspace {10\p@ }}
\@writefile{toc}{\contentsline {section}{\numberline {3.1}Class List}{5}{section.3.1}}
\@writefile{toc}{\contentsline {chapter}{\numberline {4}File Index}{7}{chapter.4}}
\@writefile{lof}{\addvspace {10\p@ }}
\@writefile{lot}{\addvspace {10\p@ }}
\@writefile{toc}{\contentsline {section}{\numberline {4.1}File List}{7}{section.4.1}}
\@writefile{toc}{\contentsline {chapter}{\numberline {5}Class Documentation}{9}{chapter.5}}
\@writefile{lof}{\addvspace {10\p@ }}
\@writefile{lot}{\addvspace {10\p@ }}
\@writefile{toc}{\contentsline {section}{\numberline {5.1}Arcticuno Class Reference}{9}{section.5.1}}
\newlabel{classArcticuno}{{5.1}{9}{Arcticuno Class Reference}{section.5.1}{}}
\@writefile{toc}{\contentsline {subsection}{\numberline {5.1.1}Detailed Description}{9}{subsection.5.1.1}}
\@writefile{toc}{\contentsline {subsection}{\numberline {5.1.2}Constructor \& Destructor Documentation}{10}{subsection.5.1.2}}
\newlabel{classArcticuno_a11d980042aa2a48dd97eab421b2c6500}{{5.1.2}{10}{Constructor \& Destructor Documentation}{subsection.5.1.2}{}}
\@writefile{toc}{\contentsline {subsubsection}{\numberline {5.1.2.1}Arcticuno()}{10}{subsubsection.5.1.2.1}}
\newlabel{classArcticuno_ac486b85c8b131bbc41a4e61258d83954}{{5.1.2.1}{10}{\texorpdfstring {Arcticuno()}{Arcticuno()}}{subsubsection.5.1.2.1}{}}
\@writefile{toc}{\contentsline {subsubsection}{\numberline {5.1.2.2}$\sim $\discretionary {\unhbox \voidb@x \hbox {\relax \fontsize  {7}{8}\selectfont  $\leftarrow \joinrel  \rhook $}}{}{}Arcticuno()}{10}{subsubsection.5.1.2.2}}
\@writefile{toc}{\contentsline {subsection}{\numberline {5.1.3}Member Function Documentation}{10}{subsection.5.1.3}}
\newlabel{classArcticuno_a21defbecb8a134ddcef9c82b1a2708e5}{{5.1.3}{10}{Member Function Documentation}{subsection.5.1.3}{}}
\@writefile{toc}{\contentsline {subsubsection}{\numberline {5.1.3.1}A\discretionary {\unhbox \voidb@x \hbox {\relax \fontsize  {7}{8}\selectfont  $\leftarrow \joinrel  \rhook $}}{}{}T\discretionary {\unhbox \voidb@x \hbox {\relax \fontsize  {7}{8}\selectfont  $\leftarrow \joinrel  \rhook $}}{}{}K1()}{10}{subsubsection.5.1.3.1}}
\newlabel{classArcticuno_ae2e1e9fda6b762b3930b4cd6a8aa77b1}{{5.1.3.1}{10}{\texorpdfstring {A\+T\+K1()}{ATK1()}}{subsubsection.5.1.3.1}{}}
\@writefile{toc}{\contentsline {subsubsection}{\numberline {5.1.3.2}A\discretionary {\unhbox \voidb@x \hbox {\relax \fontsize  {7}{8}\selectfont  $\leftarrow \joinrel  \rhook $}}{}{}T\discretionary {\unhbox \voidb@x \hbox {\relax \fontsize  {7}{8}\selectfont  $\leftarrow \joinrel  \rhook $}}{}{}K2()}{10}{subsubsection.5.1.3.2}}
\newlabel{classArcticuno_af6b32ca8133b9ed046d554826736ed85}{{5.1.3.2}{10}{\texorpdfstring {A\+T\+K2()}{ATK2()}}{subsubsection.5.1.3.2}{}}
\@writefile{toc}{\contentsline {subsubsection}{\numberline {5.1.3.3}A\discretionary {\unhbox \voidb@x \hbox {\relax \fontsize  {7}{8}\selectfont  $\leftarrow \joinrel  \rhook $}}{}{}T\discretionary {\unhbox \voidb@x \hbox {\relax \fontsize  {7}{8}\selectfont  $\leftarrow \joinrel  \rhook $}}{}{}K3()}{11}{subsubsection.5.1.3.3}}
\newlabel{classArcticuno_a80519f11712ec32b78a4a6352b1cf4ee}{{5.1.3.3}{11}{\texorpdfstring {A\+T\+K3()}{ATK3()}}{subsubsection.5.1.3.3}{}}
\@writefile{toc}{\contentsline {subsubsection}{\numberline {5.1.3.4}A\discretionary {\unhbox \voidb@x \hbox {\relax \fontsize  {7}{8}\selectfont  $\leftarrow \joinrel  \rhook $}}{}{}T\discretionary {\unhbox \voidb@x \hbox {\relax \fontsize  {7}{8}\selectfont  $\leftarrow \joinrel  \rhook $}}{}{}K4()}{11}{subsubsection.5.1.3.4}}
\newlabel{classArcticuno_ae45a8fbc1bab21a05254312cfbc70f29}{{5.1.3.4}{11}{\texorpdfstring {A\+T\+K4()}{ATK4()}}{subsubsection.5.1.3.4}{}}
\@writefile{toc}{\contentsline {subsubsection}{\numberline {5.1.3.5}print()}{11}{subsubsection.5.1.3.5}}
\@writefile{toc}{\contentsline {section}{\numberline {5.2}Electric Class Reference}{11}{section.5.2}}
\newlabel{classElectric}{{5.2}{11}{Electric Class Reference}{section.5.2}{}}
\@writefile{toc}{\contentsline {subsection}{\numberline {5.2.1}Detailed Description}{12}{subsection.5.2.1}}
\@writefile{toc}{\contentsline {subsection}{\numberline {5.2.2}Constructor \& Destructor Documentation}{12}{subsection.5.2.2}}
\newlabel{classElectric_a7c268480e07f034eb879a1899730a624}{{5.2.2}{12}{Constructor \& Destructor Documentation}{subsection.5.2.2}{}}
\@writefile{toc}{\contentsline {subsubsection}{\numberline {5.2.2.1}Electric()}{12}{subsubsection.5.2.2.1}}
\newlabel{classElectric_ae786fd0d9dd3791467bd78e95369cbf6}{{5.2.2.1}{12}{\texorpdfstring {Electric()}{Electric()}}{subsubsection.5.2.2.1}{}}
\@writefile{toc}{\contentsline {subsubsection}{\numberline {5.2.2.2}$\sim $\discretionary {\unhbox \voidb@x \hbox {\relax \fontsize  {7}{8}\selectfont  $\leftarrow \joinrel  \rhook $}}{}{}Electric()}{12}{subsubsection.5.2.2.2}}
\@writefile{toc}{\contentsline {subsection}{\numberline {5.2.3}Member Function Documentation}{12}{subsection.5.2.3}}
\newlabel{classElectric_add78575d4f40f2d67e49195560b2b909}{{5.2.3}{12}{Member Function Documentation}{subsection.5.2.3}{}}
\@writefile{toc}{\contentsline {subsubsection}{\numberline {5.2.3.1}is\discretionary {\unhbox \voidb@x \hbox {\relax \fontsize  {7}{8}\selectfont  $\leftarrow \joinrel  \rhook $}}{}{}Strong\discretionary {\unhbox \voidb@x \hbox {\relax \fontsize  {7}{8}\selectfont  $\leftarrow \joinrel  \rhook $}}{}{}V\discretionary {\unhbox \voidb@x \hbox {\relax \fontsize  {7}{8}\selectfont  $\leftarrow \joinrel  \rhook $}}{}{}S()}{12}{subsubsection.5.2.3.1}}
\gdef \LT@i {\LT@entry 
    {3}{41.81543pt}\LT@entry 
    {3}{127.45337pt}}
\gdef \LT@ii {\LT@entry 
    {3}{41.81543pt}\LT@entry 
    {3}{127.45337pt}}
\newlabel{classElectric_a2632e8defec9e22c11b77811cc95d9a1}{{5.2.3.1}{13}{\texorpdfstring {is\+Strong\+V\+S()}{isStrongVS()}}{table.5.1}{}}
\@writefile{toc}{\contentsline {subsubsection}{\numberline {5.2.3.2}is\discretionary {\unhbox \voidb@x \hbox {\relax \fontsize  {7}{8}\selectfont  $\leftarrow \joinrel  \rhook $}}{}{}Weak\discretionary {\unhbox \voidb@x \hbox {\relax \fontsize  {7}{8}\selectfont  $\leftarrow \joinrel  \rhook $}}{}{}V\discretionary {\unhbox \voidb@x \hbox {\relax \fontsize  {7}{8}\selectfont  $\leftarrow \joinrel  \rhook $}}{}{}S()}{13}{subsubsection.5.2.3.2}}
\newlabel{classElectric_a11944de076f7c682d473ed3516e193df}{{5.2.3.2}{13}{\texorpdfstring {is\+Weak\+V\+S()}{isWeakVS()}}{table.5.2}{}}
\@writefile{toc}{\contentsline {subsubsection}{\numberline {5.2.3.3}strong\discretionary {\unhbox \voidb@x \hbox {\relax \fontsize  {7}{8}\selectfont  $\leftarrow \joinrel  \rhook $}}{}{}Vs()}{13}{subsubsection.5.2.3.3}}
\newlabel{classElectric_a192416f3724543919b672e8ddfa00a76}{{5.2.3.3}{13}{\texorpdfstring {strong\+Vs()}{strongVs()}}{subsubsection.5.2.3.3}{}}
\@writefile{toc}{\contentsline {subsubsection}{\numberline {5.2.3.4}Type()}{13}{subsubsection.5.2.3.4}}
\newlabel{classElectric_adc15cef1419bee2ae6edc1cbc1f9ecae}{{5.2.3.4}{13}{\texorpdfstring {Type()}{Type()}}{subsubsection.5.2.3.4}{}}
\@writefile{toc}{\contentsline {subsubsection}{\numberline {5.2.3.5}weak\discretionary {\unhbox \voidb@x \hbox {\relax \fontsize  {7}{8}\selectfont  $\leftarrow \joinrel  \rhook $}}{}{}Vs()}{14}{subsubsection.5.2.3.5}}
\@writefile{toc}{\contentsline {section}{\numberline {5.3}Fire Class Reference}{14}{section.5.3}}
\newlabel{classFire}{{5.3}{14}{Fire Class Reference}{section.5.3}{}}
\@writefile{toc}{\contentsline {subsection}{\numberline {5.3.1}Detailed Description}{14}{subsection.5.3.1}}
\gdef \LT@iii {\LT@entry 
    {3}{41.81543pt}\LT@entry 
    {3}{127.45337pt}}
\gdef \LT@iv {\LT@entry 
    {3}{41.81543pt}\LT@entry 
    {3}{127.45337pt}}
\@writefile{toc}{\contentsline {subsection}{\numberline {5.3.2}Constructor \& Destructor Documentation}{15}{subsection.5.3.2}}
\newlabel{classFire_a084894189971bd5d033241ada306658c}{{5.3.2}{15}{Constructor \& Destructor Documentation}{subsection.5.3.2}{}}
\@writefile{toc}{\contentsline {subsubsection}{\numberline {5.3.2.1}Fire()}{15}{subsubsection.5.3.2.1}}
\newlabel{classFire_ae5f95523457f6a91cc9df1543a80f824}{{5.3.2.1}{15}{\texorpdfstring {Fire()}{Fire()}}{subsubsection.5.3.2.1}{}}
\@writefile{toc}{\contentsline {subsubsection}{\numberline {5.3.2.2}$\sim $\discretionary {\unhbox \voidb@x \hbox {\relax \fontsize  {7}{8}\selectfont  $\leftarrow \joinrel  \rhook $}}{}{}Fire()}{15}{subsubsection.5.3.2.2}}
\@writefile{toc}{\contentsline {subsection}{\numberline {5.3.3}Member Function Documentation}{15}{subsection.5.3.3}}
\newlabel{classFire_ae7614f59902ca39e31bfd89eacb7f1a9}{{5.3.3}{15}{Member Function Documentation}{subsection.5.3.3}{}}
\@writefile{toc}{\contentsline {subsubsection}{\numberline {5.3.3.1}is\discretionary {\unhbox \voidb@x \hbox {\relax \fontsize  {7}{8}\selectfont  $\leftarrow \joinrel  \rhook $}}{}{}Strong\discretionary {\unhbox \voidb@x \hbox {\relax \fontsize  {7}{8}\selectfont  $\leftarrow \joinrel  \rhook $}}{}{}V\discretionary {\unhbox \voidb@x \hbox {\relax \fontsize  {7}{8}\selectfont  $\leftarrow \joinrel  \rhook $}}{}{}S()}{15}{subsubsection.5.3.3.1}}
\newlabel{classFire_aa6a3f24e29bb08db1ddeac231b5f9f4d}{{5.3.3.1}{15}{\texorpdfstring {is\+Strong\+V\+S()}{isStrongVS()}}{table.5.3}{}}
\@writefile{toc}{\contentsline {subsubsection}{\numberline {5.3.3.2}is\discretionary {\unhbox \voidb@x \hbox {\relax \fontsize  {7}{8}\selectfont  $\leftarrow \joinrel  \rhook $}}{}{}Weak\discretionary {\unhbox \voidb@x \hbox {\relax \fontsize  {7}{8}\selectfont  $\leftarrow \joinrel  \rhook $}}{}{}V\discretionary {\unhbox \voidb@x \hbox {\relax \fontsize  {7}{8}\selectfont  $\leftarrow \joinrel  \rhook $}}{}{}S()}{15}{subsubsection.5.3.3.2}}
\newlabel{classFire_a9ec157338fd4d4b97cabefe72a1ad2c8}{{5.3.3.2}{16}{\texorpdfstring {is\+Weak\+V\+S()}{isWeakVS()}}{table.5.4}{}}
\@writefile{toc}{\contentsline {subsubsection}{\numberline {5.3.3.3}strong\discretionary {\unhbox \voidb@x \hbox {\relax \fontsize  {7}{8}\selectfont  $\leftarrow \joinrel  \rhook $}}{}{}Vs()}{16}{subsubsection.5.3.3.3}}
\newlabel{classFire_a765a595ff7adef2ad05ee7399625beac}{{5.3.3.3}{16}{\texorpdfstring {strong\+Vs()}{strongVs()}}{subsubsection.5.3.3.3}{}}
\@writefile{toc}{\contentsline {subsubsection}{\numberline {5.3.3.4}Type()}{16}{subsubsection.5.3.3.4}}
\newlabel{classFire_a85bb9d85b1e2c3045e03927444fc0f97}{{5.3.3.4}{16}{\texorpdfstring {Type()}{Type()}}{subsubsection.5.3.3.4}{}}
\@writefile{toc}{\contentsline {subsubsection}{\numberline {5.3.3.5}weak\discretionary {\unhbox \voidb@x \hbox {\relax \fontsize  {7}{8}\selectfont  $\leftarrow \joinrel  \rhook $}}{}{}Vs()}{16}{subsubsection.5.3.3.5}}
\@writefile{toc}{\contentsline {section}{\numberline {5.4}Flying Class Reference}{17}{section.5.4}}
\newlabel{classFlying}{{5.4}{17}{Flying Class Reference}{section.5.4}{}}
\@writefile{toc}{\contentsline {subsection}{\numberline {5.4.1}Detailed Description}{17}{subsection.5.4.1}}
\@writefile{toc}{\contentsline {subsection}{\numberline {5.4.2}Constructor \& Destructor Documentation}{17}{subsection.5.4.2}}
\newlabel{classFlying_a9e10ef225b737c625d3d0aea16226819}{{5.4.2}{17}{Constructor \& Destructor Documentation}{subsection.5.4.2}{}}
\@writefile{toc}{\contentsline {subsubsection}{\numberline {5.4.2.1}Flying()}{17}{subsubsection.5.4.2.1}}
\newlabel{classFlying_a0c057700fccbea7426c9f93f07460d30}{{5.4.2.1}{17}{\texorpdfstring {Flying()}{Flying()}}{subsubsection.5.4.2.1}{}}
\@writefile{toc}{\contentsline {subsubsection}{\numberline {5.4.2.2}$\sim $\discretionary {\unhbox \voidb@x \hbox {\relax \fontsize  {7}{8}\selectfont  $\leftarrow \joinrel  \rhook $}}{}{}Flying()}{17}{subsubsection.5.4.2.2}}
\@writefile{toc}{\contentsline {section}{\numberline {5.5}Moltress Class Reference}{18}{section.5.5}}
\newlabel{classMoltress}{{5.5}{18}{Moltress Class Reference}{section.5.5}{}}
\@writefile{toc}{\contentsline {subsection}{\numberline {5.5.1}Detailed Description}{18}{subsection.5.5.1}}
\@writefile{toc}{\contentsline {subsection}{\numberline {5.5.2}Constructor \& Destructor Documentation}{18}{subsection.5.5.2}}
\newlabel{classMoltress_a8a8b2bec5c099237f72aaa74789c9c63}{{5.5.2}{18}{Constructor \& Destructor Documentation}{subsection.5.5.2}{}}
\@writefile{toc}{\contentsline {subsubsection}{\numberline {5.5.2.1}Moltress()}{19}{subsubsection.5.5.2.1}}
\newlabel{classMoltress_a22313712044da0e264288f19c44418a7}{{5.5.2.1}{19}{\texorpdfstring {Moltress()}{Moltress()}}{subsubsection.5.5.2.1}{}}
\@writefile{toc}{\contentsline {subsubsection}{\numberline {5.5.2.2}$\sim $\discretionary {\unhbox \voidb@x \hbox {\relax \fontsize  {7}{8}\selectfont  $\leftarrow \joinrel  \rhook $}}{}{}Moltress()}{19}{subsubsection.5.5.2.2}}
\@writefile{toc}{\contentsline {subsection}{\numberline {5.5.3}Member Function Documentation}{19}{subsection.5.5.3}}
\newlabel{classMoltress_aeb37608da8ce31a2e92019504cc2cb38}{{5.5.3}{19}{Member Function Documentation}{subsection.5.5.3}{}}
\@writefile{toc}{\contentsline {subsubsection}{\numberline {5.5.3.1}A\discretionary {\unhbox \voidb@x \hbox {\relax \fontsize  {7}{8}\selectfont  $\leftarrow \joinrel  \rhook $}}{}{}T\discretionary {\unhbox \voidb@x \hbox {\relax \fontsize  {7}{8}\selectfont  $\leftarrow \joinrel  \rhook $}}{}{}K1()}{19}{subsubsection.5.5.3.1}}
\newlabel{classMoltress_add30383a8a53b0fe6e96b234b131b4ab}{{5.5.3.1}{19}{\texorpdfstring {A\+T\+K1()}{ATK1()}}{subsubsection.5.5.3.1}{}}
\@writefile{toc}{\contentsline {subsubsection}{\numberline {5.5.3.2}A\discretionary {\unhbox \voidb@x \hbox {\relax \fontsize  {7}{8}\selectfont  $\leftarrow \joinrel  \rhook $}}{}{}T\discretionary {\unhbox \voidb@x \hbox {\relax \fontsize  {7}{8}\selectfont  $\leftarrow \joinrel  \rhook $}}{}{}K2()}{19}{subsubsection.5.5.3.2}}
\newlabel{classMoltress_a4d26c223c9bb52332b2c9fc71e057147}{{5.5.3.2}{19}{\texorpdfstring {A\+T\+K2()}{ATK2()}}{subsubsection.5.5.3.2}{}}
\@writefile{toc}{\contentsline {subsubsection}{\numberline {5.5.3.3}A\discretionary {\unhbox \voidb@x \hbox {\relax \fontsize  {7}{8}\selectfont  $\leftarrow \joinrel  \rhook $}}{}{}T\discretionary {\unhbox \voidb@x \hbox {\relax \fontsize  {7}{8}\selectfont  $\leftarrow \joinrel  \rhook $}}{}{}K3()}{20}{subsubsection.5.5.3.3}}
\newlabel{classMoltress_ab8d74ca27a2a7637dc5f7b9bb5c93fbf}{{5.5.3.3}{20}{\texorpdfstring {A\+T\+K3()}{ATK3()}}{subsubsection.5.5.3.3}{}}
\@writefile{toc}{\contentsline {subsubsection}{\numberline {5.5.3.4}A\discretionary {\unhbox \voidb@x \hbox {\relax \fontsize  {7}{8}\selectfont  $\leftarrow \joinrel  \rhook $}}{}{}T\discretionary {\unhbox \voidb@x \hbox {\relax \fontsize  {7}{8}\selectfont  $\leftarrow \joinrel  \rhook $}}{}{}K4()}{20}{subsubsection.5.5.3.4}}
\newlabel{classMoltress_aa4d447a429c489a32d4e6b991d7ad541}{{5.5.3.4}{20}{\texorpdfstring {A\+T\+K4()}{ATK4()}}{subsubsection.5.5.3.4}{}}
\@writefile{toc}{\contentsline {subsubsection}{\numberline {5.5.3.5}print()}{20}{subsubsection.5.5.3.5}}
\@writefile{toc}{\contentsline {section}{\numberline {5.6}Pokemon Class Reference}{20}{section.5.6}}
\newlabel{classPokemon}{{5.6}{20}{Pokemon Class Reference}{section.5.6}{}}
\@writefile{toc}{\contentsline {subsection}{\numberline {5.6.1}Detailed Description}{22}{subsection.5.6.1}}
\@writefile{toc}{\contentsline {subsection}{\numberline {5.6.2}Member Function Documentation}{22}{subsection.5.6.2}}
\newlabel{classPokemon_ab489863916703318ac5d6e0de942afb9}{{5.6.2}{22}{Member Function Documentation}{subsection.5.6.2}{}}
\@writefile{toc}{\contentsline {subsubsection}{\numberline {5.6.2.1}A\discretionary {\unhbox \voidb@x \hbox {\relax \fontsize  {7}{8}\selectfont  $\leftarrow \joinrel  \rhook $}}{}{}T\discretionary {\unhbox \voidb@x \hbox {\relax \fontsize  {7}{8}\selectfont  $\leftarrow \joinrel  \rhook $}}{}{}K1()}{22}{subsubsection.5.6.2.1}}
\newlabel{classPokemon_ac66ef3aa874c02bd363c398428b251a9}{{5.6.2.1}{22}{\texorpdfstring {A\+T\+K1()}{ATK1()}}{subsubsection.5.6.2.1}{}}
\@writefile{toc}{\contentsline {subsubsection}{\numberline {5.6.2.2}A\discretionary {\unhbox \voidb@x \hbox {\relax \fontsize  {7}{8}\selectfont  $\leftarrow \joinrel  \rhook $}}{}{}T\discretionary {\unhbox \voidb@x \hbox {\relax \fontsize  {7}{8}\selectfont  $\leftarrow \joinrel  \rhook $}}{}{}K2()}{22}{subsubsection.5.6.2.2}}
\newlabel{classPokemon_a9c150aede2874a33f328f628dcede267}{{5.6.2.2}{22}{\texorpdfstring {A\+T\+K2()}{ATK2()}}{subsubsection.5.6.2.2}{}}
\@writefile{toc}{\contentsline {subsubsection}{\numberline {5.6.2.3}A\discretionary {\unhbox \voidb@x \hbox {\relax \fontsize  {7}{8}\selectfont  $\leftarrow \joinrel  \rhook $}}{}{}T\discretionary {\unhbox \voidb@x \hbox {\relax \fontsize  {7}{8}\selectfont  $\leftarrow \joinrel  \rhook $}}{}{}K3()}{22}{subsubsection.5.6.2.3}}
\newlabel{classPokemon_aee6bad26fccf9394512c146710ed2f7d}{{5.6.2.3}{22}{\texorpdfstring {A\+T\+K3()}{ATK3()}}{subsubsection.5.6.2.3}{}}
\@writefile{toc}{\contentsline {subsubsection}{\numberline {5.6.2.4}A\discretionary {\unhbox \voidb@x \hbox {\relax \fontsize  {7}{8}\selectfont  $\leftarrow \joinrel  \rhook $}}{}{}T\discretionary {\unhbox \voidb@x \hbox {\relax \fontsize  {7}{8}\selectfont  $\leftarrow \joinrel  \rhook $}}{}{}K4()}{23}{subsubsection.5.6.2.4}}
\newlabel{classPokemon_ac31d559cd56c1455d5bd097b51042455}{{5.6.2.4}{23}{\texorpdfstring {A\+T\+K4()}{ATK4()}}{subsubsection.5.6.2.4}{}}
\@writefile{toc}{\contentsline {subsubsection}{\numberline {5.6.2.5}get\discretionary {\unhbox \voidb@x \hbox {\relax \fontsize  {7}{8}\selectfont  $\leftarrow \joinrel  \rhook $}}{}{}A\discretionary {\unhbox \voidb@x \hbox {\relax \fontsize  {7}{8}\selectfont  $\leftarrow \joinrel  \rhook $}}{}{}T\discretionary {\unhbox \voidb@x \hbox {\relax \fontsize  {7}{8}\selectfont  $\leftarrow \joinrel  \rhook $}}{}{}K()}{23}{subsubsection.5.6.2.5}}
\newlabel{classPokemon_a22c2a4f6272e44f932e5ebd65fe6d514}{{5.6.2.5}{23}{\texorpdfstring {get\+A\+T\+K()}{getATK()}}{subsubsection.5.6.2.5}{}}
\@writefile{toc}{\contentsline {subsubsection}{\numberline {5.6.2.6}get\discretionary {\unhbox \voidb@x \hbox {\relax \fontsize  {7}{8}\selectfont  $\leftarrow \joinrel  \rhook $}}{}{}C\discretionary {\unhbox \voidb@x \hbox {\relax \fontsize  {7}{8}\selectfont  $\leftarrow \joinrel  \rhook $}}{}{}A\discretionary {\unhbox \voidb@x \hbox {\relax \fontsize  {7}{8}\selectfont  $\leftarrow \joinrel  \rhook $}}{}{}L\discretionary {\unhbox \voidb@x \hbox {\relax \fontsize  {7}{8}\selectfont  $\leftarrow \joinrel  \rhook $}}{}{}L()}{23}{subsubsection.5.6.2.6}}
\newlabel{classPokemon_a5efb172aa2761816205f1e1ed59640ff}{{5.6.2.6}{23}{\texorpdfstring {get\+C\+A\+L\+L()}{getCALL()}}{subsubsection.5.6.2.6}{}}
\@writefile{toc}{\contentsline {subsubsection}{\numberline {5.6.2.7}get\discretionary {\unhbox \voidb@x \hbox {\relax \fontsize  {7}{8}\selectfont  $\leftarrow \joinrel  \rhook $}}{}{}D\discretionary {\unhbox \voidb@x \hbox {\relax \fontsize  {7}{8}\selectfont  $\leftarrow \joinrel  \rhook $}}{}{}E\discretionary {\unhbox \voidb@x \hbox {\relax \fontsize  {7}{8}\selectfont  $\leftarrow \joinrel  \rhook $}}{}{}F()}{23}{subsubsection.5.6.2.7}}
\newlabel{classPokemon_a53731fb189f7733208627872b5e4d56b}{{5.6.2.7}{23}{\texorpdfstring {get\+D\+E\+F()}{getDEF()}}{subsubsection.5.6.2.7}{}}
\@writefile{toc}{\contentsline {subsubsection}{\numberline {5.6.2.8}get\discretionary {\unhbox \voidb@x \hbox {\relax \fontsize  {7}{8}\selectfont  $\leftarrow \joinrel  \rhook $}}{}{}E\discretionary {\unhbox \voidb@x \hbox {\relax \fontsize  {7}{8}\selectfont  $\leftarrow \joinrel  \rhook $}}{}{}X\discretionary {\unhbox \voidb@x \hbox {\relax \fontsize  {7}{8}\selectfont  $\leftarrow \joinrel  \rhook $}}{}{}P()}{24}{subsubsection.5.6.2.8}}
\newlabel{classPokemon_ad91531adc33486fee630bec3e5bfa388}{{5.6.2.8}{24}{\texorpdfstring {get\+E\+X\+P()}{getEXP()}}{subsubsection.5.6.2.8}{}}
\@writefile{toc}{\contentsline {subsubsection}{\numberline {5.6.2.9}get\discretionary {\unhbox \voidb@x \hbox {\relax \fontsize  {7}{8}\selectfont  $\leftarrow \joinrel  \rhook $}}{}{}H\discretionary {\unhbox \voidb@x \hbox {\relax \fontsize  {7}{8}\selectfont  $\leftarrow \joinrel  \rhook $}}{}{}P()}{24}{subsubsection.5.6.2.9}}
\newlabel{classPokemon_a301c199291bfd26c8d0deb4aa1d3b7fe}{{5.6.2.9}{24}{\texorpdfstring {get\+H\+P()}{getHP()}}{subsubsection.5.6.2.9}{}}
\@writefile{toc}{\contentsline {subsubsection}{\numberline {5.6.2.10}get\discretionary {\unhbox \voidb@x \hbox {\relax \fontsize  {7}{8}\selectfont  $\leftarrow \joinrel  \rhook $}}{}{}N\discretionary {\unhbox \voidb@x \hbox {\relax \fontsize  {7}{8}\selectfont  $\leftarrow \joinrel  \rhook $}}{}{}A\discretionary {\unhbox \voidb@x \hbox {\relax \fontsize  {7}{8}\selectfont  $\leftarrow \joinrel  \rhook $}}{}{}M\discretionary {\unhbox \voidb@x \hbox {\relax \fontsize  {7}{8}\selectfont  $\leftarrow \joinrel  \rhook $}}{}{}E()}{24}{subsubsection.5.6.2.10}}
\newlabel{classPokemon_a9eaec0bafdef0e1b943dba2e40ef9863}{{5.6.2.10}{24}{\texorpdfstring {get\+N\+A\+M\+E()}{getNAME()}}{subsubsection.5.6.2.10}{}}
\@writefile{toc}{\contentsline {subsubsection}{\numberline {5.6.2.11}gets\discretionary {\unhbox \voidb@x \hbox {\relax \fontsize  {7}{8}\selectfont  $\leftarrow \joinrel  \rhook $}}{}{}A\discretionary {\unhbox \voidb@x \hbox {\relax \fontsize  {7}{8}\selectfont  $\leftarrow \joinrel  \rhook $}}{}{}T\discretionary {\unhbox \voidb@x \hbox {\relax \fontsize  {7}{8}\selectfont  $\leftarrow \joinrel  \rhook $}}{}{}K()}{24}{subsubsection.5.6.2.11}}
\newlabel{classPokemon_ab564539f0dcc83af17c80bc4a20e41e7}{{5.6.2.11}{24}{\texorpdfstring {gets\+A\+T\+K()}{getsATK()}}{subsubsection.5.6.2.11}{}}
\@writefile{toc}{\contentsline {subsubsection}{\numberline {5.6.2.12}gets\discretionary {\unhbox \voidb@x \hbox {\relax \fontsize  {7}{8}\selectfont  $\leftarrow \joinrel  \rhook $}}{}{}D\discretionary {\unhbox \voidb@x \hbox {\relax \fontsize  {7}{8}\selectfont  $\leftarrow \joinrel  \rhook $}}{}{}E\discretionary {\unhbox \voidb@x \hbox {\relax \fontsize  {7}{8}\selectfont  $\leftarrow \joinrel  \rhook $}}{}{}F()}{25}{subsubsection.5.6.2.12}}
\newlabel{classPokemon_a583c6ee0d07c4c7d3cec0bfac03ddd87}{{5.6.2.12}{25}{\texorpdfstring {gets\+D\+E\+F()}{getsDEF()}}{subsubsection.5.6.2.12}{}}
\@writefile{toc}{\contentsline {subsubsection}{\numberline {5.6.2.13}get\discretionary {\unhbox \voidb@x \hbox {\relax \fontsize  {7}{8}\selectfont  $\leftarrow \joinrel  \rhook $}}{}{}S\discretionary {\unhbox \voidb@x \hbox {\relax \fontsize  {7}{8}\selectfont  $\leftarrow \joinrel  \rhook $}}{}{}P\discretionary {\unhbox \voidb@x \hbox {\relax \fontsize  {7}{8}\selectfont  $\leftarrow \joinrel  \rhook $}}{}{}D()}{25}{subsubsection.5.6.2.13}}
\newlabel{classPokemon_a3283976f82a48c37434a64118679e62c}{{5.6.2.13}{25}{\texorpdfstring {get\+S\+P\+D()}{getSPD()}}{subsubsection.5.6.2.13}{}}
\@writefile{toc}{\contentsline {subsubsection}{\numberline {5.6.2.14}get\discretionary {\unhbox \voidb@x \hbox {\relax \fontsize  {7}{8}\selectfont  $\leftarrow \joinrel  \rhook $}}{}{}Type()}{25}{subsubsection.5.6.2.14}}
\newlabel{classPokemon_aefef3af0aa35fe9a65c9e4db43b06155}{{5.6.2.14}{25}{\texorpdfstring {get\+Type()}{getType()}}{subsubsection.5.6.2.14}{}}
\@writefile{toc}{\contentsline {subsubsection}{\numberline {5.6.2.15}print\discretionary {\unhbox \voidb@x \hbox {\relax \fontsize  {7}{8}\selectfont  $\leftarrow \joinrel  \rhook $}}{}{}Info()}{25}{subsubsection.5.6.2.15}}
\newlabel{classPokemon_aa78f812952386a5741653e772188dbd0}{{5.6.2.15}{25}{\texorpdfstring {print\+Info()}{printInfo()}}{subsubsection.5.6.2.15}{}}
\@writefile{toc}{\contentsline {subsubsection}{\numberline {5.6.2.16}set\discretionary {\unhbox \voidb@x \hbox {\relax \fontsize  {7}{8}\selectfont  $\leftarrow \joinrel  \rhook $}}{}{}A\discretionary {\unhbox \voidb@x \hbox {\relax \fontsize  {7}{8}\selectfont  $\leftarrow \joinrel  \rhook $}}{}{}T\discretionary {\unhbox \voidb@x \hbox {\relax \fontsize  {7}{8}\selectfont  $\leftarrow \joinrel  \rhook $}}{}{}K()}{25}{subsubsection.5.6.2.16}}
\gdef \LT@v {\LT@entry 
    {3}{30.3047pt}\LT@entry 
    {3}{142.2943pt}}
\gdef \LT@vi {\LT@entry 
    {3}{26.29977pt}\LT@entry 
    {3}{127.9035pt}}
\gdef \LT@vii {\LT@entry 
    {3}{30.79974pt}\LT@entry 
    {3}{146.52432pt}}
\gdef \LT@viii {\LT@entry 
    {3}{30.80864pt}\LT@entry 
    {3}{161.92297pt}}
\newlabel{classPokemon_a9fe584f4fb977a1dd2dba1c99aee419b}{{5.6.2.16}{26}{\texorpdfstring {set\+A\+T\+K()}{setATK()}}{table.5.5}{}}
\@writefile{toc}{\contentsline {subsubsection}{\numberline {5.6.2.17}set\discretionary {\unhbox \voidb@x \hbox {\relax \fontsize  {7}{8}\selectfont  $\leftarrow \joinrel  \rhook $}}{}{}C\discretionary {\unhbox \voidb@x \hbox {\relax \fontsize  {7}{8}\selectfont  $\leftarrow \joinrel  \rhook $}}{}{}A\discretionary {\unhbox \voidb@x \hbox {\relax \fontsize  {7}{8}\selectfont  $\leftarrow \joinrel  \rhook $}}{}{}L\discretionary {\unhbox \voidb@x \hbox {\relax \fontsize  {7}{8}\selectfont  $\leftarrow \joinrel  \rhook $}}{}{}L()}{26}{subsubsection.5.6.2.17}}
\newlabel{classPokemon_a9263ffabc19d67b54457b2d07ed8ea6d}{{5.6.2.17}{26}{\texorpdfstring {set\+C\+A\+L\+L()}{setCALL()}}{table.5.6}{}}
\@writefile{toc}{\contentsline {subsubsection}{\numberline {5.6.2.18}set\discretionary {\unhbox \voidb@x \hbox {\relax \fontsize  {7}{8}\selectfont  $\leftarrow \joinrel  \rhook $}}{}{}D\discretionary {\unhbox \voidb@x \hbox {\relax \fontsize  {7}{8}\selectfont  $\leftarrow \joinrel  \rhook $}}{}{}E\discretionary {\unhbox \voidb@x \hbox {\relax \fontsize  {7}{8}\selectfont  $\leftarrow \joinrel  \rhook $}}{}{}F()}{26}{subsubsection.5.6.2.18}}
\newlabel{classPokemon_a6353c2f24ed461ee902d6bdd25824ad7}{{5.6.2.18}{26}{\texorpdfstring {set\+D\+E\+F()}{setDEF()}}{table.5.7}{}}
\@writefile{toc}{\contentsline {subsubsection}{\numberline {5.6.2.19}set\discretionary {\unhbox \voidb@x \hbox {\relax \fontsize  {7}{8}\selectfont  $\leftarrow \joinrel  \rhook $}}{}{}E\discretionary {\unhbox \voidb@x \hbox {\relax \fontsize  {7}{8}\selectfont  $\leftarrow \joinrel  \rhook $}}{}{}X\discretionary {\unhbox \voidb@x \hbox {\relax \fontsize  {7}{8}\selectfont  $\leftarrow \joinrel  \rhook $}}{}{}P()}{26}{subsubsection.5.6.2.19}}
\gdef \LT@ix {\LT@entry 
    {3}{25.3008pt}\LT@entry 
    {3}{392.38997pt}}
\gdef \LT@x {\LT@entry 
    {3}{40.81645pt}\LT@entry 
    {3}{91.51752pt}}
\gdef \LT@xi {\LT@entry 
    {3}{35.30861pt}\LT@entry 
    {3}{102.25427pt}}
\newlabel{classPokemon_af1ecbd992b981ecb40934eb94b23a1ae}{{5.6.2.19}{27}{\texorpdfstring {set\+E\+X\+P()}{setEXP()}}{table.5.8}{}}
\@writefile{toc}{\contentsline {subsubsection}{\numberline {5.6.2.20}set\discretionary {\unhbox \voidb@x \hbox {\relax \fontsize  {7}{8}\selectfont  $\leftarrow \joinrel  \rhook $}}{}{}H\discretionary {\unhbox \voidb@x \hbox {\relax \fontsize  {7}{8}\selectfont  $\leftarrow \joinrel  \rhook $}}{}{}P()}{27}{subsubsection.5.6.2.20}}
\newlabel{classPokemon_acde77e23620a3e51d4eb98f8eb8c187c}{{5.6.2.20}{27}{\texorpdfstring {set\+H\+P()}{setHP()}}{table.5.9}{}}
\@writefile{toc}{\contentsline {subsubsection}{\numberline {5.6.2.21}set\discretionary {\unhbox \voidb@x \hbox {\relax \fontsize  {7}{8}\selectfont  $\leftarrow \joinrel  \rhook $}}{}{}Level()}{27}{subsubsection.5.6.2.21}}
\newlabel{classPokemon_a431bfacf7fe66228b7533b193cde5622}{{5.6.2.21}{27}{\texorpdfstring {set\+Level()}{setLevel()}}{table.5.10}{}}
\@writefile{toc}{\contentsline {subsubsection}{\numberline {5.6.2.22}set\discretionary {\unhbox \voidb@x \hbox {\relax \fontsize  {7}{8}\selectfont  $\leftarrow \joinrel  \rhook $}}{}{}N\discretionary {\unhbox \voidb@x \hbox {\relax \fontsize  {7}{8}\selectfont  $\leftarrow \joinrel  \rhook $}}{}{}A\discretionary {\unhbox \voidb@x \hbox {\relax \fontsize  {7}{8}\selectfont  $\leftarrow \joinrel  \rhook $}}{}{}M\discretionary {\unhbox \voidb@x \hbox {\relax \fontsize  {7}{8}\selectfont  $\leftarrow \joinrel  \rhook $}}{}{}E()}{27}{subsubsection.5.6.2.22}}
\newlabel{classPokemon_af6894367b62c1d2a88b87d70f3c3df35}{{5.6.2.22}{27}{\texorpdfstring {set\+N\+A\+M\+E()}{setNAME()}}{table.5.11}{}}
\gdef \LT@xii {\LT@entry 
    {3}{34.80467pt}\LT@entry 
    {3}{177.80766pt}}
\gdef \LT@xiii {\LT@entry 
    {3}{35.29971pt}\LT@entry 
    {3}{183.53171pt}}
\gdef \LT@xiv {\LT@entry 
    {3}{31.30368pt}\LT@entry 
    {3}{152.56325pt}}
\@writefile{toc}{\contentsline {subsubsection}{\numberline {5.6.2.23}sets\discretionary {\unhbox \voidb@x \hbox {\relax \fontsize  {7}{8}\selectfont  $\leftarrow \joinrel  \rhook $}}{}{}A\discretionary {\unhbox \voidb@x \hbox {\relax \fontsize  {7}{8}\selectfont  $\leftarrow \joinrel  \rhook $}}{}{}T\discretionary {\unhbox \voidb@x \hbox {\relax \fontsize  {7}{8}\selectfont  $\leftarrow \joinrel  \rhook $}}{}{}K()}{28}{subsubsection.5.6.2.23}}
\newlabel{classPokemon_a4804fa305353f3fd4ef82a9f0e8a0946}{{5.6.2.23}{28}{\texorpdfstring {sets\+A\+T\+K()}{setsATK()}}{table.5.12}{}}
\@writefile{toc}{\contentsline {subsubsection}{\numberline {5.6.2.24}sets\discretionary {\unhbox \voidb@x \hbox {\relax \fontsize  {7}{8}\selectfont  $\leftarrow \joinrel  \rhook $}}{}{}D\discretionary {\unhbox \voidb@x \hbox {\relax \fontsize  {7}{8}\selectfont  $\leftarrow \joinrel  \rhook $}}{}{}E\discretionary {\unhbox \voidb@x \hbox {\relax \fontsize  {7}{8}\selectfont  $\leftarrow \joinrel  \rhook $}}{}{}F()}{28}{subsubsection.5.6.2.24}}
\newlabel{classPokemon_aa44e190656e7cf1ab56a2b4b26c02cfe}{{5.6.2.24}{28}{\texorpdfstring {sets\+D\+E\+F()}{setsDEF()}}{table.5.13}{}}
\@writefile{toc}{\contentsline {subsubsection}{\numberline {5.6.2.25}set\discretionary {\unhbox \voidb@x \hbox {\relax \fontsize  {7}{8}\selectfont  $\leftarrow \joinrel  \rhook $}}{}{}S\discretionary {\unhbox \voidb@x \hbox {\relax \fontsize  {7}{8}\selectfont  $\leftarrow \joinrel  \rhook $}}{}{}P\discretionary {\unhbox \voidb@x \hbox {\relax \fontsize  {7}{8}\selectfont  $\leftarrow \joinrel  \rhook $}}{}{}D()}{28}{subsubsection.5.6.2.25}}
\newlabel{classPokemon_ae326c94f1f13cf915c0a46e54c6e9ed8}{{5.6.2.25}{28}{\texorpdfstring {set\+S\+P\+D()}{setSPD()}}{table.5.14}{}}
\@writefile{toc}{\contentsline {subsubsection}{\numberline {5.6.2.26}set\discretionary {\unhbox \voidb@x \hbox {\relax \fontsize  {7}{8}\selectfont  $\leftarrow \joinrel  \rhook $}}{}{}Type()}{28}{subsubsection.5.6.2.26}}
\@writefile{toc}{\contentsline {section}{\numberline {5.7}Water Class Reference}{29}{section.5.7}}
\newlabel{classWater}{{5.7}{29}{Water Class Reference}{section.5.7}{}}
\@writefile{toc}{\contentsline {subsection}{\numberline {5.7.1}Detailed Description}{29}{subsection.5.7.1}}
\gdef \LT@xv {\LT@entry 
    {3}{41.81543pt}\LT@entry 
    {3}{127.45337pt}}
\gdef \LT@xvi {\LT@entry 
    {3}{41.81543pt}\LT@entry 
    {3}{127.45337pt}}
\@writefile{toc}{\contentsline {subsection}{\numberline {5.7.2}Constructor \& Destructor Documentation}{30}{subsection.5.7.2}}
\newlabel{classWater_a32d8f391b149a405008a606ceafa35ee}{{5.7.2}{30}{Constructor \& Destructor Documentation}{subsection.5.7.2}{}}
\@writefile{toc}{\contentsline {subsubsection}{\numberline {5.7.2.1}Water()}{30}{subsubsection.5.7.2.1}}
\newlabel{classWater_aa613ad181694d2d0e18059f3822415fe}{{5.7.2.1}{30}{\texorpdfstring {Water()}{Water()}}{subsubsection.5.7.2.1}{}}
\@writefile{toc}{\contentsline {subsubsection}{\numberline {5.7.2.2}$\sim $\discretionary {\unhbox \voidb@x \hbox {\relax \fontsize  {7}{8}\selectfont  $\leftarrow \joinrel  \rhook $}}{}{}Water()}{30}{subsubsection.5.7.2.2}}
\@writefile{toc}{\contentsline {subsection}{\numberline {5.7.3}Member Function Documentation}{30}{subsection.5.7.3}}
\newlabel{classWater_abd48d891fea3f0b8ebbedcacd6103bfb}{{5.7.3}{30}{Member Function Documentation}{subsection.5.7.3}{}}
\@writefile{toc}{\contentsline {subsubsection}{\numberline {5.7.3.1}is\discretionary {\unhbox \voidb@x \hbox {\relax \fontsize  {7}{8}\selectfont  $\leftarrow \joinrel  \rhook $}}{}{}Strong\discretionary {\unhbox \voidb@x \hbox {\relax \fontsize  {7}{8}\selectfont  $\leftarrow \joinrel  \rhook $}}{}{}V\discretionary {\unhbox \voidb@x \hbox {\relax \fontsize  {7}{8}\selectfont  $\leftarrow \joinrel  \rhook $}}{}{}S()}{30}{subsubsection.5.7.3.1}}
\newlabel{classWater_a80d242ebf4c11f0018706ef7d21e4383}{{5.7.3.1}{30}{\texorpdfstring {is\+Strong\+V\+S()}{isStrongVS()}}{table.5.15}{}}
\@writefile{toc}{\contentsline {subsubsection}{\numberline {5.7.3.2}is\discretionary {\unhbox \voidb@x \hbox {\relax \fontsize  {7}{8}\selectfont  $\leftarrow \joinrel  \rhook $}}{}{}Weak\discretionary {\unhbox \voidb@x \hbox {\relax \fontsize  {7}{8}\selectfont  $\leftarrow \joinrel  \rhook $}}{}{}V\discretionary {\unhbox \voidb@x \hbox {\relax \fontsize  {7}{8}\selectfont  $\leftarrow \joinrel  \rhook $}}{}{}S()}{30}{subsubsection.5.7.3.2}}
\newlabel{classWater_a1d1557230f3c52cce78bfa1fd4768497}{{5.7.3.2}{31}{\texorpdfstring {is\+Weak\+V\+S()}{isWeakVS()}}{table.5.16}{}}
\@writefile{toc}{\contentsline {subsubsection}{\numberline {5.7.3.3}strong\discretionary {\unhbox \voidb@x \hbox {\relax \fontsize  {7}{8}\selectfont  $\leftarrow \joinrel  \rhook $}}{}{}Vs()}{31}{subsubsection.5.7.3.3}}
\newlabel{classWater_aa91a4cc8d2c594ad3da41078b8c7453f}{{5.7.3.3}{31}{\texorpdfstring {strong\+Vs()}{strongVs()}}{subsubsection.5.7.3.3}{}}
\@writefile{toc}{\contentsline {subsubsection}{\numberline {5.7.3.4}Type()}{31}{subsubsection.5.7.3.4}}
\newlabel{classWater_a80ed3a0316cdffa7aaae201f69730f98}{{5.7.3.4}{31}{\texorpdfstring {Type()}{Type()}}{subsubsection.5.7.3.4}{}}
\@writefile{toc}{\contentsline {subsubsection}{\numberline {5.7.3.5}weak\discretionary {\unhbox \voidb@x \hbox {\relax \fontsize  {7}{8}\selectfont  $\leftarrow \joinrel  \rhook $}}{}{}Vs()}{31}{subsubsection.5.7.3.5}}
\@writefile{toc}{\contentsline {section}{\numberline {5.8}Zapdos Class Reference}{32}{section.5.8}}
\newlabel{classZapdos}{{5.8}{32}{Zapdos Class Reference}{section.5.8}{}}
\@writefile{toc}{\contentsline {subsection}{\numberline {5.8.1}Detailed Description}{32}{subsection.5.8.1}}
\@writefile{toc}{\contentsline {subsection}{\numberline {5.8.2}Constructor \& Destructor Documentation}{32}{subsection.5.8.2}}
\newlabel{classZapdos_ae4cf2ae9f9ba6a28d7619cb557e4db82}{{5.8.2}{32}{Constructor \& Destructor Documentation}{subsection.5.8.2}{}}
\@writefile{toc}{\contentsline {subsubsection}{\numberline {5.8.2.1}Zapdos()}{33}{subsubsection.5.8.2.1}}
\newlabel{classZapdos_a15d6174647f5076a1bf56923a191779b}{{5.8.2.1}{33}{\texorpdfstring {Zapdos()}{Zapdos()}}{subsubsection.5.8.2.1}{}}
\@writefile{toc}{\contentsline {subsubsection}{\numberline {5.8.2.2}$\sim $\discretionary {\unhbox \voidb@x \hbox {\relax \fontsize  {7}{8}\selectfont  $\leftarrow \joinrel  \rhook $}}{}{}Zapdos()}{33}{subsubsection.5.8.2.2}}
\@writefile{toc}{\contentsline {subsection}{\numberline {5.8.3}Member Function Documentation}{33}{subsection.5.8.3}}
\newlabel{classZapdos_a5b2d31742aa075d747a0f448f2da1d95}{{5.8.3}{33}{Member Function Documentation}{subsection.5.8.3}{}}
\@writefile{toc}{\contentsline {subsubsection}{\numberline {5.8.3.1}A\discretionary {\unhbox \voidb@x \hbox {\relax \fontsize  {7}{8}\selectfont  $\leftarrow \joinrel  \rhook $}}{}{}T\discretionary {\unhbox \voidb@x \hbox {\relax \fontsize  {7}{8}\selectfont  $\leftarrow \joinrel  \rhook $}}{}{}K1()}{33}{subsubsection.5.8.3.1}}
\newlabel{classZapdos_a9f31a0120cfbc54fbd5d281309a09941}{{5.8.3.1}{33}{\texorpdfstring {A\+T\+K1()}{ATK1()}}{subsubsection.5.8.3.1}{}}
\@writefile{toc}{\contentsline {subsubsection}{\numberline {5.8.3.2}A\discretionary {\unhbox \voidb@x \hbox {\relax \fontsize  {7}{8}\selectfont  $\leftarrow \joinrel  \rhook $}}{}{}T\discretionary {\unhbox \voidb@x \hbox {\relax \fontsize  {7}{8}\selectfont  $\leftarrow \joinrel  \rhook $}}{}{}K2()}{33}{subsubsection.5.8.3.2}}
\newlabel{classZapdos_af6a418843d0f568b837c011eb620d955}{{5.8.3.2}{33}{\texorpdfstring {A\+T\+K2()}{ATK2()}}{subsubsection.5.8.3.2}{}}
\@writefile{toc}{\contentsline {subsubsection}{\numberline {5.8.3.3}A\discretionary {\unhbox \voidb@x \hbox {\relax \fontsize  {7}{8}\selectfont  $\leftarrow \joinrel  \rhook $}}{}{}T\discretionary {\unhbox \voidb@x \hbox {\relax \fontsize  {7}{8}\selectfont  $\leftarrow \joinrel  \rhook $}}{}{}K3()}{34}{subsubsection.5.8.3.3}}
\newlabel{classZapdos_a117a3bb384f6c8f475ac58b08482b709}{{5.8.3.3}{34}{\texorpdfstring {A\+T\+K3()}{ATK3()}}{subsubsection.5.8.3.3}{}}
\@writefile{toc}{\contentsline {subsubsection}{\numberline {5.8.3.4}A\discretionary {\unhbox \voidb@x \hbox {\relax \fontsize  {7}{8}\selectfont  $\leftarrow \joinrel  \rhook $}}{}{}T\discretionary {\unhbox \voidb@x \hbox {\relax \fontsize  {7}{8}\selectfont  $\leftarrow \joinrel  \rhook $}}{}{}K4()}{34}{subsubsection.5.8.3.4}}
\newlabel{classZapdos_a0d776d6583f54b147916bf57926737e1}{{5.8.3.4}{34}{\texorpdfstring {A\+T\+K4()}{ATK4()}}{subsubsection.5.8.3.4}{}}
\@writefile{toc}{\contentsline {subsubsection}{\numberline {5.8.3.5}print()}{34}{subsubsection.5.8.3.5}}
\@writefile{toc}{\contentsline {chapter}{\numberline {6}File Documentation}{35}{chapter.6}}
\@writefile{lof}{\addvspace {10\p@ }}
\@writefile{lot}{\addvspace {10\p@ }}
\@writefile{toc}{\contentsline {section}{\numberline {6.1}Arcticuno.\discretionary {\unhbox \voidb@x \hbox {\relax \fontsize  {7}{8}\selectfont  $\leftarrow \joinrel  \rhook $}}{}{}h File Reference}{35}{section.6.1}}
\newlabel{Arcticuno_8h}{{6.1}{35}{Arcticuno.\+h File Reference}{section.6.1}{}}
\@writefile{toc}{\contentsline {section}{\numberline {6.2}Electric.\discretionary {\unhbox \voidb@x \hbox {\relax \fontsize  {7}{8}\selectfont  $\leftarrow \joinrel  \rhook $}}{}{}h File Reference}{35}{section.6.2}}
\newlabel{Electric_8h}{{6.2}{35}{Electric.\+h File Reference}{section.6.2}{}}
\@writefile{toc}{\contentsline {section}{\numberline {6.3}Fire.\discretionary {\unhbox \voidb@x \hbox {\relax \fontsize  {7}{8}\selectfont  $\leftarrow \joinrel  \rhook $}}{}{}h File Reference}{35}{section.6.3}}
\newlabel{Fire_8h}{{6.3}{35}{Fire.\+h File Reference}{section.6.3}{}}
\@writefile{toc}{\contentsline {section}{\numberline {6.4}Flying.\discretionary {\unhbox \voidb@x \hbox {\relax \fontsize  {7}{8}\selectfont  $\leftarrow \joinrel  \rhook $}}{}{}h File Reference}{36}{section.6.4}}
\newlabel{Flying_8h}{{6.4}{36}{Flying.\+h File Reference}{section.6.4}{}}
\@writefile{toc}{\contentsline {section}{\numberline {6.5}header.\discretionary {\unhbox \voidb@x \hbox {\relax \fontsize  {7}{8}\selectfont  $\leftarrow \joinrel  \rhook $}}{}{}h File Reference}{36}{section.6.5}}
\newlabel{header_8h}{{6.5}{36}{header.\+h File Reference}{section.6.5}{}}
\@writefile{toc}{\contentsline {section}{\numberline {6.6}Moltress.\discretionary {\unhbox \voidb@x \hbox {\relax \fontsize  {7}{8}\selectfont  $\leftarrow \joinrel  \rhook $}}{}{}h File Reference}{36}{section.6.6}}
\newlabel{Moltress_8h}{{6.6}{36}{Moltress.\+h File Reference}{section.6.6}{}}
\@writefile{toc}{\contentsline {section}{\numberline {6.7}Pokemon.\discretionary {\unhbox \voidb@x \hbox {\relax \fontsize  {7}{8}\selectfont  $\leftarrow \joinrel  \rhook $}}{}{}h File Reference}{36}{section.6.7}}
\newlabel{Pokemon_8h}{{6.7}{36}{Pokemon.\+h File Reference}{section.6.7}{}}
\@writefile{toc}{\contentsline {section}{\numberline {6.8}Water.\discretionary {\unhbox \voidb@x \hbox {\relax \fontsize  {7}{8}\selectfont  $\leftarrow \joinrel  \rhook $}}{}{}h File Reference}{37}{section.6.8}}
\newlabel{Water_8h}{{6.8}{37}{Water.\+h File Reference}{section.6.8}{}}
\@writefile{toc}{\contentsline {section}{\numberline {6.9}Zapdos.\discretionary {\unhbox \voidb@x \hbox {\relax \fontsize  {7}{8}\selectfont  $\leftarrow \joinrel  \rhook $}}{}{}h File Reference}{37}{section.6.9}}
\newlabel{Zapdos_8h}{{6.9}{37}{Zapdos.\+h File Reference}{section.6.9}{}}
\@writefile{toc}{\contentsline {chapter}{Index}{39}{section*.23}}
