digraph "Pokemon.h"
{
  edge [fontname="Helvetica",fontsize="10",labelfontname="Helvetica",labelfontsize="10"];
  node [fontname="Helvetica",fontsize="10",shape=record];
  Node5 [label="Pokemon.h",height=0.2,width=0.4,color="black", fillcolor="grey75", style="filled", fontcolor="black"];
  Node5 -> Node6 [dir="back",color="midnightblue",fontsize="10",style="solid",fontname="Helvetica"];
  Node6 [label="Water.h",height=0.2,width=0.4,color="black", fillcolor="white", style="filled",URL="$Water_8h.html"];
  Node6 -> Node7 [dir="back",color="midnightblue",fontsize="10",style="solid",fontname="Helvetica"];
  Node7 [label="Arcticuno.h",height=0.2,width=0.4,color="black", fillcolor="white", style="filled",URL="$Arcticuno_8h.html"];
  Node5 -> Node8 [dir="back",color="midnightblue",fontsize="10",style="solid",fontname="Helvetica"];
  Node8 [label="Flying.h",height=0.2,width=0.4,color="black", fillcolor="white", style="filled",URL="$Flying_8h.html"];
  Node8 -> Node7 [dir="back",color="midnightblue",fontsize="10",style="solid",fontname="Helvetica"];
  Node8 -> Node9 [dir="back",color="midnightblue",fontsize="10",style="solid",fontname="Helvetica"];
  Node9 [label="Moltress.h",height=0.2,width=0.4,color="black", fillcolor="white", style="filled",URL="$Moltress_8h.html"];
  Node8 -> Node10 [dir="back",color="midnightblue",fontsize="10",style="solid",fontname="Helvetica"];
  Node10 [label="Zapdos.h",height=0.2,width=0.4,color="black", fillcolor="white", style="filled",URL="$Zapdos_8h.html"];
  Node5 -> Node11 [dir="back",color="midnightblue",fontsize="10",style="solid",fontname="Helvetica"];
  Node11 [label="Electric.h",height=0.2,width=0.4,color="black", fillcolor="white", style="filled",URL="$Electric_8h.html"];
  Node11 -> Node10 [dir="back",color="midnightblue",fontsize="10",style="solid",fontname="Helvetica"];
  Node5 -> Node12 [dir="back",color="midnightblue",fontsize="10",style="solid",fontname="Helvetica"];
  Node12 [label="Fire.h",height=0.2,width=0.4,color="black", fillcolor="white", style="filled",URL="$Fire_8h.html"];
  Node12 -> Node9 [dir="back",color="midnightblue",fontsize="10",style="solid",fontname="Helvetica"];
}
