\contentsline {chapter}{\numberline {1}Proyecto 1-\/ Parte 1\discretionary {\unhbox \voidb@x \hbox {\relax \fontsize {7}{8}\selectfont $\leftarrow \joinrel \rhook $}}{}{}: \IeC {\'A}rboles B\discretionary {\unhbox \voidb@x \hbox {\relax \fontsize {7}{8}\selectfont $\leftarrow \joinrel \rhook $}}{}{}ST}{1}{chapter.1}
\contentsline {section}{\numberline {1.1}Introduccion}{1}{section.1.1}
\contentsline {section}{\numberline {1.2}Compilacion y ejecucion}{1}{section.1.2}
\contentsline {section}{\numberline {1.3}Documentacion}{1}{section.1.3}
\contentsline {chapter}{\numberline {2}Class Index}{3}{chapter.2}
\contentsline {section}{\numberline {2.1}Class List}{3}{section.2.1}
\contentsline {chapter}{\numberline {3}File Index}{5}{chapter.3}
\contentsline {section}{\numberline {3.1}File List}{5}{section.3.1}
\contentsline {chapter}{\numberline {4}Class Documentation}{7}{chapter.4}
\contentsline {section}{\numberline {4.1}Arbol$<$ T $>$ Class Template Reference}{7}{section.4.1}
\contentsline {subsection}{\numberline {4.1.1}Detailed Description}{8}{subsection.4.1.1}
\contentsline {subsection}{\numberline {4.1.2}Constructor \& Destructor Documentation}{9}{subsection.4.1.2}
\contentsline {subsubsection}{\numberline {4.1.2.1}Arbol()}{9}{subsubsection.4.1.2.1}
\contentsline {subsubsection}{\numberline {4.1.2.2}$\sim $\discretionary {\unhbox \voidb@x \hbox {\relax \fontsize {7}{8}\selectfont $\leftarrow \joinrel \rhook $}}{}{}Arbol()}{9}{subsubsection.4.1.2.2}
\contentsline {subsection}{\numberline {4.1.3}Member Function Documentation}{9}{subsection.4.1.3}
\contentsline {subsubsection}{\numberline {4.1.3.1}borrar\discretionary {\unhbox \voidb@x \hbox {\relax \fontsize {7}{8}\selectfont $\leftarrow \joinrel \rhook $}}{}{}Arbol()}{9}{subsubsection.4.1.3.1}
\contentsline {subsubsection}{\numberline {4.1.3.2}find()}{9}{subsubsection.4.1.3.2}
\contentsline {subsubsection}{\numberline {4.1.3.3}find\discretionary {\unhbox \voidb@x \hbox {\relax \fontsize {7}{8}\selectfont $\leftarrow \joinrel \rhook $}}{}{}Largest\discretionary {\unhbox \voidb@x \hbox {\relax \fontsize {7}{8}\selectfont $\leftarrow \joinrel \rhook $}}{}{}To\discretionary {\unhbox \voidb@x \hbox {\relax \fontsize {7}{8}\selectfont $\leftarrow \joinrel \rhook $}}{}{}The\discretionary {\unhbox \voidb@x \hbox {\relax \fontsize {7}{8}\selectfont $\leftarrow \joinrel \rhook $}}{}{}Left()}{10}{subsubsection.4.1.3.3}
\contentsline {subsubsection}{\numberline {4.1.3.4}find\discretionary {\unhbox \voidb@x \hbox {\relax \fontsize {7}{8}\selectfont $\leftarrow \joinrel \rhook $}}{}{}Smallest\discretionary {\unhbox \voidb@x \hbox {\relax \fontsize {7}{8}\selectfont $\leftarrow \joinrel \rhook $}}{}{}To\discretionary {\unhbox \voidb@x \hbox {\relax \fontsize {7}{8}\selectfont $\leftarrow \joinrel \rhook $}}{}{}The\discretionary {\unhbox \voidb@x \hbox {\relax \fontsize {7}{8}\selectfont $\leftarrow \joinrel \rhook $}}{}{}Right()}{10}{subsubsection.4.1.3.4}
\contentsline {subsubsection}{\numberline {4.1.3.5}get\discretionary {\unhbox \voidb@x \hbox {\relax \fontsize {7}{8}\selectfont $\leftarrow \joinrel \rhook $}}{}{}Arbol()}{11}{subsubsection.4.1.3.5}
\contentsline {subsubsection}{\numberline {4.1.3.6}in\discretionary {\unhbox \voidb@x \hbox {\relax \fontsize {7}{8}\selectfont $\leftarrow \joinrel \rhook $}}{}{}Orden()}{11}{subsubsection.4.1.3.6}
\contentsline {subsubsection}{\numberline {4.1.3.7}in\discretionary {\unhbox \voidb@x \hbox {\relax \fontsize {7}{8}\selectfont $\leftarrow \joinrel \rhook $}}{}{}Orden1()}{11}{subsubsection.4.1.3.7}
\contentsline {subsubsection}{\numberline {4.1.3.8}insert()}{11}{subsubsection.4.1.3.8}
\contentsline {subsubsection}{\numberline {4.1.3.9}insert1()}{12}{subsubsection.4.1.3.9}
\contentsline {subsubsection}{\numberline {4.1.3.10}mas\discretionary {\unhbox \voidb@x \hbox {\relax \fontsize {7}{8}\selectfont $\leftarrow \joinrel \rhook $}}{}{}Grande\discretionary {\unhbox \voidb@x \hbox {\relax \fontsize {7}{8}\selectfont $\leftarrow \joinrel \rhook $}}{}{}Derecha()}{12}{subsubsection.4.1.3.10}
\contentsline {subsubsection}{\numberline {4.1.3.11}post\discretionary {\unhbox \voidb@x \hbox {\relax \fontsize {7}{8}\selectfont $\leftarrow \joinrel \rhook $}}{}{}Orden()}{12}{subsubsection.4.1.3.11}
\contentsline {subsubsection}{\numberline {4.1.3.12}pre\discretionary {\unhbox \voidb@x \hbox {\relax \fontsize {7}{8}\selectfont $\leftarrow \joinrel \rhook $}}{}{}Orden()}{13}{subsubsection.4.1.3.12}
\contentsline {subsubsection}{\numberline {4.1.3.13}remove()}{13}{subsubsection.4.1.3.13}
\contentsline {subsubsection}{\numberline {4.1.3.14}remove1()}{13}{subsubsection.4.1.3.14}
\contentsline {section}{\numberline {4.2}Nodo$<$ T $>$ Class Template Reference}{14}{section.4.2}
\contentsline {subsection}{\numberline {4.2.1}Detailed Description}{15}{subsection.4.2.1}
\contentsline {subsection}{\numberline {4.2.2}Constructor \& Destructor Documentation}{15}{subsection.4.2.2}
\contentsline {subsubsection}{\numberline {4.2.2.1}Nodo()}{15}{subsubsection.4.2.2.1}
\contentsline {subsubsection}{\numberline {4.2.2.2}$\sim $\discretionary {\unhbox \voidb@x \hbox {\relax \fontsize {7}{8}\selectfont $\leftarrow \joinrel \rhook $}}{}{}Nodo()}{15}{subsubsection.4.2.2.2}
\contentsline {subsection}{\numberline {4.2.3}Friends And Related Function Documentation}{15}{subsection.4.2.3}
\contentsline {subsubsection}{\numberline {4.2.3.1}Arbol$<$ T $>$}{15}{subsubsection.4.2.3.1}
\contentsline {chapter}{\numberline {5}File Documentation}{17}{chapter.5}
\contentsline {section}{\numberline {5.1}Nodo.\discretionary {\unhbox \voidb@x \hbox {\relax \fontsize {7}{8}\selectfont $\leftarrow \joinrel \rhook $}}{}{}h File Reference}{17}{section.5.1}
\contentsline {chapter}{Index}{19}{section*.11}
