\relax 
\providecommand\hyper@newdestlabel[2]{}
\providecommand\HyperFirstAtBeginDocument{\AtBeginDocument}
\HyperFirstAtBeginDocument{\ifx\hyper@anchor\@undefined
\global\let\oldcontentsline\contentsline
\gdef\contentsline#1#2#3#4{\oldcontentsline{#1}{#2}{#3}}
\global\let\oldnewlabel\newlabel
\gdef\newlabel#1#2{\newlabelxx{#1}#2}
\gdef\newlabelxx#1#2#3#4#5#6{\oldnewlabel{#1}{{#2}{#3}}}
\AtEndDocument{\ifx\hyper@anchor\@undefined
\let\contentsline\oldcontentsline
\let\newlabel\oldnewlabel
\fi}
\fi}
\global\let\hyper@last\relax 
\gdef\HyperFirstAtBeginDocument#1{#1}
\providecommand\HyField@AuxAddToFields[1]{}
\providecommand\HyField@AuxAddToCoFields[2]{}
\providecommand \oddpage@label [2]{}
\@writefile{toc}{\contentsline {chapter}{\numberline {1}Proyecto 1-\/ Parte 1\discretionary {\unhbox \voidb@x \hbox {\relax \fontsize  {7}{8}\selectfont  $\leftarrow \joinrel  \rhook $}}{}{}: \IeC {\'A}rboles B\discretionary {\unhbox \voidb@x \hbox {\relax \fontsize  {7}{8}\selectfont  $\leftarrow \joinrel  \rhook $}}{}{}ST}{1}{chapter.1}}
\@writefile{lof}{\addvspace {10\p@ }}
\@writefile{lot}{\addvspace {10\p@ }}
\newlabel{index}{{1}{1}{Proyecto 1-\/ Parte 1\+: Árboles B\+ST}{chapter.1}{}}
\@writefile{toc}{\contentsline {section}{\numberline {1.1}Introduccion}{1}{section.1.1}}
\newlabel{index_intro_sec}{{1.1}{1}{Introduccion}{section.1.1}{}}
\@writefile{toc}{\contentsline {section}{\numberline {1.2}Compilacion y ejecucion}{1}{section.1.2}}
\newlabel{index_compile_sec}{{1.2}{1}{Compilacion y ejecucion}{section.1.2}{}}
\@writefile{toc}{\contentsline {section}{\numberline {1.3}Documentacion}{1}{section.1.3}}
\newlabel{index_Documentation_sec}{{1.3}{1}{Documentacion}{section.1.3}{}}
\@writefile{toc}{\contentsline {chapter}{\numberline {2}Class Index}{3}{chapter.2}}
\@writefile{lof}{\addvspace {10\p@ }}
\@writefile{lot}{\addvspace {10\p@ }}
\@writefile{toc}{\contentsline {section}{\numberline {2.1}Class List}{3}{section.2.1}}
\@writefile{toc}{\contentsline {chapter}{\numberline {3}File Index}{5}{chapter.3}}
\@writefile{lof}{\addvspace {10\p@ }}
\@writefile{lot}{\addvspace {10\p@ }}
\@writefile{toc}{\contentsline {section}{\numberline {3.1}File List}{5}{section.3.1}}
\@writefile{toc}{\contentsline {chapter}{\numberline {4}Class Documentation}{7}{chapter.4}}
\@writefile{lof}{\addvspace {10\p@ }}
\@writefile{lot}{\addvspace {10\p@ }}
\@writefile{toc}{\contentsline {section}{\numberline {4.1}Arbol$<$ T $>$ Class Template Reference}{7}{section.4.1}}
\newlabel{classArbol}{{4.1}{7}{Arbol$<$ T $>$ Class Template Reference}{section.4.1}{}}
\@writefile{toc}{\contentsline {subsection}{\numberline {4.1.1}Detailed Description}{8}{subsection.4.1.1}}
\gdef \LT@i {\LT@entry 
    {3}{23.79776pt}\LT@entry 
    {3}{137.83014pt}}
\@writefile{toc}{\contentsline {subsection}{\numberline {4.1.2}Constructor \& Destructor Documentation}{9}{subsection.4.1.2}}
\newlabel{classArbol_a5612a2aa65ab954ec9ae442fdadef9de}{{4.1.2}{9}{Constructor \& Destructor Documentation}{subsection.4.1.2}{}}
\@writefile{toc}{\contentsline {subsubsection}{\numberline {4.1.2.1}Arbol()}{9}{subsubsection.4.1.2.1}}
\newlabel{classArbol_a8110e3f6fcd750c5755f8127604b6b7b}{{4.1.2.1}{9}{\texorpdfstring {Arbol()}{Arbol()}}{subsubsection.4.1.2.1}{}}
\@writefile{toc}{\contentsline {subsubsection}{\numberline {4.1.2.2}$\sim $\discretionary {\unhbox \voidb@x \hbox {\relax \fontsize  {7}{8}\selectfont  $\leftarrow \joinrel  \rhook $}}{}{}Arbol()}{9}{subsubsection.4.1.2.2}}
\@writefile{toc}{\contentsline {subsection}{\numberline {4.1.3}Member Function Documentation}{9}{subsection.4.1.3}}
\newlabel{classArbol_a4f864b02adf5a057715d64ef5662c7c3}{{4.1.3}{9}{Member Function Documentation}{subsection.4.1.3}{}}
\@writefile{toc}{\contentsline {subsubsection}{\numberline {4.1.3.1}borrar\discretionary {\unhbox \voidb@x \hbox {\relax \fontsize  {7}{8}\selectfont  $\leftarrow \joinrel  \rhook $}}{}{}Arbol()}{9}{subsubsection.4.1.3.1}}
\newlabel{classArbol_aaeb7465c1c33a48d2d2e876588c430c7}{{4.1.3.1}{9}{\texorpdfstring {borrar\+Arbol()}{borrarArbol()}}{table.4.1}{}}
\@writefile{toc}{\contentsline {subsubsection}{\numberline {4.1.3.2}find()}{9}{subsubsection.4.1.3.2}}
\gdef \LT@ii {\LT@entry 
    {3}{23.79776pt}\LT@entry 
    {3}{137.83014pt}}
\gdef \LT@iii {\LT@entry 
    {3}{20.80083pt}\LT@entry 
    {3}{137.83014pt}}
\gdef \LT@iv {\LT@entry 
    {3}{20.80083pt}\LT@entry 
    {3}{137.83014pt}}
\newlabel{classArbol_a4ac1fd169db2a4620ece0ae41f3c2a78}{{4.1.3.2}{10}{\texorpdfstring {find()}{find()}}{table.4.2}{}}
\@writefile{toc}{\contentsline {subsubsection}{\numberline {4.1.3.3}find\discretionary {\unhbox \voidb@x \hbox {\relax \fontsize  {7}{8}\selectfont  $\leftarrow \joinrel  \rhook $}}{}{}Largest\discretionary {\unhbox \voidb@x \hbox {\relax \fontsize  {7}{8}\selectfont  $\leftarrow \joinrel  \rhook $}}{}{}To\discretionary {\unhbox \voidb@x \hbox {\relax \fontsize  {7}{8}\selectfont  $\leftarrow \joinrel  \rhook $}}{}{}The\discretionary {\unhbox \voidb@x \hbox {\relax \fontsize  {7}{8}\selectfont  $\leftarrow \joinrel  \rhook $}}{}{}Left()}{10}{subsubsection.4.1.3.3}}
\newlabel{classArbol_afa919a834f8973aaaef5e74047b1b33d}{{4.1.3.3}{10}{\texorpdfstring {find\+Largest\+To\+The\+Left()}{findLargestToTheLeft()}}{table.4.3}{}}
\@writefile{toc}{\contentsline {subsubsection}{\numberline {4.1.3.4}find\discretionary {\unhbox \voidb@x \hbox {\relax \fontsize  {7}{8}\selectfont  $\leftarrow \joinrel  \rhook $}}{}{}Smallest\discretionary {\unhbox \voidb@x \hbox {\relax \fontsize  {7}{8}\selectfont  $\leftarrow \joinrel  \rhook $}}{}{}To\discretionary {\unhbox \voidb@x \hbox {\relax \fontsize  {7}{8}\selectfont  $\leftarrow \joinrel  \rhook $}}{}{}The\discretionary {\unhbox \voidb@x \hbox {\relax \fontsize  {7}{8}\selectfont  $\leftarrow \joinrel  \rhook $}}{}{}Right()}{10}{subsubsection.4.1.3.4}}
\newlabel{classArbol_aa6e208537c62ba6927fafb5a7e803d85}{{4.1.3.4}{10}{\texorpdfstring {find\+Smallest\+To\+The\+Right()}{findSmallestToTheRight()}}{table.4.4}{}}
\gdef \LT@v {\LT@entry 
    {3}{23.79776pt}\LT@entry 
    {3}{137.83014pt}}
\@writefile{toc}{\contentsline {subsubsection}{\numberline {4.1.3.5}get\discretionary {\unhbox \voidb@x \hbox {\relax \fontsize  {7}{8}\selectfont  $\leftarrow \joinrel  \rhook $}}{}{}Arbol()}{11}{subsubsection.4.1.3.5}}
\newlabel{classArbol_a971cb4b3b93c9cd99648e9fde4817c0c}{{4.1.3.5}{11}{\texorpdfstring {get\+Arbol()}{getArbol()}}{subsubsection.4.1.3.5}{}}
\@writefile{toc}{\contentsline {subsubsection}{\numberline {4.1.3.6}in\discretionary {\unhbox \voidb@x \hbox {\relax \fontsize  {7}{8}\selectfont  $\leftarrow \joinrel  \rhook $}}{}{}Orden()}{11}{subsubsection.4.1.3.6}}
\newlabel{classArbol_a8858b90436320142ca6fecb92a4e0142}{{4.1.3.6}{11}{\texorpdfstring {in\+Orden()}{inOrden()}}{table.4.5}{}}
\@writefile{toc}{\contentsline {subsubsection}{\numberline {4.1.3.7}in\discretionary {\unhbox \voidb@x \hbox {\relax \fontsize  {7}{8}\selectfont  $\leftarrow \joinrel  \rhook $}}{}{}Orden1()}{11}{subsubsection.4.1.3.7}}
\newlabel{classArbol_a8d163a8044575fe0bb9e30d4b039ddcb}{{4.1.3.7}{11}{\texorpdfstring {in\+Orden1()}{inOrden1()}}{subsubsection.4.1.3.7}{}}
\@writefile{toc}{\contentsline {subsubsection}{\numberline {4.1.3.8}insert()}{11}{subsubsection.4.1.3.8}}
\gdef \LT@vi {\LT@entry 
    {3}{17.8039pt}\LT@entry 
    {3}{77.83754pt}}
\gdef \LT@vii {\LT@entry 
    {3}{23.79776pt}\LT@entry 
    {3}{137.83014pt}}
\gdef \LT@viii {\LT@entry 
    {3}{20.80083pt}\LT@entry 
    {3}{137.83014pt}}
\newlabel{classArbol_a41a787df5ea45df4e60922f920125900}{{4.1.3.8}{12}{\texorpdfstring {insert()}{insert()}}{table.4.6}{}}
\@writefile{toc}{\contentsline {subsubsection}{\numberline {4.1.3.9}insert1()}{12}{subsubsection.4.1.3.9}}
\newlabel{classArbol_ad4aeda0adb15db093d0500f8abf9831d}{{4.1.3.9}{12}{\texorpdfstring {insert1()}{insert1()}}{table.4.7}{}}
\@writefile{toc}{\contentsline {subsubsection}{\numberline {4.1.3.10}mas\discretionary {\unhbox \voidb@x \hbox {\relax \fontsize  {7}{8}\selectfont  $\leftarrow \joinrel  \rhook $}}{}{}Grande\discretionary {\unhbox \voidb@x \hbox {\relax \fontsize  {7}{8}\selectfont  $\leftarrow \joinrel  \rhook $}}{}{}Derecha()}{12}{subsubsection.4.1.3.10}}
\newlabel{classArbol_a6aeef94a0cc8a2aab96e5789c7be1feb}{{4.1.3.10}{12}{\texorpdfstring {mas\+Grande\+Derecha()}{masGrandeDerecha()}}{table.4.8}{}}
\@writefile{toc}{\contentsline {subsubsection}{\numberline {4.1.3.11}post\discretionary {\unhbox \voidb@x \hbox {\relax \fontsize  {7}{8}\selectfont  $\leftarrow \joinrel  \rhook $}}{}{}Orden()}{12}{subsubsection.4.1.3.11}}
\gdef \LT@ix {\LT@entry 
    {3}{23.79776pt}\LT@entry 
    {3}{137.83014pt}}
\gdef \LT@x {\LT@entry 
    {3}{23.79776pt}\LT@entry 
    {3}{137.83014pt}}
\gdef \LT@xi {\LT@entry 
    {3}{23.79776pt}\LT@entry 
    {3}{137.83014pt}}
\newlabel{classArbol_a4322212dbe7a017a65568923891ccb86}{{4.1.3.11}{13}{\texorpdfstring {post\+Orden()}{postOrden()}}{table.4.9}{}}
\@writefile{toc}{\contentsline {subsubsection}{\numberline {4.1.3.12}pre\discretionary {\unhbox \voidb@x \hbox {\relax \fontsize  {7}{8}\selectfont  $\leftarrow \joinrel  \rhook $}}{}{}Orden()}{13}{subsubsection.4.1.3.12}}
\newlabel{classArbol_a6f5eb093ee7210a4bfd8e3f081c50f8e}{{4.1.3.12}{13}{\texorpdfstring {pre\+Orden()}{preOrden()}}{table.4.10}{}}
\@writefile{toc}{\contentsline {subsubsection}{\numberline {4.1.3.13}remove()}{13}{subsubsection.4.1.3.13}}
\newlabel{classArbol_a97ea487d6d311ace099ad4e47716f10a}{{4.1.3.13}{13}{\texorpdfstring {remove()}{remove()}}{table.4.11}{}}
\@writefile{toc}{\contentsline {subsubsection}{\numberline {4.1.3.14}remove1()}{13}{subsubsection.4.1.3.14}}
\gdef \LT@xii {\LT@entry 
    {3}{17.8039pt}\LT@entry 
    {3}{77.83754pt}}
\@writefile{toc}{\contentsline {section}{\numberline {4.2}Nodo$<$ T $>$ Class Template Reference}{14}{section.4.2}}
\newlabel{classNodo}{{4.2}{14}{Nodo$<$ T $>$ Class Template Reference}{section.4.2}{}}
\@writefile{toc}{\contentsline {subsection}{\numberline {4.2.1}Detailed Description}{15}{subsection.4.2.1}}
\@writefile{toc}{\contentsline {subsection}{\numberline {4.2.2}Constructor \& Destructor Documentation}{15}{subsection.4.2.2}}
\newlabel{classNodo_aeefb2e4bd278e870e791d40c98bedd4c}{{4.2.2}{15}{Constructor \& Destructor Documentation}{subsection.4.2.2}{}}
\@writefile{toc}{\contentsline {subsubsection}{\numberline {4.2.2.1}Nodo()}{15}{subsubsection.4.2.2.1}}
\newlabel{classNodo_af6c6a081aa52d669565c2ba19a4dd49b}{{4.2.2.1}{15}{\texorpdfstring {Nodo()}{Nodo()}}{subsubsection.4.2.2.1}{}}
\@writefile{toc}{\contentsline {subsubsection}{\numberline {4.2.2.2}$\sim $\discretionary {\unhbox \voidb@x \hbox {\relax \fontsize  {7}{8}\selectfont  $\leftarrow \joinrel  \rhook $}}{}{}Nodo()}{15}{subsubsection.4.2.2.2}}
\@writefile{toc}{\contentsline {subsection}{\numberline {4.2.3}Friends And Related Function Documentation}{15}{subsection.4.2.3}}
\newlabel{classNodo_a245f73f605747ccd33c2ee0768a61204}{{4.2.3}{15}{Friends And Related Function Documentation}{subsection.4.2.3}{}}
\@writefile{toc}{\contentsline {subsubsection}{\numberline {4.2.3.1}Arbol$<$ T $>$}{15}{subsubsection.4.2.3.1}}
\@writefile{toc}{\contentsline {chapter}{\numberline {5}File Documentation}{17}{chapter.5}}
\@writefile{lof}{\addvspace {10\p@ }}
\@writefile{lot}{\addvspace {10\p@ }}
\@writefile{toc}{\contentsline {section}{\numberline {5.1}Nodo.\discretionary {\unhbox \voidb@x \hbox {\relax \fontsize  {7}{8}\selectfont  $\leftarrow \joinrel  \rhook $}}{}{}h File Reference}{17}{section.5.1}}
\newlabel{Nodo_8h}{{5.1}{17}{Nodo.\+h File Reference}{section.5.1}{}}
\@writefile{toc}{\contentsline {chapter}{Index}{19}{section*.11}}
