\relax 
\providecommand\hyper@newdestlabel[2]{}
\providecommand\HyperFirstAtBeginDocument{\AtBeginDocument}
\HyperFirstAtBeginDocument{\ifx\hyper@anchor\@undefined
\global\let\oldcontentsline\contentsline
\gdef\contentsline#1#2#3#4{\oldcontentsline{#1}{#2}{#3}}
\global\let\oldnewlabel\newlabel
\gdef\newlabel#1#2{\newlabelxx{#1}#2}
\gdef\newlabelxx#1#2#3#4#5#6{\oldnewlabel{#1}{{#2}{#3}}}
\AtEndDocument{\ifx\hyper@anchor\@undefined
\let\contentsline\oldcontentsline
\let\newlabel\oldnewlabel
\fi}
\fi}
\global\let\hyper@last\relax 
\gdef\HyperFirstAtBeginDocument#1{#1}
\providecommand\HyField@AuxAddToFields[1]{}
\providecommand\HyField@AuxAddToCoFields[2]{}
\providecommand \oddpage@label [2]{}
\@writefile{toc}{\contentsline {chapter}{\numberline {1}Proyecto 0\discretionary {\unhbox \voidb@x \hbox {\relax \fontsize  {7}{8}\selectfont  $\leftarrow \joinrel  \rhook $}}{}{}: Juego de estrategia basada en turnos}{1}{chapter.1}}
\@writefile{lof}{\addvspace {10\p@ }}
\@writefile{lot}{\addvspace {10\p@ }}
\newlabel{index}{{1}{1}{Proyecto 0\+: Juego de estrategia basada en turnos}{chapter.1}{}}
\@writefile{toc}{\contentsline {section}{\numberline {1.1}Introduccion}{1}{section.1.1}}
\newlabel{index_intro_sec}{{1.1}{1}{Introduccion}{section.1.1}{}}
\@writefile{toc}{\contentsline {section}{\numberline {1.2}Compilacion y ejecucion}{1}{section.1.2}}
\newlabel{index_compile_sec}{{1.2}{1}{Compilacion y ejecucion}{section.1.2}{}}
\@writefile{toc}{\contentsline {section}{\numberline {1.3}Documentacion}{1}{section.1.3}}
\newlabel{index_Documentation_sec}{{1.3}{1}{Documentacion}{section.1.3}{}}
\@writefile{toc}{\contentsline {section}{\numberline {1.4}Sobre el programa}{2}{section.1.4}}
\newlabel{index_about_sec}{{1.4}{2}{Sobre el programa}{section.1.4}{}}
\@writefile{toc}{\contentsline {section}{\numberline {1.5}Resumen Te\IeC {\'o}rico}{2}{section.1.5}}
\newlabel{index_concepts_sec}{{1.5}{2}{Resumen Teórico}{section.1.5}{}}
\@writefile{toc}{\contentsline {subsection}{\numberline {1.5.1}Herencia}{2}{subsection.1.5.1}}
\newlabel{index_Herencia}{{1.5.1}{2}{Herencia}{subsection.1.5.1}{}}
\@writefile{toc}{\contentsline {subsection}{\numberline {1.5.2}Polimorfismo}{2}{subsection.1.5.2}}
\newlabel{index_Polimorfismo}{{1.5.2}{2}{Polimorfismo}{subsection.1.5.2}{}}
\@writefile{toc}{\contentsline {chapter}{\numberline {2}Hierarchical Index}{3}{chapter.2}}
\@writefile{lof}{\addvspace {10\p@ }}
\@writefile{lot}{\addvspace {10\p@ }}
\@writefile{toc}{\contentsline {section}{\numberline {2.1}Class Hierarchy}{3}{section.2.1}}
\@writefile{toc}{\contentsline {chapter}{\numberline {3}Class Index}{5}{chapter.3}}
\@writefile{lof}{\addvspace {10\p@ }}
\@writefile{lot}{\addvspace {10\p@ }}
\@writefile{toc}{\contentsline {section}{\numberline {3.1}Class List}{5}{section.3.1}}
\@writefile{toc}{\contentsline {chapter}{\numberline {4}File Index}{7}{chapter.4}}
\@writefile{lof}{\addvspace {10\p@ }}
\@writefile{lot}{\addvspace {10\p@ }}
\@writefile{toc}{\contentsline {section}{\numberline {4.1}File List}{7}{section.4.1}}
\@writefile{toc}{\contentsline {chapter}{\numberline {5}Class Documentation}{9}{chapter.5}}
\@writefile{lof}{\addvspace {10\p@ }}
\@writefile{lot}{\addvspace {10\p@ }}
\@writefile{toc}{\contentsline {section}{\numberline {5.1}Arquero Class Reference}{9}{section.5.1}}
\newlabel{classArquero}{{5.1}{9}{Arquero Class Reference}{section.5.1}{}}
\@writefile{toc}{\contentsline {subsection}{\numberline {5.1.1}Detailed Description}{12}{subsection.5.1.1}}
\@writefile{toc}{\contentsline {subsection}{\numberline {5.1.2}Constructor \& Destructor Documentation}{12}{subsection.5.1.2}}
\newlabel{classArquero_af3c04ceae1847dc3f2e62d510db6af19}{{5.1.2}{12}{Constructor \& Destructor Documentation}{subsection.5.1.2}{}}
\@writefile{toc}{\contentsline {subsubsection}{\numberline {5.1.2.1}Arquero()\hspace  {0.1cm}{\relax \fontsize  {8}{9.5}\selectfont  \abovedisplayskip 6\p@ plus2\p@ minus4\p@ \abovedisplayshortskip \z@ plus\p@ \belowdisplayshortskip 3\p@ plus\p@ minus2\p@ \def \leftmargin \leftmargini \parsep 4\p@ plus2\p@ minus\p@ \topsep 8\p@ plus2\p@ minus4\p@ \itemsep 4\p@ plus2\p@ minus\p@ {\leftmargin \leftmargini \topsep 3\p@ plus\p@ minus\p@ \parsep 2\p@ plus\p@ minus\p@ \itemsep \parsep }\belowdisplayskip \abovedisplayskip \ttfamily  [1/2]}}{12}{subsubsection.5.1.2.1}}
\newlabel{classArquero_a1a6c0271631b33ca27df561825874897}{{5.1.2.1}{12}{\texorpdfstring {Arquero()}{Arquero()}\hspace {0.1cm}{\footnotesize \ttfamily [1/2]}}{subsubsection.5.1.2.1}{}}
\@writefile{toc}{\contentsline {subsubsection}{\numberline {5.1.2.2}Arquero()\hspace  {0.1cm}{\relax \fontsize  {8}{9.5}\selectfont  \abovedisplayskip 6\p@ plus2\p@ minus4\p@ \abovedisplayshortskip \z@ plus\p@ \belowdisplayshortskip 3\p@ plus\p@ minus2\p@ \def \leftmargin \leftmargini \parsep 4\p@ plus2\p@ minus\p@ \topsep 8\p@ plus2\p@ minus4\p@ \itemsep 4\p@ plus2\p@ minus\p@ {\leftmargin \leftmargini \topsep 3\p@ plus\p@ minus\p@ \parsep 2\p@ plus\p@ minus\p@ \itemsep \parsep }\belowdisplayskip \abovedisplayskip \ttfamily  [2/2]}}{12}{subsubsection.5.1.2.2}}
\gdef \LT@i {\LT@entry 
    {3}{36.80263pt}\LT@entry 
    {3}{99.94112pt}}
\gdef \LT@ii {\LT@entry 
    {3}{37.63054pt}\LT@entry 
    {3}{137.50624pt}}
\newlabel{classArquero_aa60aa2c5fb7c4af78c493804eba10e19}{{5.1.2.2}{13}{\texorpdfstring {Arquero()}{Arquero()}\hspace {0.1cm}{\footnotesize \ttfamily [2/2]}}{table.5.1}{}}
\@writefile{toc}{\contentsline {subsubsection}{\numberline {5.1.2.3}$\sim $\discretionary {\unhbox \voidb@x \hbox {\relax \fontsize  {7}{8}\selectfont  $\leftarrow \joinrel  \rhook $}}{}{}Arquero()}{13}{subsubsection.5.1.2.3}}
\@writefile{toc}{\contentsline {subsection}{\numberline {5.1.3}Member Function Documentation}{13}{subsection.5.1.3}}
\newlabel{classArquero_ac705757d680750286b5833368f701a4e}{{5.1.3}{13}{Member Function Documentation}{subsection.5.1.3}{}}
\@writefile{toc}{\contentsline {subsubsection}{\numberline {5.1.3.1}Attack()}{13}{subsubsection.5.1.3.1}}
\newlabel{classArquero_a6295f7159d2380529ff0d619b367ed52}{{5.1.3.1}{13}{\texorpdfstring {Attack()}{Attack()}}{table.5.2}{}}
\@writefile{toc}{\contentsline {subsubsection}{\numberline {5.1.3.2}get\discretionary {\unhbox \voidb@x \hbox {\relax \fontsize  {7}{8}\selectfont  $\leftarrow \joinrel  \rhook $}}{}{}Cost()}{13}{subsubsection.5.1.3.2}}
\newlabel{classArquero_a9acac01fe569de11106a24fc744ecdc1}{{5.1.3.2}{13}{\texorpdfstring {get\+Cost()}{getCost()}}{subsubsection.5.1.3.2}{}}
\gdef \LT@iii {\LT@entry 
    {3}{34.44475pt}\LT@entry 
    {3}{154.85812pt}}
\@writefile{toc}{\contentsline {subsubsection}{\numberline {5.1.3.3}Move()}{14}{subsubsection.5.1.3.3}}
\@writefile{toc}{\contentsline {subsection}{\numberline {5.1.4}Member Data Documentation}{14}{subsection.5.1.4}}
\newlabel{classArquero_a13e10fd29b180d635f2a07a52b399a6c}{{5.1.4}{14}{Member Data Documentation}{subsection.5.1.4}{}}
\@writefile{toc}{\contentsline {subsubsection}{\numberline {5.1.4.1}cost}{14}{subsubsection.5.1.4.1}}
\@writefile{toc}{\contentsline {section}{\numberline {5.2}Caballo Class Reference}{14}{section.5.2}}
\newlabel{classCaballo}{{5.2}{14}{Caballo Class Reference}{section.5.2}{}}
\@writefile{toc}{\contentsline {subsection}{\numberline {5.2.1}Detailed Description}{17}{subsection.5.2.1}}
\@writefile{toc}{\contentsline {subsection}{\numberline {5.2.2}Constructor \& Destructor Documentation}{17}{subsection.5.2.2}}
\newlabel{classCaballo_a7628d27e14e0745ad9bdf5a9381bc3b6}{{5.2.2}{17}{Constructor \& Destructor Documentation}{subsection.5.2.2}{}}
\@writefile{toc}{\contentsline {subsubsection}{\numberline {5.2.2.1}Caballo()\hspace  {0.1cm}{\relax \fontsize  {8}{9.5}\selectfont  \abovedisplayskip 6\p@ plus2\p@ minus4\p@ \abovedisplayshortskip \z@ plus\p@ \belowdisplayshortskip 3\p@ plus\p@ minus2\p@ \def \leftmargin \leftmargini \parsep 4\p@ plus2\p@ minus\p@ \topsep 8\p@ plus2\p@ minus4\p@ \itemsep 4\p@ plus2\p@ minus\p@ {\leftmargin \leftmargini \topsep 3\p@ plus\p@ minus\p@ \parsep 2\p@ plus\p@ minus\p@ \itemsep \parsep }\belowdisplayskip \abovedisplayskip \ttfamily  [1/2]}}{17}{subsubsection.5.2.2.1}}
\newlabel{classCaballo_afb876ea17e19723f2d345af949cd0b33}{{5.2.2.1}{17}{\texorpdfstring {Caballo()}{Caballo()}\hspace {0.1cm}{\footnotesize \ttfamily [1/2]}}{subsubsection.5.2.2.1}{}}
\@writefile{toc}{\contentsline {subsubsection}{\numberline {5.2.2.2}Caballo()\hspace  {0.1cm}{\relax \fontsize  {8}{9.5}\selectfont  \abovedisplayskip 6\p@ plus2\p@ minus4\p@ \abovedisplayshortskip \z@ plus\p@ \belowdisplayshortskip 3\p@ plus\p@ minus2\p@ \def \leftmargin \leftmargini \parsep 4\p@ plus2\p@ minus\p@ \topsep 8\p@ plus2\p@ minus4\p@ \itemsep 4\p@ plus2\p@ minus\p@ {\leftmargin \leftmargini \topsep 3\p@ plus\p@ minus\p@ \parsep 2\p@ plus\p@ minus\p@ \itemsep \parsep }\belowdisplayskip \abovedisplayskip \ttfamily  [2/2]}}{17}{subsubsection.5.2.2.2}}
\newlabel{classCaballo_abb0b04a221b6114145ad99d805a988a3}{{5.2.2.2}{17}{\texorpdfstring {Caballo()}{Caballo()}\hspace {0.1cm}{\footnotesize \ttfamily [2/2]}}{subsubsection.5.2.2.2}{}}
\gdef \LT@iv {\LT@entry 
    {3}{37.63054pt}\LT@entry 
    {3}{137.50624pt}}
\@writefile{toc}{\contentsline {subsubsection}{\numberline {5.2.2.3}$\sim $\discretionary {\unhbox \voidb@x \hbox {\relax \fontsize  {7}{8}\selectfont  $\leftarrow \joinrel  \rhook $}}{}{}Caballo()}{18}{subsubsection.5.2.2.3}}
\@writefile{toc}{\contentsline {subsection}{\numberline {5.2.3}Member Function Documentation}{18}{subsection.5.2.3}}
\newlabel{classCaballo_a4e2d88e752707406340aa0c54400e8c8}{{5.2.3}{18}{Member Function Documentation}{subsection.5.2.3}{}}
\@writefile{toc}{\contentsline {subsubsection}{\numberline {5.2.3.1}Attack()}{18}{subsubsection.5.2.3.1}}
\newlabel{classCaballo_a494f9016c09306eef61c3496b34156f3}{{5.2.3.1}{18}{\texorpdfstring {Attack()}{Attack()}}{table.5.4}{}}
\@writefile{toc}{\contentsline {subsubsection}{\numberline {5.2.3.2}get\discretionary {\unhbox \voidb@x \hbox {\relax \fontsize  {7}{8}\selectfont  $\leftarrow \joinrel  \rhook $}}{}{}Cost()}{18}{subsubsection.5.2.3.2}}
\newlabel{classCaballo_aecc3eef50aff03f2303ce5ce22441c43}{{5.2.3.2}{18}{\texorpdfstring {get\+Cost()}{getCost()}}{subsubsection.5.2.3.2}{}}
\@writefile{toc}{\contentsline {subsubsection}{\numberline {5.2.3.3}Move()}{18}{subsubsection.5.2.3.3}}
\gdef \LT@v {\LT@entry 
    {3}{34.44475pt}\LT@entry 
    {3}{154.85812pt}}
\@writefile{toc}{\contentsline {subsection}{\numberline {5.2.4}Member Data Documentation}{19}{subsection.5.2.4}}
\newlabel{classCaballo_a97b4365ad47811c5ee7e83faa8660b32}{{5.2.4}{19}{Member Data Documentation}{subsection.5.2.4}{}}
\@writefile{toc}{\contentsline {subsubsection}{\numberline {5.2.4.1}cost}{19}{subsubsection.5.2.4.1}}
\@writefile{toc}{\contentsline {section}{\numberline {5.3}Cell Class Reference}{19}{section.5.3}}
\newlabel{classCell}{{5.3}{19}{Cell Class Reference}{section.5.3}{}}
\@writefile{toc}{\contentsline {subsection}{\numberline {5.3.1}Detailed Description}{20}{subsection.5.3.1}}
\@writefile{toc}{\contentsline {subsection}{\numberline {5.3.2}Constructor \& Destructor Documentation}{20}{subsection.5.3.2}}
\newlabel{classCell_a394510643e8664cf12b5efaf5cb99f71}{{5.3.2}{20}{Constructor \& Destructor Documentation}{subsection.5.3.2}{}}
\@writefile{toc}{\contentsline {subsubsection}{\numberline {5.3.2.1}Cell()\hspace  {0.1cm}{\relax \fontsize  {8}{9.5}\selectfont  \abovedisplayskip 6\p@ plus2\p@ minus4\p@ \abovedisplayshortskip \z@ plus\p@ \belowdisplayshortskip 3\p@ plus\p@ minus2\p@ \def \leftmargin \leftmargini \parsep 4\p@ plus2\p@ minus\p@ \topsep 8\p@ plus2\p@ minus4\p@ \itemsep 4\p@ plus2\p@ minus\p@ {\leftmargin \leftmargini \topsep 3\p@ plus\p@ minus\p@ \parsep 2\p@ plus\p@ minus\p@ \itemsep \parsep }\belowdisplayskip \abovedisplayskip \ttfamily  [1/2]}}{20}{subsubsection.5.3.2.1}}
\newlabel{classCell_a86ebebf5ae93d96f9e66dea1b57f3bba}{{5.3.2.1}{20}{\texorpdfstring {Cell()}{Cell()}\hspace {0.1cm}{\footnotesize \ttfamily [1/2]}}{subsubsection.5.3.2.1}{}}
\@writefile{toc}{\contentsline {subsubsection}{\numberline {5.3.2.2}Cell()\hspace  {0.1cm}{\relax \fontsize  {8}{9.5}\selectfont  \abovedisplayskip 6\p@ plus2\p@ minus4\p@ \abovedisplayshortskip \z@ plus\p@ \belowdisplayshortskip 3\p@ plus\p@ minus2\p@ \def \leftmargin \leftmargini \parsep 4\p@ plus2\p@ minus\p@ \topsep 8\p@ plus2\p@ minus4\p@ \itemsep 4\p@ plus2\p@ minus\p@ {\leftmargin \leftmargini \topsep 3\p@ plus\p@ minus\p@ \parsep 2\p@ plus\p@ minus\p@ \itemsep \parsep }\belowdisplayskip \abovedisplayskip \ttfamily  [2/2]}}{21}{subsubsection.5.3.2.2}}
\newlabel{classCell_a9fa559f7a28e2b4336c6879ca09304d8}{{5.3.2.2}{21}{\texorpdfstring {Cell()}{Cell()}\hspace {0.1cm}{\footnotesize \ttfamily [2/2]}}{subsubsection.5.3.2.2}{}}
\@writefile{toc}{\contentsline {subsubsection}{\numberline {5.3.2.3}$\sim $\discretionary {\unhbox \voidb@x \hbox {\relax \fontsize  {7}{8}\selectfont  $\leftarrow \joinrel  \rhook $}}{}{}Cell()}{21}{subsubsection.5.3.2.3}}
\@writefile{toc}{\contentsline {subsection}{\numberline {5.3.3}Member Function Documentation}{21}{subsection.5.3.3}}
\newlabel{classCell_a800e0d81bf33910b109399cf4b7a6316}{{5.3.3}{21}{Member Function Documentation}{subsection.5.3.3}{}}
\@writefile{toc}{\contentsline {subsubsection}{\numberline {5.3.3.1}get\discretionary {\unhbox \voidb@x \hbox {\relax \fontsize  {7}{8}\selectfont  $\leftarrow \joinrel  \rhook $}}{}{}Army()}{21}{subsubsection.5.3.3.1}}
\newlabel{classCell_a9b24ca699b6152efc3d11fb50c143345}{{5.3.3.1}{21}{\texorpdfstring {get\+Army()}{getArmy()}}{subsubsection.5.3.3.1}{}}
\@writefile{toc}{\contentsline {subsubsection}{\numberline {5.3.3.2}get\discretionary {\unhbox \voidb@x \hbox {\relax \fontsize  {7}{8}\selectfont  $\leftarrow \joinrel  \rhook $}}{}{}Ocuped()}{21}{subsubsection.5.3.3.2}}
\newlabel{classCell_a1e981f7b617fab2aa91e4ca4da0ef70d}{{5.3.3.2}{21}{\texorpdfstring {get\+Ocuped()}{getOcuped()}}{subsubsection.5.3.3.2}{}}
\gdef \LT@vi {\LT@entry 
    {3}{33.88675pt}\LT@entry 
    {3}{187.72537pt}}
\@writefile{toc}{\contentsline {subsubsection}{\numberline {5.3.3.3}get\discretionary {\unhbox \voidb@x \hbox {\relax \fontsize  {7}{8}\selectfont  $\leftarrow \joinrel  \rhook $}}{}{}Passable()}{22}{subsubsection.5.3.3.3}}
\newlabel{classCell_aab6a647378281c121f5f2554a0c6c957}{{5.3.3.3}{22}{\texorpdfstring {get\+Passable()}{getPassable()}}{subsubsection.5.3.3.3}{}}
\@writefile{toc}{\contentsline {subsubsection}{\numberline {5.3.3.4}print\discretionary {\unhbox \voidb@x \hbox {\relax \fontsize  {7}{8}\selectfont  $\leftarrow \joinrel  \rhook $}}{}{}Cell\discretionary {\unhbox \voidb@x \hbox {\relax \fontsize  {7}{8}\selectfont  $\leftarrow \joinrel  \rhook $}}{}{}Info()}{22}{subsubsection.5.3.3.4}}
\newlabel{classCell_a464009f5ff2ebd200b11cf6cc7167114}{{5.3.3.4}{22}{\texorpdfstring {print\+Cell\+Info()}{printCellInfo()}}{subsubsection.5.3.3.4}{}}
\@writefile{toc}{\contentsline {subsubsection}{\numberline {5.3.3.5}set\discretionary {\unhbox \voidb@x \hbox {\relax \fontsize  {7}{8}\selectfont  $\leftarrow \joinrel  \rhook $}}{}{}Army()}{22}{subsubsection.5.3.3.5}}
\newlabel{classCell_ac00d6d2b83d0dbd306aed50276a1c825}{{5.3.3.5}{22}{\texorpdfstring {set\+Army()}{setArmy()}}{table.5.6}{}}
\@writefile{toc}{\contentsline {subsubsection}{\numberline {5.3.3.6}set\discretionary {\unhbox \voidb@x \hbox {\relax \fontsize  {7}{8}\selectfont  $\leftarrow \joinrel  \rhook $}}{}{}Ocuped()}{22}{subsubsection.5.3.3.6}}
\gdef \LT@vii {\LT@entry 
    {3}{50.32033pt}\LT@entry 
    {3}{182.22655pt}}
\gdef \LT@viii {\LT@entry 
    {3}{48.63745pt}\LT@entry 
    {3}{172.7045pt}}
\newlabel{classCell_a0c067ef99032f0e0fc0c63c0090d8195}{{5.3.3.6}{24}{\texorpdfstring {set\+Ocuped()}{setOcuped()}}{table.5.7}{}}
\@writefile{toc}{\contentsline {subsubsection}{\numberline {5.3.3.7}set\discretionary {\unhbox \voidb@x \hbox {\relax \fontsize  {7}{8}\selectfont  $\leftarrow \joinrel  \rhook $}}{}{}Passable()}{24}{subsubsection.5.3.3.7}}
\@writefile{toc}{\contentsline {section}{\numberline {5.4}Field Class Reference}{24}{section.5.4}}
\newlabel{classField}{{5.4}{24}{Field Class Reference}{section.5.4}{}}
\@writefile{toc}{\contentsline {subsection}{\numberline {5.4.1}Detailed Description}{25}{subsection.5.4.1}}
\@writefile{toc}{\contentsline {subsection}{\numberline {5.4.2}Constructor \& Destructor Documentation}{25}{subsection.5.4.2}}
\newlabel{classField_a3e804c92273d9159f413f227b535c672}{{5.4.2}{25}{Constructor \& Destructor Documentation}{subsection.5.4.2}{}}
\@writefile{toc}{\contentsline {subsubsection}{\numberline {5.4.2.1}Field()}{25}{subsubsection.5.4.2.1}}
\newlabel{classField_a45d6e6d09b8f8e46de62b40119d62c60}{{5.4.2.1}{25}{\texorpdfstring {Field()}{Field()}}{subsubsection.5.4.2.1}{}}
\gdef \LT@ix {\LT@entry 
    {3}{28.66687pt}\LT@entry 
    {3}{96.93541pt}}
\@writefile{toc}{\contentsline {subsubsection}{\numberline {5.4.2.2}$\sim $\discretionary {\unhbox \voidb@x \hbox {\relax \fontsize  {7}{8}\selectfont  $\leftarrow \joinrel  \rhook $}}{}{}Field()}{26}{subsubsection.5.4.2.2}}
\@writefile{toc}{\contentsline {subsection}{\numberline {5.4.3}Member Function Documentation}{26}{subsection.5.4.3}}
\newlabel{classField_a667703e4c872f795ed8bc1e3b7e59870}{{5.4.3}{26}{Member Function Documentation}{subsection.5.4.3}{}}
\@writefile{toc}{\contentsline {subsubsection}{\numberline {5.4.3.1}Cargar()}{26}{subsubsection.5.4.3.1}}
\newlabel{classField_abcdff3bc78fdb70adb24b94c259adc60}{{5.4.3.1}{26}{\texorpdfstring {Cargar()}{Cargar()}}{subsubsection.5.4.3.1}{}}
\@writefile{toc}{\contentsline {subsubsection}{\numberline {5.4.3.2}get\discretionary {\unhbox \voidb@x \hbox {\relax \fontsize  {7}{8}\selectfont  $\leftarrow \joinrel  \rhook $}}{}{}Cell()}{26}{subsubsection.5.4.3.2}}
\newlabel{classField_ae9dbab3e67fb7f4b0cbcf52a9f444078}{{5.4.3.2}{26}{\texorpdfstring {get\+Cell()}{getCell()}}{table.5.9}{}}
\@writefile{toc}{\contentsline {subsubsection}{\numberline {5.4.3.3}get\discretionary {\unhbox \voidb@x \hbox {\relax \fontsize  {7}{8}\selectfont  $\leftarrow \joinrel  \rhook $}}{}{}Cow()}{26}{subsubsection.5.4.3.3}}
\newlabel{classField_a7b4a3689a2a248f27f798c11e36ea47a}{{5.4.3.3}{26}{\texorpdfstring {get\+Cow()}{getCow()}}{subsubsection.5.4.3.3}{}}
\gdef \LT@x {\LT@entry 
    {3}{17.29996pt}\LT@entry 
    {3}{156.47798pt}}
\@writefile{toc}{\contentsline {subsubsection}{\numberline {5.4.3.4}get\discretionary {\unhbox \voidb@x \hbox {\relax \fontsize  {7}{8}\selectfont  $\leftarrow \joinrel  \rhook $}}{}{}Row()}{27}{subsubsection.5.4.3.4}}
\newlabel{classField_aad4d2ae9b985cc66f44bef489f2c0392}{{5.4.3.4}{27}{\texorpdfstring {get\+Row()}{getRow()}}{subsubsection.5.4.3.4}{}}
\@writefile{toc}{\contentsline {subsubsection}{\numberline {5.4.3.5}Guardar()}{27}{subsubsection.5.4.3.5}}
\newlabel{classField_aed0b82a101223c56a94eadf1822f6a3e}{{5.4.3.5}{27}{\texorpdfstring {Guardar()}{Guardar()}}{subsubsection.5.4.3.5}{}}
\@writefile{toc}{\contentsline {subsubsection}{\numberline {5.4.3.6}print\discretionary {\unhbox \voidb@x \hbox {\relax \fontsize  {7}{8}\selectfont  $\leftarrow \joinrel  \rhook $}}{}{}Tab()}{27}{subsubsection.5.4.3.6}}
\newlabel{classField_a60cae5e86e92a3ff8f2ff3791298b0a6}{{5.4.3.6}{27}{\texorpdfstring {print\+Tab()}{printTab()}}{subsubsection.5.4.3.6}{}}
\@writefile{toc}{\contentsline {subsubsection}{\numberline {5.4.3.7}Refresh\discretionary {\unhbox \voidb@x \hbox {\relax \fontsize  {7}{8}\selectfont  $\leftarrow \joinrel  \rhook $}}{}{}Celda()}{27}{subsubsection.5.4.3.7}}
\newlabel{classField_ae5c52cda7fbf786bbf3d05e60e5d34b7}{{5.4.3.7}{27}{\texorpdfstring {Refresh\+Celda()}{RefreshCelda()}}{table.5.10}{}}
\@writefile{toc}{\contentsline {subsubsection}{\numberline {5.4.3.8}tab\discretionary {\unhbox \voidb@x \hbox {\relax \fontsize  {7}{8}\selectfont  $\leftarrow \joinrel  \rhook $}}{}{}Inicial()}{28}{subsubsection.5.4.3.8}}
\@writefile{toc}{\contentsline {section}{\numberline {5.5}Lancero Class Reference}{28}{section.5.5}}
\newlabel{classLancero}{{5.5}{28}{Lancero Class Reference}{section.5.5}{}}
\@writefile{toc}{\contentsline {subsection}{\numberline {5.5.1}Detailed Description}{31}{subsection.5.5.1}}
\@writefile{toc}{\contentsline {subsection}{\numberline {5.5.2}Constructor \& Destructor Documentation}{31}{subsection.5.5.2}}
\newlabel{classLancero_a8bd64f8cf66ee2dc3420a2fe0dad6e27}{{5.5.2}{31}{Constructor \& Destructor Documentation}{subsection.5.5.2}{}}
\@writefile{toc}{\contentsline {subsubsection}{\numberline {5.5.2.1}Lancero()\hspace  {0.1cm}{\relax \fontsize  {8}{9.5}\selectfont  \abovedisplayskip 6\p@ plus2\p@ minus4\p@ \abovedisplayshortskip \z@ plus\p@ \belowdisplayshortskip 3\p@ plus\p@ minus2\p@ \def \leftmargin \leftmargini \parsep 4\p@ plus2\p@ minus\p@ \topsep 8\p@ plus2\p@ minus4\p@ \itemsep 4\p@ plus2\p@ minus\p@ {\leftmargin \leftmargini \topsep 3\p@ plus\p@ minus\p@ \parsep 2\p@ plus\p@ minus\p@ \itemsep \parsep }\belowdisplayskip \abovedisplayskip \ttfamily  [1/2]}}{31}{subsubsection.5.5.2.1}}
\newlabel{classLancero_ae62de3c6c4e0d76e948e221a0df228cd}{{5.5.2.1}{31}{\texorpdfstring {Lancero()}{Lancero()}\hspace {0.1cm}{\footnotesize \ttfamily [1/2]}}{subsubsection.5.5.2.1}{}}
\@writefile{toc}{\contentsline {subsubsection}{\numberline {5.5.2.2}Lancero()\hspace  {0.1cm}{\relax \fontsize  {8}{9.5}\selectfont  \abovedisplayskip 6\p@ plus2\p@ minus4\p@ \abovedisplayshortskip \z@ plus\p@ \belowdisplayshortskip 3\p@ plus\p@ minus2\p@ \def \leftmargin \leftmargini \parsep 4\p@ plus2\p@ minus\p@ \topsep 8\p@ plus2\p@ minus4\p@ \itemsep 4\p@ plus2\p@ minus\p@ {\leftmargin \leftmargini \topsep 3\p@ plus\p@ minus\p@ \parsep 2\p@ plus\p@ minus\p@ \itemsep \parsep }\belowdisplayskip \abovedisplayskip \ttfamily  [2/2]}}{31}{subsubsection.5.5.2.2}}
\gdef \LT@xi {\LT@entry 
    {3}{36.80263pt}\LT@entry 
    {3}{132.94357pt}}
\gdef \LT@xii {\LT@entry 
    {3}{37.63054pt}\LT@entry 
    {3}{137.50624pt}}
\newlabel{classLancero_ad92b8bec4372939cdfd25de2d3f73960}{{5.5.2.2}{32}{\texorpdfstring {Lancero()}{Lancero()}\hspace {0.1cm}{\footnotesize \ttfamily [2/2]}}{table.5.11}{}}
\@writefile{toc}{\contentsline {subsubsection}{\numberline {5.5.2.3}$\sim $\discretionary {\unhbox \voidb@x \hbox {\relax \fontsize  {7}{8}\selectfont  $\leftarrow \joinrel  \rhook $}}{}{}Lancero()}{32}{subsubsection.5.5.2.3}}
\@writefile{toc}{\contentsline {subsection}{\numberline {5.5.3}Member Function Documentation}{32}{subsection.5.5.3}}
\newlabel{classLancero_a4f03d173abe5b395846ae3544890cc21}{{5.5.3}{32}{Member Function Documentation}{subsection.5.5.3}{}}
\@writefile{toc}{\contentsline {subsubsection}{\numberline {5.5.3.1}Attack()}{32}{subsubsection.5.5.3.1}}
\newlabel{classLancero_abf900ccca33dcbd044345c012bab4452}{{5.5.3.1}{32}{\texorpdfstring {Attack()}{Attack()}}{table.5.12}{}}
\@writefile{toc}{\contentsline {subsubsection}{\numberline {5.5.3.2}get\discretionary {\unhbox \voidb@x \hbox {\relax \fontsize  {7}{8}\selectfont  $\leftarrow \joinrel  \rhook $}}{}{}Cost()}{32}{subsubsection.5.5.3.2}}
\newlabel{classLancero_ac72c74aeb570768b3c942298bfbc9d1b}{{5.5.3.2}{32}{\texorpdfstring {get\+Cost()}{getCost()}}{subsubsection.5.5.3.2}{}}
\gdef \LT@xiii {\LT@entry 
    {3}{34.44475pt}\LT@entry 
    {3}{154.85812pt}}
\@writefile{toc}{\contentsline {subsubsection}{\numberline {5.5.3.3}Move()}{33}{subsubsection.5.5.3.3}}
\@writefile{toc}{\contentsline {subsection}{\numberline {5.5.4}Member Data Documentation}{33}{subsection.5.5.4}}
\newlabel{classLancero_a3101f3fa708121a884ef058c8339d285}{{5.5.4}{33}{Member Data Documentation}{subsection.5.5.4}{}}
\@writefile{toc}{\contentsline {subsubsection}{\numberline {5.5.4.1}cost}{33}{subsubsection.5.5.4.1}}
\@writefile{toc}{\contentsline {section}{\numberline {5.6}Player Class Reference}{33}{section.5.6}}
\newlabel{classPlayer}{{5.6}{33}{Player Class Reference}{section.5.6}{}}
\@writefile{toc}{\contentsline {subsection}{\numberline {5.6.1}Detailed Description}{35}{subsection.5.6.1}}
\@writefile{toc}{\contentsline {subsection}{\numberline {5.6.2}Constructor \& Destructor Documentation}{35}{subsection.5.6.2}}
\newlabel{classPlayer_affe0cc3cb714f6deb4e62f0c0d3f1fd8}{{5.6.2}{35}{Constructor \& Destructor Documentation}{subsection.5.6.2}{}}
\@writefile{toc}{\contentsline {subsubsection}{\numberline {5.6.2.1}Player()\hspace  {0.1cm}{\relax \fontsize  {8}{9.5}\selectfont  \abovedisplayskip 6\p@ plus2\p@ minus4\p@ \abovedisplayshortskip \z@ plus\p@ \belowdisplayshortskip 3\p@ plus\p@ minus2\p@ \def \leftmargin \leftmargini \parsep 4\p@ plus2\p@ minus\p@ \topsep 8\p@ plus2\p@ minus4\p@ \itemsep 4\p@ plus2\p@ minus\p@ {\leftmargin \leftmargini \topsep 3\p@ plus\p@ minus\p@ \parsep 2\p@ plus\p@ minus\p@ \itemsep \parsep }\belowdisplayskip \abovedisplayskip \ttfamily  [1/2]}}{36}{subsubsection.5.6.2.1}}
\newlabel{classPlayer_a749d2c00e1fe0f5c2746f7505a58c062}{{5.6.2.1}{36}{\texorpdfstring {Player()}{Player()}\hspace {0.1cm}{\footnotesize \ttfamily [1/2]}}{subsubsection.5.6.2.1}{}}
\@writefile{toc}{\contentsline {subsubsection}{\numberline {5.6.2.2}$\sim $\discretionary {\unhbox \voidb@x \hbox {\relax \fontsize  {7}{8}\selectfont  $\leftarrow \joinrel  \rhook $}}{}{}Player()}{36}{subsubsection.5.6.2.2}}
\newlabel{classPlayer_a05402e93b2be9cb0bcda742a68f27b47}{{5.6.2.2}{36}{\texorpdfstring {$\sim $\+Player()}{~Player()}}{subsubsection.5.6.2.2}{}}
\@writefile{toc}{\contentsline {subsubsection}{\numberline {5.6.2.3}Player()\hspace  {0.1cm}{\relax \fontsize  {8}{9.5}\selectfont  \abovedisplayskip 6\p@ plus2\p@ minus4\p@ \abovedisplayshortskip \z@ plus\p@ \belowdisplayshortskip 3\p@ plus\p@ minus2\p@ \def \leftmargin \leftmargini \parsep 4\p@ plus2\p@ minus\p@ \topsep 8\p@ plus2\p@ minus4\p@ \itemsep 4\p@ plus2\p@ minus\p@ {\leftmargin \leftmargini \topsep 3\p@ plus\p@ minus\p@ \parsep 2\p@ plus\p@ minus\p@ \itemsep \parsep }\belowdisplayskip \abovedisplayskip \ttfamily  [2/2]}}{36}{subsubsection.5.6.2.3}}
\@writefile{toc}{\contentsline {subsection}{\numberline {5.6.3}Member Function Documentation}{36}{subsection.5.6.3}}
\newlabel{classPlayer_ab57b54dc913dda79e1a633e3f70d926c}{{5.6.3}{36}{Member Function Documentation}{subsection.5.6.3}{}}
\@writefile{toc}{\contentsline {subsubsection}{\numberline {5.6.3.1}Atacar()}{36}{subsubsection.5.6.3.1}}
\newlabel{classPlayer_a7fcc6373bdf8a7dde73b6edfbc8471aa}{{5.6.3.1}{36}{\texorpdfstring {Atacar()}{Atacar()}}{subsubsection.5.6.3.1}{}}
\@writefile{toc}{\contentsline {subsubsection}{\numberline {5.6.3.2}Colocar\discretionary {\unhbox \voidb@x \hbox {\relax \fontsize  {7}{8}\selectfont  $\leftarrow \joinrel  \rhook $}}{}{}Unit()}{36}{subsubsection.5.6.3.2}}
\newlabel{classPlayer_ac06b858916c335ecfd18f1276e71fa02}{{5.6.3.2}{36}{\texorpdfstring {Colocar\+Unit()}{ColocarUnit()}}{subsubsection.5.6.3.2}{}}
\gdef \LT@xiv {\LT@entry 
    {3}{37.30656pt}\LT@entry 
    {3}{93.79442pt}}
\gdef \LT@xv {\LT@entry 
    {3}{27.30777pt}\LT@entry 
    {3}{211.56602pt}}
\@writefile{toc}{\contentsline {subsubsection}{\numberline {5.6.3.3}colocar\discretionary {\unhbox \voidb@x \hbox {\relax \fontsize  {7}{8}\selectfont  $\leftarrow \joinrel  \rhook $}}{}{}Units()}{37}{subsubsection.5.6.3.3}}
\newlabel{classPlayer_ac1703839703c8df901fb71ad87a4eadf}{{5.6.3.3}{37}{\texorpdfstring {colocar\+Units()}{colocarUnits()}}{subsubsection.5.6.3.3}{}}
\@writefile{toc}{\contentsline {subsubsection}{\numberline {5.6.3.4}create\discretionary {\unhbox \voidb@x \hbox {\relax \fontsize  {7}{8}\selectfont  $\leftarrow \joinrel  \rhook $}}{}{}Army()}{37}{subsubsection.5.6.3.4}}
\newlabel{classPlayer_a8364dad1e9d60961582e3f724175cf97}{{5.6.3.4}{37}{\texorpdfstring {create\+Army()}{createArmy()}}{table.5.14}{}}
\@writefile{toc}{\contentsline {subsubsection}{\numberline {5.6.3.5}get\discretionary {\unhbox \voidb@x \hbox {\relax \fontsize  {7}{8}\selectfont  $\leftarrow \joinrel  \rhook $}}{}{}Army()}{37}{subsubsection.5.6.3.5}}
\newlabel{classPlayer_a3e35b5595675dea69a31c0ad4989f4ac}{{5.6.3.5}{37}{\texorpdfstring {get\+Army()}{getArmy()}}{table.5.15}{}}
\gdef \LT@xvi {\LT@entry 
    {3}{29.80966pt}\LT@entry 
    {3}{155.479pt}}
\@writefile{toc}{\contentsline {subsubsection}{\numberline {5.6.3.6}get\discretionary {\unhbox \voidb@x \hbox {\relax \fontsize  {7}{8}\selectfont  $\leftarrow \joinrel  \rhook $}}{}{}Army2()}{38}{subsubsection.5.6.3.6}}
\newlabel{classPlayer_a88514da3b8b106faf4ccd71fc0ab90cf}{{5.6.3.6}{38}{\texorpdfstring {get\+Army2()}{getArmy2()}}{subsubsection.5.6.3.6}{}}
\@writefile{toc}{\contentsline {subsubsection}{\numberline {5.6.3.7}get\discretionary {\unhbox \voidb@x \hbox {\relax \fontsize  {7}{8}\selectfont  $\leftarrow \joinrel  \rhook $}}{}{}Baja()}{38}{subsubsection.5.6.3.7}}
\newlabel{classPlayer_ad7f74700c97ef14866b544b49cd31144}{{5.6.3.7}{38}{\texorpdfstring {get\+Baja()}{getBaja()}}{table.5.16}{}}
\@writefile{toc}{\contentsline {subsubsection}{\numberline {5.6.3.8}get\discretionary {\unhbox \voidb@x \hbox {\relax \fontsize  {7}{8}\selectfont  $\leftarrow \joinrel  \rhook $}}{}{}Guardar()}{38}{subsubsection.5.6.3.8}}
\newlabel{classPlayer_ab298db1de55eb36f2f914624255c31ff}{{5.6.3.8}{38}{\texorpdfstring {get\+Guardar()}{getGuardar()}}{subsubsection.5.6.3.8}{}}
\@writefile{toc}{\contentsline {subsubsection}{\numberline {5.6.3.9}get\discretionary {\unhbox \voidb@x \hbox {\relax \fontsize  {7}{8}\selectfont  $\leftarrow \joinrel  \rhook $}}{}{}Nombre()}{38}{subsubsection.5.6.3.9}}
\newlabel{classPlayer_a34afd5aa4dcbc7633bbebc7732dbc880}{{5.6.3.9}{38}{\texorpdfstring {get\+Nombre()}{getNombre()}}{subsubsection.5.6.3.9}{}}
\@writefile{toc}{\contentsline {subsubsection}{\numberline {5.6.3.10}inicializar()}{38}{subsubsection.5.6.3.10}}
\gdef \LT@xvii {\LT@entry 
    {3}{29.80966pt}\LT@entry 
    {3}{97.9523pt}}
\newlabel{classPlayer_a0ca660ec6670a1b9f433ffa3d4d2c551}{{5.6.3.10}{39}{\texorpdfstring {inicializar()}{inicializar()}}{table.5.17}{}}
\@writefile{toc}{\contentsline {subsubsection}{\numberline {5.6.3.11}Mostrar\discretionary {\unhbox \voidb@x \hbox {\relax \fontsize  {7}{8}\selectfont  $\leftarrow \joinrel  \rhook $}}{}{}Info\discretionary {\unhbox \voidb@x \hbox {\relax \fontsize  {7}{8}\selectfont  $\leftarrow \joinrel  \rhook $}}{}{}Todas\discretionary {\unhbox \voidb@x \hbox {\relax \fontsize  {7}{8}\selectfont  $\leftarrow \joinrel  \rhook $}}{}{}Unidades()}{39}{subsubsection.5.6.3.11}}
\newlabel{classPlayer_a0df3407ef0c16ae8c3fc3ab0762bfa67}{{5.6.3.11}{39}{\texorpdfstring {Mostrar\+Info\+Todas\+Unidades()}{MostrarInfoTodasUnidades()}}{subsubsection.5.6.3.11}{}}
\@writefile{toc}{\contentsline {subsubsection}{\numberline {5.6.3.12}Mostrar\discretionary {\unhbox \voidb@x \hbox {\relax \fontsize  {7}{8}\selectfont  $\leftarrow \joinrel  \rhook $}}{}{}Info\discretionary {\unhbox \voidb@x \hbox {\relax \fontsize  {7}{8}\selectfont  $\leftarrow \joinrel  \rhook $}}{}{}Unidad()}{39}{subsubsection.5.6.3.12}}
\newlabel{classPlayer_a3f30de757b99fa8663b30c34b1d3e1d1}{{5.6.3.12}{39}{\texorpdfstring {Mostrar\+Info\+Unidad()}{MostrarInfoUnidad()}}{subsubsection.5.6.3.12}{}}
\@writefile{toc}{\contentsline {subsubsection}{\numberline {5.6.3.13}Mover()}{39}{subsubsection.5.6.3.13}}
\newlabel{classPlayer_adff77ee63a09103875a4962af6374c5b}{{5.6.3.13}{39}{\texorpdfstring {Mover()}{Mover()}}{subsubsection.5.6.3.13}{}}
\@writefile{toc}{\contentsline {subsubsection}{\numberline {5.6.3.14}play()}{39}{subsubsection.5.6.3.14}}
\newlabel{classPlayer_a8fdabd6cf7eda8ec9b5e91b96dfe00b0}{{5.6.3.14}{39}{\texorpdfstring {play()}{play()}}{subsubsection.5.6.3.14}{}}
\@writefile{toc}{\contentsline {subsubsection}{\numberline {5.6.3.15}set\discretionary {\unhbox \voidb@x \hbox {\relax \fontsize  {7}{8}\selectfont  $\leftarrow \joinrel  \rhook $}}{}{}Baja()}{39}{subsubsection.5.6.3.15}}
\gdef \LT@xviii {\LT@entry 
    {3}{29.80966pt}\LT@entry 
    {3}{155.479pt}}
\gdef \LT@xix {\LT@entry 
    {3}{44.80347pt}\LT@entry 
    {3}{96.92627pt}}
\newlabel{classPlayer_af79bc6c5e76ff2da23e06ff2f837b84c}{{5.6.3.15}{40}{\texorpdfstring {set\+Baja()}{setBaja()}}{table.5.18}{}}
\@writefile{toc}{\contentsline {subsubsection}{\numberline {5.6.3.16}set\discretionary {\unhbox \voidb@x \hbox {\relax \fontsize  {7}{8}\selectfont  $\leftarrow \joinrel  \rhook $}}{}{}Guardar()}{40}{subsubsection.5.6.3.16}}
\newlabel{classPlayer_a6edd818c005bbfc1fc3ea0c8f4b1e7f2}{{5.6.3.16}{40}{\texorpdfstring {set\+Guardar()}{setGuardar()}}{subsubsection.5.6.3.16}{}}
\@writefile{toc}{\contentsline {subsubsection}{\numberline {5.6.3.17}set\discretionary {\unhbox \voidb@x \hbox {\relax \fontsize  {7}{8}\selectfont  $\leftarrow \joinrel  \rhook $}}{}{}Nombre()}{40}{subsubsection.5.6.3.17}}
\newlabel{classPlayer_acf5c848bf07db76f276c36221591d86c}{{5.6.3.17}{40}{\texorpdfstring {set\+Nombre()}{setNombre()}}{table.5.19}{}}
\@writefile{toc}{\contentsline {subsubsection}{\numberline {5.6.3.18}set\discretionary {\unhbox \voidb@x \hbox {\relax \fontsize  {7}{8}\selectfont  $\leftarrow \joinrel  \rhook $}}{}{}Vector()}{40}{subsubsection.5.6.3.18}}
\@writefile{toc}{\contentsline {subsection}{\numberline {5.6.4}Member Data Documentation}{40}{subsection.5.6.4}}
\newlabel{classPlayer_adba487b0665a6181e492d0a6d3f166a8}{{5.6.4}{40}{Member Data Documentation}{subsection.5.6.4}{}}
\@writefile{toc}{\contentsline {subsubsection}{\numberline {5.6.4.1}army}{40}{subsubsection.5.6.4.1}}
\newlabel{classPlayer_afedb6ca292953d9ee872f7c40d88055a}{{5.6.4.1}{40}{\texorpdfstring {army}{army}}{subsubsection.5.6.4.1}{}}
\@writefile{toc}{\contentsline {subsubsection}{\numberline {5.6.4.2}max\discretionary {\unhbox \voidb@x \hbox {\relax \fontsize  {7}{8}\selectfont  $\leftarrow \joinrel  \rhook $}}{}{}Cost}{41}{subsubsection.5.6.4.2}}
\@writefile{toc}{\contentsline {section}{\numberline {5.7}UI Class Reference}{41}{section.5.7}}
\newlabel{classUI}{{5.7}{41}{UI Class Reference}{section.5.7}{}}
\@writefile{toc}{\contentsline {subsection}{\numberline {5.7.1}Detailed Description}{42}{subsection.5.7.1}}
\@writefile{toc}{\contentsline {subsection}{\numberline {5.7.2}Constructor \& Destructor Documentation}{42}{subsection.5.7.2}}
\newlabel{classUI_a675985a56b5e87ebdc8e5884b9f2ee09}{{5.7.2}{42}{Constructor \& Destructor Documentation}{subsection.5.7.2}{}}
\@writefile{toc}{\contentsline {subsubsection}{\numberline {5.7.2.1}U\discretionary {\unhbox \voidb@x \hbox {\relax \fontsize  {7}{8}\selectfont  $\leftarrow \joinrel  \rhook $}}{}{}I()}{42}{subsubsection.5.7.2.1}}
\newlabel{classUI_a1b23d0c64c7cbb3d143d90ec532a7ccd}{{5.7.2.1}{42}{\texorpdfstring {U\+I()}{UI()}}{subsubsection.5.7.2.1}{}}
\@writefile{toc}{\contentsline {subsubsection}{\numberline {5.7.2.2}$\sim $\discretionary {\unhbox \voidb@x \hbox {\relax \fontsize  {7}{8}\selectfont  $\leftarrow \joinrel  \rhook $}}{}{}U\discretionary {\unhbox \voidb@x \hbox {\relax \fontsize  {7}{8}\selectfont  $\leftarrow \joinrel  \rhook $}}{}{}I()}{42}{subsubsection.5.7.2.2}}
\@writefile{toc}{\contentsline {subsection}{\numberline {5.7.3}Member Function Documentation}{42}{subsection.5.7.3}}
\newlabel{classUI_a8eb998456a6878e700d7128e6efa3556}{{5.7.3}{42}{Member Function Documentation}{subsection.5.7.3}{}}
\@writefile{toc}{\contentsline {subsubsection}{\numberline {5.7.3.1}cargar()}{43}{subsubsection.5.7.3.1}}
\newlabel{classUI_a625bdc9c498a1e15440b0d358a3d9d84}{{5.7.3.1}{43}{\texorpdfstring {cargar()}{cargar()}}{subsubsection.5.7.3.1}{}}
\@writefile{toc}{\contentsline {subsubsection}{\numberline {5.7.3.2}get\discretionary {\unhbox \voidb@x \hbox {\relax \fontsize  {7}{8}\selectfont  $\leftarrow \joinrel  \rhook $}}{}{}Army1()}{43}{subsubsection.5.7.3.2}}
\newlabel{classUI_a3a906789648a72522c33965ff0423dbf}{{5.7.3.2}{43}{\texorpdfstring {get\+Army1()}{getArmy1()}}{subsubsection.5.7.3.2}{}}
\@writefile{toc}{\contentsline {subsubsection}{\numberline {5.7.3.3}get\discretionary {\unhbox \voidb@x \hbox {\relax \fontsize  {7}{8}\selectfont  $\leftarrow \joinrel  \rhook $}}{}{}Army2()}{43}{subsubsection.5.7.3.3}}
\newlabel{classUI_a6a94a64920f59662f4e711eaa5167018}{{5.7.3.3}{43}{\texorpdfstring {get\+Army2()}{getArmy2()}}{subsubsection.5.7.3.3}{}}
\@writefile{toc}{\contentsline {subsubsection}{\numberline {5.7.3.4}get\discretionary {\unhbox \voidb@x \hbox {\relax \fontsize  {7}{8}\selectfont  $\leftarrow \joinrel  \rhook $}}{}{}Per1()}{43}{subsubsection.5.7.3.4}}
\newlabel{classUI_ae6ede8ec74e14e0961f75d58ca83bebb}{{5.7.3.4}{43}{\texorpdfstring {get\+Per1()}{getPer1()}}{subsubsection.5.7.3.4}{}}
\@writefile{toc}{\contentsline {subsubsection}{\numberline {5.7.3.5}get\discretionary {\unhbox \voidb@x \hbox {\relax \fontsize  {7}{8}\selectfont  $\leftarrow \joinrel  \rhook $}}{}{}Per2()}{44}{subsubsection.5.7.3.5}}
\newlabel{classUI_acb471fd4747a785d2a38a12a9b4844ae}{{5.7.3.5}{44}{\texorpdfstring {get\+Per2()}{getPer2()}}{subsubsection.5.7.3.5}{}}
\@writefile{toc}{\contentsline {subsubsection}{\numberline {5.7.3.6}guardar\discretionary {\unhbox \voidb@x \hbox {\relax \fontsize  {7}{8}\selectfont  $\leftarrow \joinrel  \rhook $}}{}{}J()}{44}{subsubsection.5.7.3.6}}
\newlabel{classUI_a02bddcfda54d31334412b94c991b5246}{{5.7.3.6}{44}{\texorpdfstring {guardar\+J()}{guardarJ()}}{subsubsection.5.7.3.6}{}}
\@writefile{toc}{\contentsline {subsubsection}{\numberline {5.7.3.7}Juego()}{44}{subsubsection.5.7.3.7}}
\newlabel{classUI_a70d9b3291c3dab33c55e9e09dd2b50a9}{{5.7.3.7}{44}{\texorpdfstring {Juego()}{Juego()}}{subsubsection.5.7.3.7}{}}
\@writefile{toc}{\contentsline {subsubsection}{\numberline {5.7.3.8}Lista\discretionary {\unhbox \voidb@x \hbox {\relax \fontsize  {7}{8}\selectfont  $\leftarrow \joinrel  \rhook $}}{}{}Partidas()}{44}{subsubsection.5.7.3.8}}
\newlabel{classUI_a73bc3013374eddda4d5dcf366002a35c}{{5.7.3.8}{44}{\texorpdfstring {Lista\+Partidas()}{ListaPartidas()}}{subsubsection.5.7.3.8}{}}
\@writefile{toc}{\contentsline {subsubsection}{\numberline {5.7.3.9}Menu\discretionary {\unhbox \voidb@x \hbox {\relax \fontsize  {7}{8}\selectfont  $\leftarrow \joinrel  \rhook $}}{}{}Principal()}{45}{subsubsection.5.7.3.9}}
\newlabel{classUI_a0939ff65172d5aae15a0ba71fd5ef4e8}{{5.7.3.9}{45}{\texorpdfstring {Menu\+Principal()}{MenuPrincipal()}}{subsubsection.5.7.3.9}{}}
\@writefile{toc}{\contentsline {subsubsection}{\numberline {5.7.3.10}Mostrar\discretionary {\unhbox \voidb@x \hbox {\relax \fontsize  {7}{8}\selectfont  $\leftarrow \joinrel  \rhook $}}{}{}Info\discretionary {\unhbox \voidb@x \hbox {\relax \fontsize  {7}{8}\selectfont  $\leftarrow \joinrel  \rhook $}}{}{}Juego()}{45}{subsubsection.5.7.3.10}}
\newlabel{classUI_a33098b2ecfe6ce3d152ba3c0355ad504}{{5.7.3.10}{45}{\texorpdfstring {Mostrar\+Info\+Juego()}{MostrarInfoJuego()}}{subsubsection.5.7.3.10}{}}
\@writefile{toc}{\contentsline {subsubsection}{\numberline {5.7.3.11}Nueva\discretionary {\unhbox \voidb@x \hbox {\relax \fontsize  {7}{8}\selectfont  $\leftarrow \joinrel  \rhook $}}{}{}Partida()}{45}{subsubsection.5.7.3.11}}
\@writefile{toc}{\contentsline {section}{\numberline {5.8}Unit Class Reference}{45}{section.5.8}}
\newlabel{classUnit}{{5.8}{45}{Unit Class Reference}{section.5.8}{}}
\@writefile{toc}{\contentsline {subsection}{\numberline {5.8.1}Detailed Description}{49}{subsection.5.8.1}}
\@writefile{toc}{\contentsline {subsection}{\numberline {5.8.2}Constructor \& Destructor Documentation}{49}{subsection.5.8.2}}
\newlabel{classUnit_a8e46f663a95736c8002d85ab271a7581}{{5.8.2}{49}{Constructor \& Destructor Documentation}{subsection.5.8.2}{}}
\@writefile{toc}{\contentsline {subsubsection}{\numberline {5.8.2.1}Unit()}{49}{subsubsection.5.8.2.1}}
\newlabel{classUnit_a6353fc4c0a329997ad4abcf0dcb4eb27}{{5.8.2.1}{49}{\texorpdfstring {Unit()}{Unit()}}{subsubsection.5.8.2.1}{}}
\@writefile{toc}{\contentsline {subsubsection}{\numberline {5.8.2.2}$\sim $\discretionary {\unhbox \voidb@x \hbox {\relax \fontsize  {7}{8}\selectfont  $\leftarrow \joinrel  \rhook $}}{}{}Unit()}{49}{subsubsection.5.8.2.2}}
\@writefile{toc}{\contentsline {subsection}{\numberline {5.8.3}Member Function Documentation}{49}{subsection.5.8.3}}
\newlabel{classUnit_a3be3f4d2df8ac3f7b54c49c31f454867}{{5.8.3}{49}{Member Function Documentation}{subsection.5.8.3}{}}
\@writefile{toc}{\contentsline {subsubsection}{\numberline {5.8.3.1}Attack()}{49}{subsubsection.5.8.3.1}}
\gdef \LT@xx {\LT@entry 
    {3}{37.63054pt}\LT@entry 
    {3}{137.50624pt}}
\newlabel{classUnit_a3e18ac594fe662bb471adc3354eb33c8}{{5.8.3.1}{50}{\texorpdfstring {Attack()}{Attack()}}{table.5.20}{}}
\@writefile{toc}{\contentsline {subsubsection}{\numberline {5.8.3.2}get\discretionary {\unhbox \voidb@x \hbox {\relax \fontsize  {7}{8}\selectfont  $\leftarrow \joinrel  \rhook $}}{}{}A\discretionary {\unhbox \voidb@x \hbox {\relax \fontsize  {7}{8}\selectfont  $\leftarrow \joinrel  \rhook $}}{}{}T\discretionary {\unhbox \voidb@x \hbox {\relax \fontsize  {7}{8}\selectfont  $\leftarrow \joinrel  \rhook $}}{}{}K()}{50}{subsubsection.5.8.3.2}}
\newlabel{classUnit_a15efc2c58533e6310832714d70e32258}{{5.8.3.2}{50}{\texorpdfstring {get\+A\+T\+K()}{getATK()}}{subsubsection.5.8.3.2}{}}
\@writefile{toc}{\contentsline {subsubsection}{\numberline {5.8.3.3}get\discretionary {\unhbox \voidb@x \hbox {\relax \fontsize  {7}{8}\selectfont  $\leftarrow \joinrel  \rhook $}}{}{}D\discretionary {\unhbox \voidb@x \hbox {\relax \fontsize  {7}{8}\selectfont  $\leftarrow \joinrel  \rhook $}}{}{}E\discretionary {\unhbox \voidb@x \hbox {\relax \fontsize  {7}{8}\selectfont  $\leftarrow \joinrel  \rhook $}}{}{}F()}{50}{subsubsection.5.8.3.3}}
\newlabel{classUnit_a01fc8e98e454abd463ebc1d29e3388e9}{{5.8.3.3}{50}{\texorpdfstring {get\+D\+E\+F()}{getDEF()}}{subsubsection.5.8.3.3}{}}
\@writefile{toc}{\contentsline {subsubsection}{\numberline {5.8.3.4}get\discretionary {\unhbox \voidb@x \hbox {\relax \fontsize  {7}{8}\selectfont  $\leftarrow \joinrel  \rhook $}}{}{}E\discretionary {\unhbox \voidb@x \hbox {\relax \fontsize  {7}{8}\selectfont  $\leftarrow \joinrel  \rhook $}}{}{}X\discretionary {\unhbox \voidb@x \hbox {\relax \fontsize  {7}{8}\selectfont  $\leftarrow \joinrel  \rhook $}}{}{}P()}{50}{subsubsection.5.8.3.4}}
\newlabel{classUnit_aac0496902a8624730503e95b0389a02d}{{5.8.3.4}{50}{\texorpdfstring {get\+E\+X\+P()}{getEXP()}}{subsubsection.5.8.3.4}{}}
\@writefile{toc}{\contentsline {subsubsection}{\numberline {5.8.3.5}get\discretionary {\unhbox \voidb@x \hbox {\relax \fontsize  {7}{8}\selectfont  $\leftarrow \joinrel  \rhook $}}{}{}H\discretionary {\unhbox \voidb@x \hbox {\relax \fontsize  {7}{8}\selectfont  $\leftarrow \joinrel  \rhook $}}{}{}P()}{51}{subsubsection.5.8.3.5}}
\newlabel{classUnit_a03781bca3c966911aa5461b7d40b4efb}{{5.8.3.5}{51}{\texorpdfstring {get\+H\+P()}{getHP()}}{subsubsection.5.8.3.5}{}}
\@writefile{toc}{\contentsline {subsubsection}{\numberline {5.8.3.6}get\discretionary {\unhbox \voidb@x \hbox {\relax \fontsize  {7}{8}\selectfont  $\leftarrow \joinrel  \rhook $}}{}{}H\discretionary {\unhbox \voidb@x \hbox {\relax \fontsize  {7}{8}\selectfont  $\leftarrow \joinrel  \rhook $}}{}{}P\discretionary {\unhbox \voidb@x \hbox {\relax \fontsize  {7}{8}\selectfont  $\leftarrow \joinrel  \rhook $}}{}{}M()}{51}{subsubsection.5.8.3.6}}
\newlabel{classUnit_a30168eb75ab14881ebc16e2acdc9ae99}{{5.8.3.6}{51}{\texorpdfstring {get\+H\+P\+M()}{getHPM()}}{subsubsection.5.8.3.6}{}}
\@writefile{toc}{\contentsline {subsubsection}{\numberline {5.8.3.7}get\discretionary {\unhbox \voidb@x \hbox {\relax \fontsize  {7}{8}\selectfont  $\leftarrow \joinrel  \rhook $}}{}{}I\discretionary {\unhbox \voidb@x \hbox {\relax \fontsize  {7}{8}\selectfont  $\leftarrow \joinrel  \rhook $}}{}{}D()}{51}{subsubsection.5.8.3.7}}
\newlabel{classUnit_abd6cced382ea91ee8f3d08c24f052f26}{{5.8.3.7}{51}{\texorpdfstring {get\+I\+D()}{getID()}}{subsubsection.5.8.3.7}{}}
\@writefile{toc}{\contentsline {subsubsection}{\numberline {5.8.3.8}get\discretionary {\unhbox \voidb@x \hbox {\relax \fontsize  {7}{8}\selectfont  $\leftarrow \joinrel  \rhook $}}{}{}Jug()}{51}{subsubsection.5.8.3.8}}
\newlabel{classUnit_ab9cb2a6aefb38bd4a27be772a25d43b6}{{5.8.3.8}{51}{\texorpdfstring {get\+Jug()}{getJug()}}{subsubsection.5.8.3.8}{}}
\@writefile{toc}{\contentsline {subsubsection}{\numberline {5.8.3.9}get\discretionary {\unhbox \voidb@x \hbox {\relax \fontsize  {7}{8}\selectfont  $\leftarrow \joinrel  \rhook $}}{}{}Level()}{52}{subsubsection.5.8.3.9}}
\newlabel{classUnit_a76c71a6f7a8f80d37118275822f32f8b}{{5.8.3.9}{52}{\texorpdfstring {get\+Level()}{getLevel()}}{subsubsection.5.8.3.9}{}}
\@writefile{toc}{\contentsline {subsubsection}{\numberline {5.8.3.10}get\discretionary {\unhbox \voidb@x \hbox {\relax \fontsize  {7}{8}\selectfont  $\leftarrow \joinrel  \rhook $}}{}{}Movement()}{52}{subsubsection.5.8.3.10}}
\newlabel{classUnit_ae28737cfa15a852fa51b54d383ea236c}{{5.8.3.10}{52}{\texorpdfstring {get\+Movement()}{getMovement()}}{subsubsection.5.8.3.10}{}}
\@writefile{toc}{\contentsline {subsubsection}{\numberline {5.8.3.11}get\discretionary {\unhbox \voidb@x \hbox {\relax \fontsize  {7}{8}\selectfont  $\leftarrow \joinrel  \rhook $}}{}{}N\discretionary {\unhbox \voidb@x \hbox {\relax \fontsize  {7}{8}\selectfont  $\leftarrow \joinrel  \rhook $}}{}{}A\discretionary {\unhbox \voidb@x \hbox {\relax \fontsize  {7}{8}\selectfont  $\leftarrow \joinrel  \rhook $}}{}{}M\discretionary {\unhbox \voidb@x \hbox {\relax \fontsize  {7}{8}\selectfont  $\leftarrow \joinrel  \rhook $}}{}{}E()}{52}{subsubsection.5.8.3.11}}
\newlabel{classUnit_acd19abb5d8a6957d7999efe60976ae8c}{{5.8.3.11}{52}{\texorpdfstring {get\+N\+A\+M\+E()}{getNAME()}}{subsubsection.5.8.3.11}{}}
\@writefile{toc}{\contentsline {subsubsection}{\numberline {5.8.3.12}get\discretionary {\unhbox \voidb@x \hbox {\relax \fontsize  {7}{8}\selectfont  $\leftarrow \joinrel  \rhook $}}{}{}Pos\discretionary {\unhbox \voidb@x \hbox {\relax \fontsize  {7}{8}\selectfont  $\leftarrow \joinrel  \rhook $}}{}{}X()}{52}{subsubsection.5.8.3.12}}
\newlabel{classUnit_a044a96058923e69cf0012e14c70ed326}{{5.8.3.12}{52}{\texorpdfstring {get\+Pos\+X()}{getPosX()}}{subsubsection.5.8.3.12}{}}
\@writefile{toc}{\contentsline {subsubsection}{\numberline {5.8.3.13}get\discretionary {\unhbox \voidb@x \hbox {\relax \fontsize  {7}{8}\selectfont  $\leftarrow \joinrel  \rhook $}}{}{}Pos\discretionary {\unhbox \voidb@x \hbox {\relax \fontsize  {7}{8}\selectfont  $\leftarrow \joinrel  \rhook $}}{}{}Y()}{53}{subsubsection.5.8.3.13}}
\newlabel{classUnit_a419a5a8677efef32ea040f4512696cc1}{{5.8.3.13}{53}{\texorpdfstring {get\+Pos\+Y()}{getPosY()}}{subsubsection.5.8.3.13}{}}
\@writefile{toc}{\contentsline {subsubsection}{\numberline {5.8.3.14}get\discretionary {\unhbox \voidb@x \hbox {\relax \fontsize  {7}{8}\selectfont  $\leftarrow \joinrel  \rhook $}}{}{}Range()}{53}{subsubsection.5.8.3.14}}
\newlabel{classUnit_acd4ed7b0b7b66f4e9e9f5dfd4f8cce30}{{5.8.3.14}{53}{\texorpdfstring {get\+Range()}{getRange()}}{subsubsection.5.8.3.14}{}}
\@writefile{toc}{\contentsline {subsubsection}{\numberline {5.8.3.15}get\discretionary {\unhbox \voidb@x \hbox {\relax \fontsize  {7}{8}\selectfont  $\leftarrow \joinrel  \rhook $}}{}{}Type()}{53}{subsubsection.5.8.3.15}}
\newlabel{classUnit_a79d18aa3e245509987fa65ba08a2c5a2}{{5.8.3.15}{53}{\texorpdfstring {get\+Type()}{getType()}}{subsubsection.5.8.3.15}{}}
\@writefile{toc}{\contentsline {subsubsection}{\numberline {5.8.3.16}less\discretionary {\unhbox \voidb@x \hbox {\relax \fontsize  {7}{8}\selectfont  $\leftarrow \joinrel  \rhook $}}{}{}H\discretionary {\unhbox \voidb@x \hbox {\relax \fontsize  {7}{8}\selectfont  $\leftarrow \joinrel  \rhook $}}{}{}P()}{53}{subsubsection.5.8.3.16}}
\gdef \LT@xxi {\LT@entry 
    {3}{25.3008pt}\LT@entry 
    {3}{100.43604pt}}
\gdef \LT@xxii {\LT@entry 
    {3}{34.44475pt}\LT@entry 
    {3}{154.85812pt}}
\gdef \LT@xxiii {\LT@entry 
    {3}{30.3047pt}\LT@entry 
    {3}{121.45953pt}}
\newlabel{classUnit_a93e4d5b4d5f06dd9074997f8f3560164}{{5.8.3.16}{54}{\texorpdfstring {less\+H\+P()}{lessHP()}}{table.5.21}{}}
\@writefile{toc}{\contentsline {subsubsection}{\numberline {5.8.3.17}Move()}{54}{subsubsection.5.8.3.17}}
\newlabel{classUnit_a8bf707b5276114f075f3b021e549d131}{{5.8.3.17}{54}{\texorpdfstring {Move()}{Move()}}{table.5.22}{}}
\@writefile{toc}{\contentsline {subsubsection}{\numberline {5.8.3.18}set\discretionary {\unhbox \voidb@x \hbox {\relax \fontsize  {7}{8}\selectfont  $\leftarrow \joinrel  \rhook $}}{}{}A\discretionary {\unhbox \voidb@x \hbox {\relax \fontsize  {7}{8}\selectfont  $\leftarrow \joinrel  \rhook $}}{}{}T\discretionary {\unhbox \voidb@x \hbox {\relax \fontsize  {7}{8}\selectfont  $\leftarrow \joinrel  \rhook $}}{}{}K()}{54}{subsubsection.5.8.3.18}}
\newlabel{classUnit_aaab2457c20bd1d63ec8366b574f17f1d}{{5.8.3.18}{54}{\texorpdfstring {set\+A\+T\+K()}{setATK()}}{table.5.23}{}}
\@writefile{toc}{\contentsline {subsubsection}{\numberline {5.8.3.19}set\discretionary {\unhbox \voidb@x \hbox {\relax \fontsize  {7}{8}\selectfont  $\leftarrow \joinrel  \rhook $}}{}{}D\discretionary {\unhbox \voidb@x \hbox {\relax \fontsize  {7}{8}\selectfont  $\leftarrow \joinrel  \rhook $}}{}{}E\discretionary {\unhbox \voidb@x \hbox {\relax \fontsize  {7}{8}\selectfont  $\leftarrow \joinrel  \rhook $}}{}{}F()}{54}{subsubsection.5.8.3.19}}
\gdef \LT@xxiv {\LT@entry 
    {3}{30.79974pt}\LT@entry 
    {3}{125.68956pt}}
\gdef \LT@xxv {\LT@entry 
    {3}{30.80864pt}\LT@entry 
    {3}{397.56503pt}}
\gdef \LT@xxvi {\LT@entry 
    {3}{25.3008pt}\LT@entry 
    {3}{115.44775pt}}
\newlabel{classUnit_aad09abdfa6752876f58ed770dec3f912}{{5.8.3.19}{55}{\texorpdfstring {set\+D\+E\+F()}{setDEF()}}{table.5.24}{}}
\@writefile{toc}{\contentsline {subsubsection}{\numberline {5.8.3.20}set\discretionary {\unhbox \voidb@x \hbox {\relax \fontsize  {7}{8}\selectfont  $\leftarrow \joinrel  \rhook $}}{}{}E\discretionary {\unhbox \voidb@x \hbox {\relax \fontsize  {7}{8}\selectfont  $\leftarrow \joinrel  \rhook $}}{}{}X\discretionary {\unhbox \voidb@x \hbox {\relax \fontsize  {7}{8}\selectfont  $\leftarrow \joinrel  \rhook $}}{}{}P()}{55}{subsubsection.5.8.3.20}}
\newlabel{classUnit_a2c8df7e954b50902a054e6ccfc7bdfe0}{{5.8.3.20}{55}{\texorpdfstring {set\+E\+X\+P()}{setEXP()}}{table.5.25}{}}
\@writefile{toc}{\contentsline {subsubsection}{\numberline {5.8.3.21}set\discretionary {\unhbox \voidb@x \hbox {\relax \fontsize  {7}{8}\selectfont  $\leftarrow \joinrel  \rhook $}}{}{}H\discretionary {\unhbox \voidb@x \hbox {\relax \fontsize  {7}{8}\selectfont  $\leftarrow \joinrel  \rhook $}}{}{}P()}{55}{subsubsection.5.8.3.21}}
\newlabel{classUnit_a90e706153fec90515e285037761d72e3}{{5.8.3.21}{55}{\texorpdfstring {set\+H\+P()}{setHP()}}{table.5.26}{}}
\@writefile{toc}{\contentsline {subsubsection}{\numberline {5.8.3.22}set\discretionary {\unhbox \voidb@x \hbox {\relax \fontsize  {7}{8}\selectfont  $\leftarrow \joinrel  \rhook $}}{}{}H\discretionary {\unhbox \voidb@x \hbox {\relax \fontsize  {7}{8}\selectfont  $\leftarrow \joinrel  \rhook $}}{}{}P\discretionary {\unhbox \voidb@x \hbox {\relax \fontsize  {7}{8}\selectfont  $\leftarrow \joinrel  \rhook $}}{}{}M()}{55}{subsubsection.5.8.3.22}}
\gdef \LT@xxvii {\LT@entry 
    {3}{32.7977pt}\LT@entry 
    {3}{153.94916pt}}
\gdef \LT@xxviii {\LT@entry 
    {3}{45.13646pt}\LT@entry 
    {3}{239.78003pt}}
\gdef \LT@xxix {\LT@entry 
    {3}{40.81645pt}\LT@entry 
    {3}{70.68275pt}}
\newlabel{classUnit_a41252f75f39f198f20edb83cc2b11f42}{{5.8.3.22}{56}{\texorpdfstring {set\+H\+P\+M()}{setHPM()}}{table.5.27}{}}
\@writefile{toc}{\contentsline {subsubsection}{\numberline {5.8.3.23}set\discretionary {\unhbox \voidb@x \hbox {\relax \fontsize  {7}{8}\selectfont  $\leftarrow \joinrel  \rhook $}}{}{}I\discretionary {\unhbox \voidb@x \hbox {\relax \fontsize  {7}{8}\selectfont  $\leftarrow \joinrel  \rhook $}}{}{}D()}{56}{subsubsection.5.8.3.23}}
\newlabel{classUnit_aabd5a5c2d0057e634f04303af3a96b97}{{5.8.3.23}{56}{\texorpdfstring {set\+I\+D()}{setID()}}{subsubsection.5.8.3.23}{}}
\@writefile{toc}{\contentsline {subsubsection}{\numberline {5.8.3.24}set\discretionary {\unhbox \voidb@x \hbox {\relax \fontsize  {7}{8}\selectfont  $\leftarrow \joinrel  \rhook $}}{}{}Jug()}{56}{subsubsection.5.8.3.24}}
\newlabel{classUnit_ae0da8782d33440e2d270fcdbb287e488}{{5.8.3.24}{56}{\texorpdfstring {set\+Jug()}{setJug()}}{table.5.28}{}}
\@writefile{toc}{\contentsline {subsubsection}{\numberline {5.8.3.25}set\discretionary {\unhbox \voidb@x \hbox {\relax \fontsize  {7}{8}\selectfont  $\leftarrow \joinrel  \rhook $}}{}{}Level()}{56}{subsubsection.5.8.3.25}}
\gdef \LT@xxx {\LT@entry 
    {3}{54.45135pt}\LT@entry 
    {3}{154.81322pt}}
\gdef \LT@xxxi {\LT@entry 
    {3}{35.30861pt}\LT@entry 
    {3}{81.41951pt}}
\gdef \LT@xxxii {\LT@entry 
    {3}{33.85962pt}\LT@entry 
    {3}{155.46999pt}}
\newlabel{classUnit_a33c610b71fd95aa0a2951515a1bc3c8f}{{5.8.3.25}{57}{\texorpdfstring {set\+Level()}{setLevel()}}{table.5.29}{}}
\@writefile{toc}{\contentsline {subsubsection}{\numberline {5.8.3.26}set\discretionary {\unhbox \voidb@x \hbox {\relax \fontsize  {7}{8}\selectfont  $\leftarrow \joinrel  \rhook $}}{}{}Movement()}{57}{subsubsection.5.8.3.26}}
\newlabel{classUnit_aec66b575c34b7a045ceddbb8fb846dbf}{{5.8.3.26}{57}{\texorpdfstring {set\+Movement()}{setMovement()}}{table.5.30}{}}
\@writefile{toc}{\contentsline {subsubsection}{\numberline {5.8.3.27}set\discretionary {\unhbox \voidb@x \hbox {\relax \fontsize  {7}{8}\selectfont  $\leftarrow \joinrel  \rhook $}}{}{}N\discretionary {\unhbox \voidb@x \hbox {\relax \fontsize  {7}{8}\selectfont  $\leftarrow \joinrel  \rhook $}}{}{}A\discretionary {\unhbox \voidb@x \hbox {\relax \fontsize  {7}{8}\selectfont  $\leftarrow \joinrel  \rhook $}}{}{}M\discretionary {\unhbox \voidb@x \hbox {\relax \fontsize  {7}{8}\selectfont  $\leftarrow \joinrel  \rhook $}}{}{}E()}{57}{subsubsection.5.8.3.27}}
\newlabel{classUnit_a22b4afa88216969ad2dc564c0aafd27e}{{5.8.3.27}{57}{\texorpdfstring {set\+N\+A\+M\+E()}{setNAME()}}{table.5.31}{}}
\@writefile{toc}{\contentsline {subsubsection}{\numberline {5.8.3.28}set\discretionary {\unhbox \voidb@x \hbox {\relax \fontsize  {7}{8}\selectfont  $\leftarrow \joinrel  \rhook $}}{}{}Pos\discretionary {\unhbox \voidb@x \hbox {\relax \fontsize  {7}{8}\selectfont  $\leftarrow \joinrel  \rhook $}}{}{}X()}{57}{subsubsection.5.8.3.28}}
\newlabel{classUnit_a346b96df9cd9001f4d48c8c7907c02e1}{{5.8.3.28}{57}{\texorpdfstring {set\+Pos\+X()}{setPosX()}}{table.5.32}{}}
\gdef \LT@xxxiii {\LT@entry 
    {3}{33.85962pt}\LT@entry 
    {3}{156.9729pt}}
\gdef \LT@xxxiv {\LT@entry 
    {3}{39.31354pt}\LT@entry 
    {3}{119.85773pt}}
\@writefile{toc}{\contentsline {subsubsection}{\numberline {5.8.3.29}set\discretionary {\unhbox \voidb@x \hbox {\relax \fontsize  {7}{8}\selectfont  $\leftarrow \joinrel  \rhook $}}{}{}Pos\discretionary {\unhbox \voidb@x \hbox {\relax \fontsize  {7}{8}\selectfont  $\leftarrow \joinrel  \rhook $}}{}{}Y()}{58}{subsubsection.5.8.3.29}}
\newlabel{classUnit_a9ab1aa89d13826495af9c79d2ae9f9f8}{{5.8.3.29}{58}{\texorpdfstring {set\+Pos\+Y()}{setPosY()}}{table.5.33}{}}
\@writefile{toc}{\contentsline {subsubsection}{\numberline {5.8.3.30}set\discretionary {\unhbox \voidb@x \hbox {\relax \fontsize  {7}{8}\selectfont  $\leftarrow \joinrel  \rhook $}}{}{}Range()}{58}{subsubsection.5.8.3.30}}
\newlabel{classUnit_af04dac030da3e579c77f83b3bc3abf05}{{5.8.3.30}{58}{\texorpdfstring {set\+Range()}{setRange()}}{table.5.34}{}}
\@writefile{toc}{\contentsline {subsubsection}{\numberline {5.8.3.31}set\discretionary {\unhbox \voidb@x \hbox {\relax \fontsize  {7}{8}\selectfont  $\leftarrow \joinrel  \rhook $}}{}{}Type()}{58}{subsubsection.5.8.3.31}}
\newlabel{classUnit_a7152aebc583e95ace27678ffbee975fd}{{5.8.3.31}{58}{\texorpdfstring {set\+Type()}{setType()}}{subsubsection.5.8.3.31}{}}
\@writefile{toc}{\contentsline {subsubsection}{\numberline {5.8.3.32}subir\discretionary {\unhbox \voidb@x \hbox {\relax \fontsize  {7}{8}\selectfont  $\leftarrow \joinrel  \rhook $}}{}{}Nivel()}{58}{subsubsection.5.8.3.32}}
\gdef \LT@xxxv {\LT@entry 
    {3}{40.81645pt}\LT@entry 
    {3}{98.06015pt}}
\@writefile{toc}{\contentsline {chapter}{\numberline {6}File Documentation}{61}{chapter.6}}
\@writefile{lof}{\addvspace {10\p@ }}
\@writefile{lot}{\addvspace {10\p@ }}
\@writefile{toc}{\contentsline {section}{\numberline {6.1}Arquero.\discretionary {\unhbox \voidb@x \hbox {\relax \fontsize  {7}{8}\selectfont  $\leftarrow \joinrel  \rhook $}}{}{}h File Reference}{61}{section.6.1}}
\newlabel{Arquero_8h}{{6.1}{61}{Arquero.\+h File Reference}{section.6.1}{}}
\@writefile{toc}{\contentsline {section}{\numberline {6.2}Caballo.\discretionary {\unhbox \voidb@x \hbox {\relax \fontsize  {7}{8}\selectfont  $\leftarrow \joinrel  \rhook $}}{}{}h File Reference}{62}{section.6.2}}
\newlabel{Caballo_8h}{{6.2}{62}{Caballo.\+h File Reference}{section.6.2}{}}
\@writefile{toc}{\contentsline {section}{\numberline {6.3}Cell.\discretionary {\unhbox \voidb@x \hbox {\relax \fontsize  {7}{8}\selectfont  $\leftarrow \joinrel  \rhook $}}{}{}h File Reference}{63}{section.6.3}}
\newlabel{Cell_8h}{{6.3}{63}{Cell.\+h File Reference}{section.6.3}{}}
\@writefile{toc}{\contentsline {section}{\numberline {6.4}Field.\discretionary {\unhbox \voidb@x \hbox {\relax \fontsize  {7}{8}\selectfont  $\leftarrow \joinrel  \rhook $}}{}{}h File Reference}{64}{section.6.4}}
\newlabel{Field_8h}{{6.4}{64}{Field.\+h File Reference}{section.6.4}{}}
\@writefile{toc}{\contentsline {section}{\numberline {6.5}header.\discretionary {\unhbox \voidb@x \hbox {\relax \fontsize  {7}{8}\selectfont  $\leftarrow \joinrel  \rhook $}}{}{}h File Reference}{65}{section.6.5}}
\newlabel{header_8h}{{6.5}{65}{header.\+h File Reference}{section.6.5}{}}
\@writefile{toc}{\contentsline {section}{\numberline {6.6}Lancero.\discretionary {\unhbox \voidb@x \hbox {\relax \fontsize  {7}{8}\selectfont  $\leftarrow \joinrel  \rhook $}}{}{}h File Reference}{66}{section.6.6}}
\newlabel{Lancero_8h}{{6.6}{66}{Lancero.\+h File Reference}{section.6.6}{}}
\@writefile{toc}{\contentsline {section}{\numberline {6.7}Player.\discretionary {\unhbox \voidb@x \hbox {\relax \fontsize  {7}{8}\selectfont  $\leftarrow \joinrel  \rhook $}}{}{}h File Reference}{67}{section.6.7}}
\newlabel{Player_8h}{{6.7}{67}{Player.\+h File Reference}{section.6.7}{}}
\@writefile{toc}{\contentsline {section}{\numberline {6.8}U\discretionary {\unhbox \voidb@x \hbox {\relax \fontsize  {7}{8}\selectfont  $\leftarrow \joinrel  \rhook $}}{}{}I.\discretionary {\unhbox \voidb@x \hbox {\relax \fontsize  {7}{8}\selectfont  $\leftarrow \joinrel  \rhook $}}{}{}h File Reference}{68}{section.6.8}}
\newlabel{UI_8h}{{6.8}{68}{U\+I.\+h File Reference}{section.6.8}{}}
\@writefile{toc}{\contentsline {section}{\numberline {6.9}Unit.\discretionary {\unhbox \voidb@x \hbox {\relax \fontsize  {7}{8}\selectfont  $\leftarrow \joinrel  \rhook $}}{}{}h File Reference}{69}{section.6.9}}
\newlabel{Unit_8h}{{6.9}{69}{Unit.\+h File Reference}{section.6.9}{}}
